src/CPU_Wave.vcd
$date
	Mon Jun 12 21:17:33 2023
$end
$version
	Icarus Verilog
$end
$timescale
	1ps
$end
$scope module ExtUnit_NPC_206 $end
$var wire 1 ! ExtOp $end
$var wire 16 " in [15:0] $end
$var wire 30 # out [29:0] $end
$var reg 30 $ out_t [29:0] $end
$upscope $end
$scope module tb_PipeLine_CPU $end
$var reg 1 % clk $end
$var reg 1 & rst $end
$var integer 32 ' clk_num [31:0] $end
$var integer 32 ( fd [31:0] $end
$var integer 32 ) i [31:0] $end
$scope module u_PipeLine_CPU $end
$var wire 1 * BranchCtr_ID $end
$var wire 1 % clk $end
$var wire 1 + flush $end
$var wire 1 & rst $end
$var wire 5 , shamt_ID [4:0] $end
$var wire 5 - shamt_Ex [4:0] $end
$var wire 16 . imm16_ID [15:0] $end
$var wire 16 / imm16_Ex [15:0] $end
$var wire 32 0 busW [31:0] $end
$var wire 32 1 busB_out_Ex [31:0] $end
$var wire 32 2 busB_Mem [31:0] $end
$var wire 32 3 busB_ID [31:0] $end
$var wire 32 4 busB_Ex [31:0] $end
$var wire 2 5 busBSrc_ByPassing [1:0] $end
$var wire 32 6 busA_ID [31:0] $end
$var wire 32 7 busA_Ex [31:0] $end
$var wire 1 8 ZF_Mem $end
$var wire 1 9 ZF_Ex $end
$var wire 1 : WrByte_Mem $end
$var wire 1 ; WrByte_ID $end
$var wire 1 < WrByte_Ex $end
$var wire 1 = Sign_Mem $end
$var wire 1 > Sign_Ex $end
$var wire 1 ? Rtype_L_Wr $end
$var wire 1 @ Rtype_L_Mem $end
$var wire 1 A Rtype_L_ID $end
$var wire 1 B Rtype_L_Ex $end
$var wire 1 C Rtype_J_Mem $end
$var wire 1 D Rtype_J_ID $end
$var wire 1 E Rtype_J_Ex $end
$var wire 1 F Rtype_ID $end
$var wire 1 G Rtype_Ex $end
$var wire 5 H Rt_out_ID [4:0] $end
$var wire 5 I Rt_Mem [4:0] $end
$var wire 5 J Rt_Ex [4:0] $end
$var wire 5 K Rs_out_ID [4:0] $end
$var wire 5 L Rs_Ex [4:0] $end
$var wire 5 M Reg_Target_out_Mem [4:0] $end
$var wire 5 N Reg_Target_Wr [4:0] $end
$var wire 5 O Reg_Target_Mem [4:0] $end
$var wire 5 P Reg_Target_Ex [4:0] $end
$var wire 1 Q RegWr_Wr $end
$var wire 1 R RegWr_Mem $end
$var wire 1 S RegWr_ID $end
$var wire 1 T RegWr_Ex $end
$var wire 1 U RegDst_ID $end
$var wire 1 V RegDst_Ex $end
$var wire 5 W Rd_out_ID [4:0] $end
$var wire 5 X Rd_Ex [4:0] $end
$var wire 32 Y PC_Addr_out_ID [31:0] $end
$var wire 32 Z PC_Addr_out_Ex [31:0] $end
$var wire 32 [ PC_Addr_Wr [31:0] $end
$var wire 32 \ PC_Addr_Mem [31:0] $end
$var wire 32 ] PC_Addr_IF [31:0] $end
$var wire 32 ^ PC_Addr_ID [31:0] $end
$var wire 6 _ OP_out_Ex [5:0] $end
$var wire 6 ` OP_Mem [5:0] $end
$var wire 6 a OP_ID [5:0] $end
$var wire 1 b OF_Mem $end
$var wire 1 c OF_Ex $end
$var wire 32 d Mem_Data_out_Mem [31:0] $end
$var wire 32 e Mem_Data_Wr [31:0] $end
$var wire 1 f MemWr_Mem $end
$var wire 1 g MemWr_ID $end
$var wire 1 h MemWr_Ex $end
$var wire 1 i MemToReg_Wr $end
$var wire 1 j MemToReg_Mem $end
$var wire 1 k MemToReg_ID $end
$var wire 1 l MemToReg_Ex $end
$var wire 2 m LoadByte_Mem [1:0] $end
$var wire 2 n LoadByte_ID [1:0] $end
$var wire 2 o LoadByte_Ex [1:0] $end
$var wire 1 p Jump_Mem $end
$var wire 1 q Jump_ID $end
$var wire 1 r Jump_Ex $end
$var wire 1 s Jal_Wr $end
$var wire 1 t Jal_Mem $end
$var wire 1 u Jal_ID $end
$var wire 1 v Jal_Ex $end
$var wire 32 w J_Addr_out_Mem [31:0] $end
$var wire 32 x J_Addr_out_Ex [31:0] $end
$var wire 32 y J_Addr_Mem [31:0] $end
$var wire 32 z J_Addr_ID [31:0] $end
$var wire 32 { J_Addr_Ex [31:0] $end
$var wire 32 | Instruction_IF [31:0] $end
$var wire 32 } Instruction_ID [31:0] $end
$var wire 2 ~ ExtOp_ID [1:0] $end
$var wire 2 !" ExtOp_Ex [1:0] $end
$var wire 1 "" Branch_Mem $end
$var wire 1 #" Branch_ID $end
$var wire 1 $" Branch_Ex $end
$var wire 1 %" BranchPredict_fault $end
$var wire 1 &" BranchPredict_Mem $end
$var wire 1 '" BranchPredict_IF $end
$var wire 1 (" BranchPredict_ID $end
$var wire 1 )" BranchPredict_Ex $end
$var wire 1 *" BranchCtr_Mem $end
$var wire 32 +" B_J_Addr_PC [31:0] $end
$var wire 32 ," B_J_Addr [31:0] $end
$var wire 32 -" B_Amendment_Addr [31:0] $end
$var wire 32 ." B_Addr_Mem [31:0] $end
$var wire 32 /" B_Addr_IF [31:0] $end
$var wire 32 0" B_Addr_Ex [31:0] $end
$var wire 32 1" ALU_ans_out_Mem [31:0] $end
$var wire 32 2" ALU_ans_Wr [31:0] $end
$var wire 32 3" ALU_ans_Mem [31:0] $end
$var wire 32 4" ALU_ans_Ex [31:0] $end
$var wire 1 5" ALUSrc_ID $end
$var wire 1 6" ALUSrc_Ex $end
$var wire 2 7" ALUSrcB_ByPassing [1:0] $end
$var wire 2 8" ALUSrcA_ByPassing [1:0] $end
$var wire 5 9" ALUCtr_ID [4:0] $end
$var wire 5 :" ALUCtr_Ex [4:0] $end
$scope module BranchPredict_Unit $end
$var wire 1 % clk $end
$var wire 32 ;" PC_Addr_Mem [31:0] $end
$var wire 32 <" PC_Addr_IF [31:0] $end
$var wire 1 &" BranchPredict_Mem $end
$var wire 1 *" BranchCtr_Mem $end
$var reg 1 '" BranchPredict_IF $end
$var reg 1 %" BranchPredict_fault $end
$var integer 32 =" i [31:0] $end
$scope begin CHANGE_STATUS $end
$upscope $end
$scope begin FIND_ADDR_ID $end
$upscope $end
$scope begin FIND_ADDR_IF $end
$upscope $end
$upscope $end
$scope module Ex_Mem $end
$var wire 1 % clk $end
$var wire 1 + flush $end
$var wire 32 >" busB_Ex [31:0] $end
$var wire 1 9 ZF_Ex $end
$var wire 1 < WrByte_Ex $end
$var wire 1 > Sign_Ex $end
$var wire 1 B Rtype_L_Ex $end
$var wire 1 E Rtype_J_Ex $end
$var wire 5 ?" Rt_Ex [4:0] $end
$var wire 5 @" Reg_Target_Ex [4:0] $end
$var wire 1 T RegWr_Ex $end
$var wire 32 A" PC_Addr_Ex [31:0] $end
$var wire 6 B" OP_Ex [5:0] $end
$var wire 1 c OF_Ex $end
$var wire 1 h MemWr_Ex $end
$var wire 1 l MemToReg_Ex $end
$var wire 2 C" LoadByte_Ex [1:0] $end
$var wire 1 r Jump_Ex $end
$var wire 1 v Jal_Ex $end
$var wire 32 D" J_Addr_Ex [31:0] $end
$var wire 1 $" Branch_Ex $end
$var wire 1 )" BranchPredict_Ex $end
$var wire 32 E" B_Addr_Ex [31:0] $end
$var wire 32 F" ALU_ans_Ex [31:0] $end
$var reg 32 G" ALU_ans_Mem [31:0] $end
$var reg 32 H" B_Addr_Mem [31:0] $end
$var reg 1 &" BranchPredict_Mem $end
$var reg 1 "" Branch_Mem $end
$var reg 32 I" J_Addr_Mem [31:0] $end
$var reg 1 t Jal_Mem $end
$var reg 1 p Jump_Mem $end
$var reg 2 J" LoadByte_Mem [1:0] $end
$var reg 1 j MemToReg_Mem $end
$var reg 1 f MemWr_Mem $end
$var reg 1 b OF_Mem $end
$var reg 6 K" OP_Mem [5:0] $end
$var reg 32 L" PC_Addr_Mem [31:0] $end
$var reg 1 R RegWr_Mem $end
$var reg 5 M" Reg_Target_Mem [4:0] $end
$var reg 5 N" Rt_Mem [4:0] $end
$var reg 1 C Rtype_J_Mem $end
$var reg 1 @ Rtype_L_Mem $end
$var reg 1 = Sign_Mem $end
$var reg 1 : WrByte_Mem $end
$var reg 1 8 ZF_Mem $end
$var reg 32 O" busB_Mem [31:0] $end
$upscope $end
$scope module ExecUnit $end
$var wire 32 P" Ex_Mem_ByPassing_A [31:0] $end
$var wire 32 Q" Ex_Mem_ByPassing_B [31:0] $end
$var wire 32 R" J_Addr_out_Ex [31:0] $end
$var wire 5 S" shamt_Ex [4:0] $end
$var wire 32 T" imm_16_Ext [31:0] $end
$var wire 16 U" imm16_Ex [15:0] $end
$var wire 32 V" busB_out_Ex [31:0] $end
$var wire 32 W" busB_Ex [31:0] $end
$var wire 2 X" busBSrc_ByPassing [1:0] $end
$var wire 32 Y" busA_Ex [31:0] $end
$var wire 1 9 ZF_Ex $end
$var wire 1 < WrByte_Ex $end
$var wire 1 > Sign_Ex $end
$var wire 1 B Rtype_L_Ex $end
$var wire 1 E Rtype_J_Ex $end
$var wire 5 Z" Rt_Ex [4:0] $end
$var wire 5 [" Reg_Target_Ex [4:0] $end
$var wire 1 T RegWr_Ex $end
$var wire 1 V RegDst_Ex $end
$var wire 5 \" Rd_Ex [4:0] $end
$var wire 32 ]" PC_Addr_Ex [31:0] $end
$var wire 6 ^" OP_Ex [5:0] $end
$var wire 1 c OF_Ex $end
$var wire 32 _" Mem_Wr_ByPassing_B [31:0] $end
$var wire 32 `" Mem_Wr_ByPassing_A [31:0] $end
$var wire 1 h MemWr_Ex $end
$var wire 1 l MemToReg_Ex $end
$var wire 2 a" LoadByte_Ex [1:0] $end
$var wire 1 r Jump_Ex $end
$var wire 1 v Jal_Ex $end
$var wire 32 b" J_Addr_Ex [31:0] $end
$var wire 2 c" ExtOp_Ex [1:0] $end
$var wire 1 $" Branch_Ex $end
$var wire 32 d" B_Addr_Ex [31:0] $end
$var wire 32 e" ALU_input_B [31:0] $end
$var wire 32 f" ALU_input_A [31:0] $end
$var wire 32 g" ALU_ans_Ex [31:0] $end
$var wire 1 6" ALUSrc_Ex $end
$var wire 2 h" ALUSrcB_ByPassing [1:0] $end
$var wire 2 i" ALUSrcA_ByPassing [1:0] $end
$var wire 5 j" ALUCtr_Ex [4:0] $end
$scope module ALU $end
$var wire 5 k" shamt [4:0] $end
$var wire 32 l" B [31:0] $end
$var wire 5 m" ALUCtr [4:0] $end
$var wire 32 n" A [31:0] $end
$var reg 1 c OverFlow $end
$var reg 1 > Sign $end
$var reg 1 9 Zero $end
$var reg 32 o" result [31:0] $end
$var reg 33 p" temp [32:0] $end
$var integer 32 q" t1 [31:0] $end
$var integer 32 r" t2 [31:0] $end
$upscope $end
$scope module ExtUnit_Ex $end
$var wire 32 s" out [31:0] $end
$var wire 16 t" in [15:0] $end
$var wire 2 u" ExtOp [1:0] $end
$var reg 32 v" out_t [31:0] $end
$upscope $end
$scope module MUX_ALUSrc_A $end
$var wire 32 w" B [31:0] $end
$var wire 32 x" C [31:0] $end
$var wire 2 y" S [1:0] $end
$var wire 32 z" D [31:0] $end
$var wire 32 {" A [31:0] $end
$var reg 32 |" Y [31:0] $end
$upscope $end
$scope module MUX_ALUSrc_B $end
$var wire 32 }" B [31:0] $end
$var wire 32 ~" C [31:0] $end
$var wire 2 !# S [1:0] $end
$var wire 32 "# D [31:0] $end
$var wire 32 ## A [31:0] $end
$var reg 32 $# Y [31:0] $end
$upscope $end
$scope module MUX_busB $end
$var wire 32 %# B [31:0] $end
$var wire 32 &# C [31:0] $end
$var wire 2 '# S [1:0] $end
$var wire 32 (# D [31:0] $end
$var wire 32 )# A [31:0] $end
$var reg 32 *# Y [31:0] $end
$upscope $end
$upscope $end
$scope module ForwardingUnit $end
$var wire 5 +# RegTarget_EX_Mem [4:0] $end
$var wire 1 R RegWr_Ex_Mem $end
$var wire 5 ,# Rt_ID_EX [4:0] $end
$var wire 5 -# Rs_ID_EX [4:0] $end
$var wire 1 Q RegWr_Mem_Wr $end
$var wire 5 .# RegTarget_Mem_Wr [4:0] $end
$var wire 1 h MemWr_ID_EX $end
$var wire 1 6" ALUSrc_ID_Ex $end
$var reg 2 /# ALU_Src_A [1:0] $end
$var reg 2 0# ALU_Src_B [1:0] $end
$var reg 2 1# busBSrc [1:0] $end
$upscope $end
$scope module IDUnit $end
$var wire 1 * BranchCtr_ID $end
$var wire 26 2# J_Target_ID [25:0] $end
$var wire 6 3# OP_ID [5:0] $end
$var wire 6 4# OP_out_ID [5:0] $end
$var wire 1 5# OverFlow_Wr $end
$var wire 32 6# PC_Addr_out_ID [31:0] $end
$var wire 5 7# Rd_ID [4:0] $end
$var wire 5 8# Rd_out_ID [4:0] $end
$var wire 5 9# Rs_ID [4:0] $end
$var wire 5 :# Rs_out_ID [4:0] $end
$var wire 5 ;# Rt_ID [4:0] $end
$var wire 5 <# Rt_out_ID [4:0] $end
$var wire 1 % clk $end
$var wire 6 =# func_ID [5:0] $end
$var wire 6 ># func_out_ID [5:0] $end
$var wire 16 ?# imm16_ID [15:0] $end
$var wire 16 @# imm16_out_ID [15:0] $end
$var wire 5 A# shamt_ID [4:0] $end
$var wire 5 B# shamt_out_ID [4:0] $end
$var wire 32 C# busW [31:0] $end
$var wire 32 D# busB_ID [31:0] $end
$var wire 32 E# busA_ID [31:0] $end
$var wire 1 ; WrByte_ID $end
$var wire 5 F# Rw_Wr [4:0] $end
$var wire 1 A Rtype_L_ID $end
$var wire 1 D Rtype_J_ID $end
$var wire 1 F Rtype_ID $end
$var wire 1 Q RegWr_Wr $end
$var wire 1 S RegWr_ID $end
$var wire 1 U RegDst_ID $end
$var wire 32 G# PC_Addr_ID [31:0] $end
$var wire 1 g MemWr_ID $end
$var wire 1 k MemToReg_ID $end
$var wire 2 H# LoadByte_ID [1:0] $end
$var wire 1 q Jump_ID $end
$var wire 1 s Jal_Wr $end
$var wire 1 u Jal_ID $end
$var wire 32 I# J_Addr_ID [31:0] $end
$var wire 2 J# ExtOp_ID [1:0] $end
$var wire 1 #" Branch_ID $end
$var wire 1 5" ALUSrc_ID $end
$var wire 5 K# ALUCtr_ID [4:0] $end
$scope module ControlUnit $end
$var wire 6 L# OP [5:0] $end
$var wire 6 M# func [5:0] $end
$var reg 5 N# ALUCtr [4:0] $end
$var reg 1 5" ALUSrc $end
$var reg 1 #" Branch $end
$var reg 2 O# ExtOp [1:0] $end
$var reg 1 u Jal $end
$var reg 1 q Jump $end
$var reg 2 P# LoadByte [1:0] $end
$var reg 1 k MemToReg $end
$var reg 1 g MemWr $end
$var reg 1 U RegDst $end
$var reg 1 S RegWr $end
$var reg 1 F Rtype $end
$var reg 1 D Rtype_J $end
$var reg 1 A Rtype_L $end
$var reg 1 ; WrByte $end
$upscope $end
$scope module Regfile $end
$var wire 5 Q# Ra [4:0] $end
$var wire 5 R# Rb [4:0] $end
$var wire 1 S# WrEn $end
$var wire 1 % clk $end
$var wire 32 T# busW [31:0] $end
$var wire 5 U# Rw [4:0] $end
$var wire 1 s Jal $end
$var reg 32 V# busA [31:0] $end
$var reg 32 W# busB [31:0] $end
$upscope $end
$upscope $end
$scope module ID_EX $end
$var wire 5 X# ALUCtr_ID [4:0] $end
$var wire 1 5" ALUSrc_ID $end
$var wire 1 #" Branch_ID $end
$var wire 2 Y# ExtOp_ID [1:0] $end
$var wire 32 Z# J_Addr_ID [31:0] $end
$var wire 1 u Jal_ID $end
$var wire 1 q Jump_ID $end
$var wire 2 [# LoadByte_ID [1:0] $end
$var wire 1 k MemToReg_ID $end
$var wire 1 g MemWr_ID $end
$var wire 6 \# OP_out_ID [5:0] $end
$var wire 32 ]# PC_Addr_out_ID [31:0] $end
$var wire 5 ^# Rd_ID [4:0] $end
$var wire 1 U RegDst_ID $end
$var wire 1 S RegWr_ID $end
$var wire 5 _# Rs_ID [4:0] $end
$var wire 5 `# Rt_ID [4:0] $end
$var wire 1 F Rtype_ID $end
$var wire 1 D Rtype_J_ID $end
$var wire 1 A Rtype_L_ID $end
$var wire 1 ; WrByte_ID $end
$var wire 32 a# busA_ID [31:0] $end
$var wire 32 b# busB_ID [31:0] $end
$var wire 1 % clk $end
$var wire 1 + flush $end
$var wire 6 c# func_out_ID [5:0] $end
$var wire 16 d# imm16_ID [15:0] $end
$var wire 5 e# shamt_ID [4:0] $end
$var wire 1 f# stall $end
$var wire 1 (" BranchPredict_ID $end
$var reg 5 g# ALUCtr_Ex [4:0] $end
$var reg 1 6" ALUSrc_Ex $end
$var reg 1 )" BranchPredict_Ex $end
$var reg 1 $" Branch_Ex $end
$var reg 2 h# ExtOp_Ex [1:0] $end
$var reg 32 i# J_Addr_Ex [31:0] $end
$var reg 1 v Jal_Ex $end
$var reg 1 r Jump_Ex $end
$var reg 2 j# LoadByte_Ex [1:0] $end
$var reg 1 l MemToReg_Ex $end
$var reg 1 h MemWr_Ex $end
$var reg 6 k# OP_out_Ex [5:0] $end
$var reg 32 l# PC_Addr_out_Ex [31:0] $end
$var reg 5 m# Rd_Ex [4:0] $end
$var reg 1 V RegDst_Ex $end
$var reg 1 T RegWr_Ex $end
$var reg 5 n# Rs_Ex [4:0] $end
$var reg 5 o# Rt_Ex [4:0] $end
$var reg 1 G Rtype_Ex $end
$var reg 1 E Rtype_J_Ex $end
$var reg 1 B Rtype_L_Ex $end
$var reg 1 < WrByte_Ex $end
$var reg 32 p# busA_Ex [31:0] $end
$var reg 32 q# busB_Ex [31:0] $end
$var reg 6 r# func_out_Ex [5:0] $end
$var reg 16 s# imm16_Ex [15:0] $end
$var reg 5 t# shamt_Ex [4:0] $end
$upscope $end
$scope module IF_ID $end
$var wire 1 '" BranchPredict_IF $end
$var wire 1 % clk $end
$var wire 1 + flush $end
$var wire 32 u# PC_Addr_IF [31:0] $end
$var wire 32 v# Instruction_IF [31:0] $end
$var reg 1 (" BranchPredict_ID $end
$var reg 32 w# Instruction_ID [31:0] $end
$var reg 32 x# PC_Addr_ID [31:0] $end
$upscope $end
$scope module IUnit $end
$var wire 1 y# PC_Src $end
$var wire 30 z# Target_PC_Addr [31:2] $end
$var wire 1 % clk $end
$var wire 1 & rst $end
$var wire 30 {# PC_out [31:2] $end
$var wire 30 |# PC_Plus_4 [31:2] $end
$var wire 32 }# PC_Addr [31:0] $end
$var wire 30 ~# PCSrc_MUX_out [31:2] $end
$var wire 32 !$ Instruction [31:0] $end
$var wire 32 "$ B_imm16_ext [31:0] $end
$var wire 16 #$ B_imm16 [15:0] $end
$var wire 32 $$ B_Addr_IF [31:0] $end
$scope module Ext_B_imm16 $end
$var wire 2 %$ ExtOp [1:0] $end
$var wire 16 &$ in [15:0] $end
$var wire 32 '$ out [31:0] $end
$var reg 32 ($ out_t [31:0] $end
$upscope $end
$scope module IM $end
$var wire 10 )$ Addr [11:2] $end
$var wire 32 *$ Dout [31:0] $end
$upscope $end
$scope module MUX_PCSrc $end
$var wire 30 +$ A [29:0] $end
$var wire 30 ,$ B [29:0] $end
$var wire 1 -$ S $end
$var wire 30 .$ Y [29:0] $end
$upscope $end
$scope module PC $end
$var wire 30 /$ Next_I_Addr [31:2] $end
$var wire 1 % clk $end
$var wire 1 & rst $end
$var wire 1 0$ stall $end
$var reg 30 1$ I_Addr [31:2] $end
$upscope $end
$upscope $end
$scope module MUX_BranchPredict_B_J $end
$var wire 32 2$ B [31:0] $end
$var wire 1 3$ S $end
$var wire 32 4$ Y [31:0] $end
$var wire 32 5$ A [31:0] $end
$upscope $end
$scope module MUX_Branch_Amendment_Addr $end
$var wire 32 6$ A [31:0] $end
$var wire 32 7$ B [31:0] $end
$var wire 1 &" S $end
$var wire 32 8$ Y [31:0] $end
$upscope $end
$scope module MUX_Branch_Amendment_Jump $end
$var wire 32 9$ B [31:0] $end
$var wire 1 :$ S $end
$var wire 32 ;$ Y [31:0] $end
$var wire 32 <$ A [31:0] $end
$upscope $end
$scope module MemUnit $end
$var wire 32 =$ ALU_ans_Mem [31:0] $end
$var wire 32 >$ ALU_ans_out_Mem [31:0] $end
$var wire 1 "" Branch_Mem $end
$var wire 32 ?$ J_Addr_Mem [31:0] $end
$var wire 1 t Jal_Mem $end
$var wire 2 @$ LoadByte_Mem [1:0] $end
$var wire 1 j MemToReg_Mem $end
$var wire 1 f MemWr_Mem $end
$var wire 1 b OF_Mem $end
$var wire 6 A$ OP_Mem [5:0] $end
$var wire 32 B$ PC_Addr_Mem [31:0] $end
$var wire 1 R RegWr_Mem $end
$var wire 5 C$ Reg_Target_Mem [4:0] $end
$var wire 5 D$ Reg_Target_out_Mem [4:0] $end
$var wire 5 E$ Rt_Mem [4:0] $end
$var wire 1 C Rtype_J_Mem $end
$var wire 1 @ Rtype_L_Mem $end
$var wire 1 = Sign_Mem $end
$var wire 1 : WrByte_Mem $end
$var wire 1 8 ZF_Mem $end
$var wire 32 F$ busB_Mem [31:0] $end
$var wire 1 % clk $end
$var wire 32 G$ Word_Data_out [31:0] $end
$var wire 32 H$ Mem_Data_out [31:0] $end
$var wire 32 I$ J_Addr_out_Mem [31:0] $end
$var wire 8 J$ Byte_Data_out [7:0] $end
$var wire 32 K$ Byte_Data_ext [31:0] $end
$var wire 1 *" BranchCtr_Mem $end
$scope module Branch_Control_Unit $end
$var wire 1 "" Branch $end
$var wire 5 L$ BranchFlag [4:0] $end
$var wire 6 M$ OP [5:0] $end
$var wire 1 b OverFlow $end
$var wire 1 = Sign $end
$var wire 1 8 Zero $end
$var reg 1 *" BranchCtr $end
$upscope $end
$scope module DM_4K $end
$var wire 12 N$ Addr [11:0] $end
$var wire 8 O$ ByteDout [7:0] $end
$var wire 32 P$ Din [31:0] $end
$var wire 1 : WrByte $end
$var wire 1 f WrEn $end
$var wire 1 % clk $end
$var wire 32 Q$ Dout [31:0] $end
$upscope $end
$scope module Ext_Byte $end
$var wire 1 R$ ExtOp $end
$var wire 8 S$ in [7:0] $end
$var wire 32 T$ out [31:0] $end
$var reg 32 U$ out_t [31:0] $end
$upscope $end
$scope module MUX_Byte_Word $end
$var wire 32 V$ A [31:0] $end
$var wire 32 W$ B [31:0] $end
$var wire 1 X$ S $end
$var wire 32 Y$ Y [31:0] $end
$upscope $end
$upscope $end
$scope module Mem_Wr $end
$var wire 32 Z$ ALU_ans_Mem [31:0] $end
$var wire 1 t Jal_Mem $end
$var wire 1 j MemToReg_Mem $end
$var wire 32 [$ Mem_Data_Mem [31:0] $end
$var wire 32 \$ PC_Addr_Mem [31:0] $end
$var wire 1 R RegWr_Mem $end
$var wire 5 ]$ Reg_Target_Mem [4:0] $end
$var wire 1 @ Rtype_L_Mem $end
$var wire 1 % clk $end
$var reg 32 ^$ ALU_ans_Wr [31:0] $end
$var reg 1 s Jal_Wr $end
$var reg 1 i MemToReg_Wr $end
$var reg 32 _$ Mem_Data_Wr [31:0] $end
$var reg 32 `$ PC_Addr_Wr [31:0] $end
$var reg 1 Q RegWr_Wr $end
$var reg 5 a$ Reg_Target_Wr [4:0] $end
$var reg 1 ? Rtype_L_Wr $end
$upscope $end
$scope module WrUnit $end
$var wire 32 b$ ALU_ans_Wr [31:0] $end
$var wire 1 s Jal_Wr $end
$var wire 1 i MemToReg_Wr $end
$var wire 32 c$ Mem_Data_Wr [31:0] $end
$var wire 32 d$ PC_Addr_Wr [31:0] $end
$var wire 1 ? Rtype_L_Wr $end
$var wire 32 e$ busW_Wr [31:0] $end
$var wire 32 f$ MUX_1_data [31:0] $end
$scope module MUX_ALU_Memory $end
$var wire 32 g$ A [31:0] $end
$var wire 32 h$ B [31:0] $end
$var wire 1 i S $end
$var wire 32 i$ Y [31:0] $end
$upscope $end
$scope module MUX_data_PCAddr $end
$var wire 32 j$ A [31:0] $end
$var wire 32 k$ B [31:0] $end
$var wire 1 l$ S $end
$var wire 32 m$ Y [31:0] $end
$upscope $end
$upscope $end
$upscope $end
$upscope $end
$enddefinitions $end
#0
$dumpvars
bx m$
xl$
bx k$
bx j$
bx i$
bx h$
bx g$
bx f$
bx e$
bx d$
bx c$
bx b$
bx a$
bx `$
bx _$
bx ^$
bx ]$
bx \$
bx [$
bx Z$
bx Y$
xX$
bx W$
bx V$
bx U$
bx T$
bx S$
xR$
bx Q$
bx P$
bx O$
bx N$
bx M$
bx L$
bx K$
bx J$
bx I$
bx H$
bx G$
bx F$
bx E$
bx D$
bx C$
bx B$
bx A$
bx @$
bx ?$
bx >$
bx =$
bx <$
bx ;$
x:$
bx 9$
bx 8$
bx 7$
bx 6$
bx 5$
bx 4$
x3$
b100 2$
b0 1$
00$
b1 /$
b1 .$
0-$
b1 ,$
bx +$
b100100000000010000000000000001 *$
b0 )$
b1 ($
b1 '$
b1 &$
b1 %$
b100 $$
b1 #$
b1 "$
b100100000000010000000000000001 !$
b1 ~#
b0 }#
b1 |#
b0 {#
bx z#
xy#
bx00 x#
bx w#
b100100000000010000000000000001 v#
b0 u#
bx t#
bx s#
bz r#
bx q#
bx p#
bx o#
bx n#
bx m#
bx l#
bx k#
bx j#
bx00 i#
bx h#
bx g#
zf#
bx e#
bx d#
bz c#
bx b#
bx a#
bx `#
bx _#
bx ^#
bx00 ]#
bx \#
bx [#
bx00 Z#
bx Y#
bx X#
bx W#
bx V#
bx U#
bx T#
xS#
bx R#
bx Q#
bx P#
bx O#
bx N#
bx M#
bx L#
bx K#
bx J#
bx00 I#
bx H#
bx00 G#
bx F#
bx E#
bx D#
bx C#
bx B#
bx A#
bx @#
bx ?#
bx >#
bx =#
bx <#
bx ;#
bx :#
bx 9#
bx 8#
bx 7#
bx00 6#
05#
bx 4#
bx 3#
bx 2#
bx 1#
bx 0#
bx /#
bx .#
bx -#
bx ,#
bx +#
bx *#
bx )#
bx (#
bx '#
bz &#
bx %#
bx $#
bx ##
bx "#
bx !#
bx ~"
bx }"
bx |"
bx {"
bx z"
bx y"
bz x"
bx w"
bx v"
bx u"
bx t"
bx s"
bx r"
bx q"
bx p"
bx o"
bx n"
bx m"
bx l"
bx k"
bx j"
bx i"
bx h"
bx g"
bx f"
bx e"
bx d"
bx c"
bx00 b"
bx a"
bx `"
bx _"
bx ^"
bx ]"
bx \"
bx ["
bx Z"
bx Y"
bx X"
bx W"
bx V"
bx U"
bx T"
bx S"
bx00 R"
bx Q"
bx P"
bx O"
bx N"
bx M"
bx L"
bx K"
bx J"
bx I"
bx H"
bx G"
bx F"
bx E"
bx00 D"
bx C"
bx B"
bx A"
bx @"
bx ?"
bx >"
b111 ="
b0 <"
bx ;"
bx :"
bx 9"
bx 8"
bx 7"
x6"
x5"
bx 4"
bx 3"
bx 2"
bx 1"
bx 0"
b100 /"
bx ."
bx -"
bx ,"
bx +"
0*"
x)"
x("
x'"
x&"
0%"
x$"
x#"
x""
bx !"
bx ~
bx }
b100100000000010000000000000001 |
bx00 {
bx00 z
bx y
bx00 x
bx w
xv
xu
xt
xs
xr
xq
xp
bx o
bx n
bx m
xl
xk
xj
xi
xh
xg
xf
bx e
bx d
0c
0b
bx a
bx `
bx _
bx00 ^
b0 ]
bx \
bx [
bx Z
bx00 Y
bx X
bx W
xV
xU
xT
xS
xR
xQ
bx P
bx O
bx N
bx M
bx L
bx K
bx J
bx I
bx H
xG
xF
xE
xD
xC
xB
xA
x@
x?
x>
x=
x<
x;
x:
09
08
bx 7
bx 6
bx 5
bx 4
bx 3
bx 2
bx 1
bx 0
bx /
bx .
bx -
bx ,
x+
z*
b0 )
b10000000000000000000000000000011 (
b0 '
1&
1%
bx $
bx #
bz "
z!
$end
#1000
0'"
b10000000000 ="
#5000
0&
0%
#6000
b111 ="
#7000
b100000 )
b1 '
#10000
b1000100000000 "$
b1000100000000 '$
b1000100000000 ($
b0 n
b0 H#
b0 P#
b0 [#
0;
0A
0D
0u
0F
b1 ~
b1 J#
b1 O#
b1 Y#
0g
1S
0k
b1 9"
b1 K#
b1 N#
b1 X#
15"
0U
0q
0#"
b1000100000000 #$
b1000100000000 &$
b1000000000000000100 z
b1000000000000000100 I#
b1000000000000000100 Z#
b10000000000000001 2#
b1 .
b1 @#
b1 d#
b1 ?#
b0 ,
b0 B#
b0 e#
b0 A#
b0 W
b0 8#
b0 ^#
b0 7#
b1 H
b1 <#
b1 `#
b1 ;#
b1 R#
b0 K
b0 :#
b0 _#
b0 9#
b0 Q#
b1001 a
b1001 4#
b1001 \#
b1001 3#
b1001 L#
b1 >#
b1 =#
b1 M#
b10001000100000000 |
b10001000100000000 v#
b10001000100000000 !$
b10001000100000000 *$
b1 )$
b10 ~#
b10 .$
b10 /$
bx00 y
bx00 I"
bx00 ?$
bx00 Z
bx00 A"
bx00 ]"
bx00 l#
0("
b0 Y
b0 6#
b0 ]#
b0 ^
b0 G#
b0 x#
b100100000000010000000000000001 }
b100100000000010000000000000001 w#
b100010000000100 /"
b100010000000100 $$
b100010000000100 2$
b100 ]
b100 <"
b100 u#
b100 }#
b10 |#
b10 ,$
b1 {#
b1 1$
1%
#11000
b10000000000 ="
#15000
0%
#16000
b0 3
b0 D#
b0 W#
b0 b#
b0 6
b0 E#
b0 V#
b0 a#
b111 ="
#17000
b100000 )
b10 '
