src/CPU_Wave.vcd
$date
	Wed Jun 07 17:18:25 2023
$end
$version
	Icarus Verilog
$end
$timescale
	1ps
$end
$scope module tb_PipeLine_CPU $end
$var reg 1 ! clk $end
$var reg 1 " rst $end
$scope module u_PipeLine_CPU $end
$var wire 1 ! clk $end
$var wire 1 " rst $end
$var wire 32 # PC_Addr_IF [31:0] $end
$var wire 32 $ PC_Addr_ID [31:0] $end
$var wire 32 % Instruction_IF [31:0] $end
$var wire 32 & Instruction_ID [31:0] $end
$scope module IF_ID $end
$var wire 1 ! clk $end
$var wire 1 ' stall $end
$var wire 32 ( PC_Addr_IN [31:0] $end
$var wire 32 ) Instruction_IN [31:0] $end
$var reg 32 * Instruction [31:0] $end
$var reg 32 + PC_Addr [31:0] $end
$upscope $end
$scope module IUnit $end
$var wire 1 , PC_Src $end
$var wire 30 - Target_PC_Addr [31:2] $end
$var wire 1 ! clk $end
$var wire 1 " rst $end
$var wire 30 . PC_out [31:2] $end
$var wire 30 / PC_Plus_4 [31:2] $end
$var wire 32 0 PC_Addr [31:0] $end
$var wire 30 1 PCSrc_MUX_out [31:2] $end
$var wire 32 2 Instruction [31:0] $end
$scope module IM $end
$var wire 10 3 Addr [11:2] $end
$var wire 32 4 Dout [31:0] $end
$upscope $end
$scope module MUX_PCSrc $end
$var wire 30 5 A [29:0] $end
$var wire 30 6 B [29:0] $end
$var wire 1 , S $end
$var wire 30 7 Y [29:0] $end
$upscope $end
$scope module PC $end
$var wire 30 8 Next_I_Addr [31:2] $end
$var wire 1 ! clk $end
$var wire 1 " rst $end
$var reg 30 9 I_Addr [31:2] $end
$upscope $end
$upscope $end
$upscope $end
$upscope $end
$enddefinitions $end
#0
$dumpvars
b0 9
b1 8
b1 7
b1 6
bz 5
b100100000000010000000000000001 4
b0 3
b100100000000010000000000000001 2
b1 1
b0 0
b1 /
b0 .
bz -
0,
bx00 +
bx *
b100100000000010000000000000001 )
b0 (
0'
bx &
b100100000000010000000000000001 %
bx00 $
b0 #
1"
1!
$end
#5000
0"
0!
#10000
b10001000100000000 %
b10001000100000000 )
b10001000100000000 2
b10001000100000000 4
b1 3
b10 1
b10 7
b10 8
b0 $
b0 +
b100100000000010000000000000001 &
b100100000000010000000000000001 *
b100 #
b100 (
b100 0
b10 /
b10 6
b1 .
b1 9
1!
#15000
0!
#20000
b10000010001100000100001 %
b10000010001100000100001 )
b10000010001100000100001 2
b10000010001100000100001 4
b10 3
b11 1
b11 7
b11 8
b1000 #
b1000 (
b1000 0
b11 /
b11 6
b10 .
b10 9
b100 $
b100 +
b10001000100000000 &
b10001000100000000 *
1!
#25000
0!
#30000
b100010000010000010 %
b100010000010000010 )
b100010000010000010 2
b100010000010000010 4
b11 3
b100 1
b100 7
b100 8
b1000 $
b1000 +
b10000010001100000100001 &
b10000010001100000100001 *
b1100 #
b1100 (
b1100 0
b100 /
b100 6
b11 .
b11 9
1!
#35000
0!
#40000
b101000100110010000000000000101 %
b101000100110010000000000000101 )
b101000100110010000000000000101 2
b101000100110010000000000000101 4
b100 3
b101 1
b101 7
b101 8
b10000 #
b10000 (
b10000 0
b101 /
b101 6
b100 .
b100 9
b1100 $
b1100 +
b100010000010000010 &
b100010000010000010 *
1!
#45000
0!
#50000
b111001000010000000000010000 %
b111001000010000000000010000 )
b111001000010000000000010000 2
b111001000010000000000010000 4
b101 3
b110 1
b110 7
b110 8
b10000 $
b10000 +
b101000100110010000000000000101 &
b101000100110010000000000000101 *
b10100 #
b10100 (
b10100 0
b110 /
b110 6
b101 .
b101 9
1!
#55000
0!
#60000
b11001000010100000100011 %
b11001000010100000100011 )
b11001000010100000100011 2
b11001000010100000100011 4
b110 3
b111 1
b111 7
b111 8
b11000 #
b11000 (
b11000 0
b111 /
b111 6
b110 .
b110 9
b10100 $
b10100 +
b111001000010000000000010000 &
b111001000010000000000010000 *
1!
#65000
0!
#70000
b10101100000001010000000000010100 %
b10101100000001010000000000010100 )
b10101100000001010000000000010100 2
b10101100000001010000000000010100 4
b111 3
b1000 1
b1000 7
b1000 8
b11000 $
b11000 +
b11001000010100000100011 &
b11001000010100000100011 *
b11100 #
b11100 (
b11100 0
b1000 /
b1000 6
b111 .
b111 9
1!
#75000
0!
#80000
b101000100011000000100111 %
b101000100011000000100111 )
b101000100011000000100111 2
b101000100011000000100111 4
b1000 3
b1001 1
b1001 7
b1001 8
b100000 #
b100000 (
b100000 0
b1001 /
b1001 6
b1000 .
b1000 9
b11100 $
b11100 +
b10101100000001010000000000010100 &
b10101100000001010000000000010100 *
1!
#85000
0!
#90000
b110000110011100000100101 %
b110000110011100000100101 )
b110000110011100000100101 2
b110000110011100000100101 4
b1001 3
b1010 1
b1010 7
b1010 8
b100000 $
b100000 +
b101000100011000000100111 &
b101000100011000000100111 *
b100100 #
b100100 (
b100100 0
b1010 /
b1010 6
b1001 .
b1001 9
1!
#95000
0!
#100000
b111001100100000000100110 %
b111001100100000000100110 )
b111001100100000000100110 2
b111001100100000000100110 4
b1010 3
b1011 1
b1011 7
b1011 8
b101000 #
b101000 (
b101000 0
b1011 /
b1011 6
b1010 .
b1010 9
b100100 $
b100100 +
b110000110011100000100101 &
b110000110011100000100101 *
1!
#105000
0!
#110000
b10101100000010000000000000011100 %
b10101100000010000000000000011100 )
b10101100000010000000000000011100 2
b10101100000010000000000000011100 4
b1011 3
b1100 1
b1100 7
b1100 8
b101000 $
b101000 +
b111001100100000000100110 &
b111001100100000000100110 *
b101100 #
b101100 (
b101100 0
b1100 /
b1100 6
b1011 .
b1011 9
1!
#115000
0!
#120000
b10001000000110000000000000010 %
b10001000000110000000000000010 )
b10001000000110000000000000010 2
b10001000000110000000000000010 4
b1100 3
b1101 1
b1101 7
b1101 8
b110000 #
b110000 (
b110000 0
b1101 /
b1101 6
b1100 .
b1100 9
b101100 $
b101100 +
b10101100000010000000000000011100 &
b10101100000010000000000000011100 *
1!
#125000
0!
#130000
b110001110100100000101010 %
b110001110100100000101010 )
b110001110100100000101010 2
b110001110100100000101010 4
b1101 3
b1110 1
b1110 7
b1110 8
b110000 $
b110000 +
b10001000000110000000000000010 &
b10001000000110000000000000010 *
b110100 #
b110100 (
b110100 0
b1110 /
b1110 6
b1101 .
b1101 9
1!
#135000
0!
#140000
b100100000000010000000000001000 %
b100100000000010000000000001000 )
b100100000000010000000000001000 2
b100100000000010000000000001000 4
b1110 3
b1111 1
b1111 7
b1111 8
b111000 #
b111000 (
b111000 0
b1111 /
b1111 6
b1110 .
b1110 9
b110100 $
b110100 +
b110001110100100000101010 &
b110001110100100000101010 *
1!
#145000
0!
#150000
b10001100001010100000000000010100 %
b10001100001010100000000000010100 )
b10001100001010100000000000010100 2
b10001100001010100000000000010100 4
b1111 3
b10000 1
b10000 7
b10000 8
b111000 $
b111000 +
b100100000000010000000000001000 &
b100100000000010000000000001000 *
b111100 #
b111100 (
b111100 0
b10000 /
b10000 6
b1111 .
b1111 9
1!
#155000
0!
#160000
b10101010001010000000000000100 %
b10101010001010000000000000100 )
b10101010001010000000000000100 2
b10101010001010000000000000100 4
b10000 3
b10001 1
b10001 7
b10001 8
b1000000 #
b1000000 (
b1000000 0
b10001 /
b10001 6
b10000 .
b10000 9
b111100 $
b111100 +
b10001100001010100000000000010100 &
b10001100001010100000000000010100 *
1!
#165000
0!
#170000
b10000010101100000100100 %
b10000010101100000100100 )
b10000010101100000100100 2
b10000010101100000100100 4
b10001 3
b10010 1
b10010 7
b10010 8
b1000000 $
b1000000 +
b10101010001010000000000000100 &
b10101010001010000000000000100 *
b1000100 #
b1000100 (
b1000100 0
b10010 /
b10010 6
b10001 .
b10001 9
1!
#175000
0!
#180000
b10101100001010110000000000011100 %
b10101100001010110000000000011100 )
b10101100001010110000000000011100 2
b10101100001010110000000000011100 4
b10010 3
b10011 1
b10011 7
b10011 8
b1001000 #
b1001000 (
b1001000 0
b10011 /
b10011 6
b10010 .
b10010 9
b1000100 $
b1000100 +
b10000010101100000100100 &
b10000010101100000100100 *
1!
#185000
0!
#190000
b10101100001001000000000000010000 %
b10101100001001000000000000010000 )
b10101100001001000000000000010000 2
b10101100001001000000000000010000 4
b10011 3
b10100 1
b10100 7
b10100 8
b1001000 $
b1001000 +
b10101100001010110000000000011100 &
b10101100001010110000000000011100 *
b1001100 #
b1001100 (
b1001100 0
b10100 /
b10100 6
b10011 .
b10011 9
1!
#195000
0!
#200000
b1100000000000000000000011001 %
b1100000000000000000000011001 )
b1100000000000000000000011001 2
b1100000000000000000000011001 4
b10100 3
b10101 1
b10101 7
b10101 8
b1010000 #
b1010000 (
b1010000 0
b10101 /
b10101 6
b10100 .
b10100 9
b1001100 $
b1001100 +
b10101100001001000000000000010000 &
b10101100001001000000000000010000 *
1!
#205000
0!
#210000
b111100000011000000000000001100 %
b111100000011000000000000001100 )
b111100000011000000000000001100 2
b111100000011000000000000001100 4
b10101 3
b10110 1
b10110 7
b10110 8
b1010000 $
b1010000 +
b1100000000000000000000011001 &
b1100000000000000000000011001 *
b1010100 #
b1010100 (
b1010100 0
b10110 /
b10110 6
b10101 .
b10101 9
1!
#215000
0!
#220000
b10011001101000000000111 %
b10011001101000000000111 )
b10011001101000000000111 2
b10011001101000000000111 4
b10110 3
b10111 1
b10111 7
b10111 8
b1011000 #
b1011000 (
b1011000 0
b10111 /
b10111 6
b10110 .
b10110 9
b1010100 $
b1010100 +
b111100000011000000000000001100 &
b111100000011000000000000001100 *
1!
#225000
0!
#230000
b1110101101100000000100 %
b1110101101100000000100 )
b1110101101100000000100 2
b1110101101100000000100 4
b10111 3
b11000 1
b11000 7
b11000 8
b1011000 $
b1011000 +
b10011001101000000000111 &
b10011001101000000000111 *
b1011100 #
b1011100 (
b1011100 0
b11000 /
b11000 6
b10111 .
b10111 9
1!
#235000
0!
#240000
b11011000001111100000001001 %
b11011000001111100000001001 )
b11011000001111100000001001 2
b11011000001111100000001001 4
b11000 3
b11001 1
b11001 7
b11001 8
b1100000 #
b1100000 (
b1100000 0
b11001 /
b11001 6
b11000 .
b11000 9
b1011100 $
b1011100 +
b1110101101100000000100 &
b1110101101100000000100 *
1!
#245000
0!
#250000
b10100000011110100000000000000101 %
b10100000011110100000000000000101 )
b10100000011110100000000000000101 2
b10100000011110100000000000000101 4
b11001 3
b11010 1
b11010 7
b11010 8
b1100000 $
b1100000 +
b11011000001111100000001001 &
b11011000001111100000001001 *
b1100100 #
b1100100 (
b1100100 0
b11010 /
b11010 6
b11001 .
b11001 9
1!
#255000
0!
#260000
b11000110110100000101011 %
b11000110110100000101011 )
b11000110110100000101011 2
b11000110110100000101011 4
b11010 3
b11011 1
b11011 7
b11011 8
b1101000 #
b1101000 (
b1101000 0
b11011 /
b11011 6
b11010 .
b11010 9
b1100100 $
b1100100 +
b10100000011110100000000000000101 &
b10100000011110100000000000000101 *
1!
#265000
0!
#270000
b11101101000000000000000000011 %
b11101101000000000000000000011 )
b11101101000000000000000000011 2
b11101101000000000000000000011 4
b11011 3
b11100 1
b11100 7
b11100 8
b1101000 $
b1101000 +
b11000110110100000101011 &
b11000110110100000101011 *
b1101100 #
b1101100 (
b1101100 0
b11100 /
b11100 6
b11011 .
b11011 9
1!
#275000
0!
#280000
b100001100111000000000100 %
b100001100111000000000100 )
b100001100111000000000100 2
b100001100111000000000100 4
b11100 3
b11101 1
b11101 7
b11101 8
b1110000 #
b1110000 (
b1110000 0
b11101 /
b11101 6
b11100 .
b11100 9
b1101100 $
b1101100 +
b11101101000000000000000000011 &
b11101101000000000000000000011 *
1!
#285000
0!
#290000
b11100111100010000011 %
b11100111100010000011 )
b11100111100010000011 2
b11100111100010000011 4
b11101 3
b11110 1
b11110 7
b11110 8
b1110000 $
b1110000 +
b100001100111000000000100 &
b100001100111000000000100 *
b1110100 #
b1110100 (
b1110100 0
b11110 /
b11110 6
b11101 .
b11101 9
1!
#295000
0!
#300000
b1011111000000000000110 %
b1011111000000000000110 )
b1011111000000000000110 2
b1011111000000000000110 4
b11110 3
b11111 1
b11111 7
b11111 8
b1111000 #
b1111000 (
b1111000 0
b11111 /
b11111 6
b11110 .
b11110 9
b1110100 $
b1110100 +
b11100111100010000011 &
b11100111100010000011 *
1!
#305000
0!
#310000
b11010000000000000000000001000 %
b11010000000000000000000001000 )
b11010000000000000000000001000 2
b11010000000000000000000001000 4
b11111 3
b100000 1
b100000 7
b100000 8
b1111000 $
b1111000 +
b1011111000000000000110 &
b1011111000000000000110 *
b1111100 #
b1111100 (
b1111100 0
b100000 /
b100000 6
b11111 .
b11111 9
1!
#315000
0!
#320000
b1011111000000000000111 %
b1011111000000000000111 )
b1011111000000000000111 2
b1011111000000000000111 4
b100000 3
b100001 1
b100001 7
b100001 8
b10000000 #
b10000000 (
b10000000 0
b100001 /
b100001 6
b100000 .
b100000 9
b1111100 $
b1111100 +
b11010000000000000000000001000 &
b11010000000000000000000001000 *
1!
#325000
0!
#330000
b100100000010110000000010001100 %
b100100000010110000000010001100 )
b100100000010110000000010001100 2
b100100000010110000000010001100 4
b100001 3
b100010 1
b100010 7
b100010 8
b10000000 $
b10000000 +
b1011111000000000000111 &
b1011111000000000000111 *
b10000100 #
b10000100 (
b10000100 0
b100010 /
b100010 6
b100001 .
b100001 9
1!
#335000
0!
#340000
b110000000000000000000000110 %
b110000000000000000000000110 )
b110000000000000000000000110 2
b110000000000000000000000110 4
b100010 3
b100011 1
b100011 7
b100011 8
b10001000 #
b10001000 (
b10001000 0
b100011 /
b100011 6
b100010 .
b100010 9
b10000100 $
b10000100 +
b100100000010110000000010001100 &
b100100000010110000000010001100 *
1!
#345000
0!
#350000
b10001101010111000000000000000011 %
b10001101010111000000000000000011 )
b10001101010111000000000000000011 2
b10001101010111000000000000000011 4
b100011 3
b100100 1
b100100 7
b100100 8
b10001000 $
b10001000 +
b110000000000000000000000110 &
b110000000000000000000000110 *
b10001100 #
b10001100 (
b10001100 0
b100100 /
b100100 6
b100011 .
b100011 9
1!
#355000
0!
#360000
b10111100111010000000000000111 %
b10111100111010000000000000111 )
b10111100111010000000000000111 2
b10111100111010000000000000111 4
b100100 3
b100101 1
b100101 7
b100101 8
b10010000 #
b10010000 (
b10010000 0
b100101 /
b100101 6
b100100 .
b100100 9
b10001100 $
b10001100 +
b10001101010111000000000000000011 &
b10001101010111000000000000000011 *
1!
#365000
0!
#370000
b10100000101011110000000000001000 %
b10100000101011110000000000001000 )
b10100000101011110000000000001000 2
b10100000101011110000000000001000 4
b100101 3
b100110 1
b100110 7
b100110 8
b10010000 $
b10010000 +
b10111100111010000000000000111 &
b10111100111010000000000000111 *
b10010100 #
b10010100 (
b10010100 0
b100110 /
b100110 6
b100101 .
b100101 9
1!
#375000
0!
#380000
b10000000101100100000000000001000 %
b10000000101100100000000000001000 )
b10000000101100100000000000001000 2
b10000000101100100000000000001000 4
b100110 3
b100111 1
b100111 7
b100111 8
b10011000 #
b10011000 (
b10011000 0
b100111 /
b100111 6
b100110 .
b100110 9
b10010100 $
b10010100 +
b10100000101011110000000000001000 &
b10100000101011110000000000001000 *
1!
#385000
0!
#390000
b10010000101100110000000000001000 %
b10010000101100110000000000001000 )
b10010000101100110000000000001000 2
b10010000101100110000000000001000 4
b100111 3
b101000 1
b101000 7
b101000 8
b10011000 $
b10011000 +
b10000000101100100000000000001000 &
b10000000101100100000000000001000 *
b10011100 #
b10011100 (
b10011100 0
b101000 /
b101000 6
b100111 .
b100111 9
1!
#395000
0!
#400000
b101101111110001111111111111111 %
b101101111110001111111111111111 )
b101101111110001111111111111111 2
b101101111110001111111111111111 4
b101000 3
b101001 1
b101001 7
b101001 8
b10100000 #
b10100000 (
b10100000 0
b101001 /
b101001 6
b101000 .
b101000 9
b10011100 $
b10011100 +
b10010000101100110000000000001000 &
b10010000101100110000000000001000 *
1!
#405000
0!
#410000
b1100001011110100000100101 %
b1100001011110100000100101 )
b1100001011110100000100101 2
b1100001011110100000100101 4
b101001 3
b101010 1
b101010 7
b101010 8
b10100000 $
b10100000 +
b101101111110001111111111111111 &
b101101111110001111111111111111 *
b10100100 #
b10100100 (
b10100100 0
b101010 /
b101010 6
b101001 .
b101001 9
1!
#415000
0!
#420000
b1011000000000000000001000 %
b1011000000000000000001000 )
b1011000000000000000001000 2
b1011000000000000000001000 4
b101010 3
b101011 1
b101011 7
b101011 8
b10101000 #
b10101000 (
b10101000 0
b101011 /
b101011 6
b101010 .
b101010 9
b10100100 $
b10100100 +
b1100001011110100000100101 &
b1100001011110100000100101 *
1!
#425000
0!
#430000
b110001111101001111111111111111 %
b110001111101001111111111111111 )
b110001111101001111111111111111 2
b110001111101001111111111111111 4
b101011 3
b101100 1
b101100 7
b101100 8
b10101000 $
b10101000 +
b1011000000000000000001000 &
b1011000000000000000001000 *
b10101100 #
b10101100 (
b10101100 0
b101100 /
b101100 6
b101011 .
b101011 9
1!
#435000
0!
#440000
b110101111101011111111111111111 %
b110101111101011111111111111111 )
b110101111101011111111111111111 2
b110101111101011111111111111111 4
b101100 3
b101101 1
b101101 7
b101101 8
b10110000 #
b10110000 (
b10110000 0
b101101 /
b101101 6
b101100 .
b101100 9
b10101100 $
b10101100 +
b110001111101001111111111111111 &
b110001111101001111111111111111 *
1!
#445000
0!
#450000
b111001111101101111111111111111 %
b111001111101101111111111111111 )
b111001111101101111111111111111 2
b111001111101101111111111111111 4
b101101 3
b101110 1
b101110 7
b101110 8
b10110000 $
b10110000 +
b110101111101011111111111111111 &
b110101111101011111111111111111 *
b10110100 #
b10110100 (
b10110100 0
b101110 /
b101110 6
b101101 .
b101101 9
1!
#455000
0!
#460000
b1000000000000000000000000000 %
b1000000000000000000000000000 )
b1000000000000000000000000000 2
b1000000000000000000000000000 4
b101110 3
b101111 1
b101111 7
b101111 8
b10111000 #
b10111000 (
b10111000 0
b101111 /
b101111 6
b101110 .
b101110 9
b10110100 $
b10110100 +
b111001111101101111111111111111 &
b111001111101101111111111111111 *
1!
#465000
0!
#470000
bx %
bx )
bx 2
bx 4
b101111 3
b110000 1
b110000 7
b110000 8
b10111000 $
b10111000 +
b1000000000000000000000000000 &
b1000000000000000000000000000 *
b10111100 #
b10111100 (
b10111100 0
b110000 /
b110000 6
b101111 .
b101111 9
1!
#475000
0!
#480000
b110000 3
b110001 1
b110001 7
b110001 8
b11000000 #
b11000000 (
b11000000 0
b110001 /
b110001 6
b110000 .
b110000 9
b10111100 $
b10111100 +
bx &
bx *
1!
#485000
0!
#490000
b110001 3
b110010 1
b110010 7
b110010 8
b11000000 $
b11000000 +
b11000100 #
b11000100 (
b11000100 0
b110010 /
b110010 6
b110001 .
b110001 9
1!
#495000
0!
#500000
b110010 3
b110011 1
b110011 7
b110011 8
b11001000 #
b11001000 (
b11001000 0
b110011 /
b110011 6
b110010 .
b110010 9
b11000100 $
b11000100 +
1!
