src/CPU_Wave.vcd
$date
	Fri Jun 09 20:24:58 2023
$end
$version
	Icarus Verilog
$end
$timescale
	1ps
$end
$scope module ExtUnit_NPC_206 $end
$var wire 1 ! ExtOp $end
$var wire 16 " in [15:0] $end
$var wire 30 # out [29:0] $end
$var reg 30 $ out_t [29:0] $end
$upscope $end
$scope module tb_PipeLine_CPU $end
$var reg 1 % clk $end
$var reg 1 & rst $end
$var integer 32 ' clk_num [31:0] $end
$var integer 32 ( fd [31:0] $end
$var integer 32 ) i [31:0] $end
$scope module u_PipeLine_CPU $end
$var wire 1 % clk $end
$var wire 1 & rst $end
$var wire 5 * shamt_ID [4:0] $end
$var wire 5 + shamt_Ex [4:0] $end
$var wire 16 , imm16_ID [15:0] $end
$var wire 16 - imm16_Ex [15:0] $end
$var wire 32 . busW [31:0] $end
$var wire 32 / busB_out_Ex [31:0] $end
$var wire 32 0 busB_Mem [31:0] $end
$var wire 32 1 busB_ID [31:0] $end
$var wire 32 2 busB_Ex [31:0] $end
$var wire 32 3 busA_ID [31:0] $end
$var wire 32 4 busA_Ex [31:0] $end
$var wire 1 5 ZF_Mem $end
$var wire 1 6 ZF_Ex $end
$var wire 1 7 WrByte_Mem $end
$var wire 1 8 WrByte_ID $end
$var wire 1 9 WrByte_Ex $end
$var wire 1 : Sign_Mem $end
$var wire 1 ; Sign_Ex $end
$var wire 1 < Rtype_L_Wr $end
$var wire 1 = Rtype_L_Mem $end
$var wire 1 > Rtype_L_ID $end
$var wire 1 ? Rtype_L_Ex $end
$var wire 1 @ Rtype_J_Mem $end
$var wire 1 A Rtype_J_ID $end
$var wire 1 B Rtype_J_Ex $end
$var wire 1 C Rtype_ID $end
$var wire 1 D Rtype_Ex $end
$var wire 5 E Rt_out_ID [4:0] $end
$var wire 5 F Rt_Ex [4:0] $end
$var wire 5 G Reg_Target_out_Mem [4:0] $end
$var wire 5 H Reg_Target_Wr [4:0] $end
$var wire 5 I Reg_Target_Mem [4:0] $end
$var wire 5 J Reg_Target_Ex [4:0] $end
$var wire 1 K RegWr_Wr $end
$var wire 1 L RegWr_Mem $end
$var wire 1 M RegWr_ID $end
$var wire 1 N RegWr_Ex $end
$var wire 1 O RegDst_ID $end
$var wire 1 P RegDst_Ex $end
$var wire 5 Q Rd_out_ID [4:0] $end
$var wire 5 R Rd_Ex [4:0] $end
$var wire 32 S PC_Addr_out_ID [31:0] $end
$var wire 32 T PC_Addr_out_Ex [31:0] $end
$var wire 32 U PC_Addr_Wr [31:0] $end
$var wire 32 V PC_Addr_Mem [31:0] $end
$var wire 32 W PC_Addr_IF [31:0] $end
$var wire 32 X PC_Addr_ID [31:0] $end
$var wire 6 Y OP_out_Ex [5:0] $end
$var wire 6 Z OP_Mem [5:0] $end
$var wire 6 [ OP_ID [5:0] $end
$var wire 1 \ OF_Mem $end
$var wire 1 ] OF_Ex $end
$var wire 32 ^ Mem_Data_out_Mem [31:0] $end
$var wire 32 _ Mem_Data_Wr [31:0] $end
$var wire 1 ` MemWr_Mem $end
$var wire 1 a MemWr_ID $end
$var wire 1 b MemWr_Ex $end
$var wire 1 c MemToReg_Wr $end
$var wire 1 d MemToReg_Mem $end
$var wire 1 e MemToReg_ID $end
$var wire 1 f MemToReg_Ex $end
$var wire 2 g LoadByte_Mem [1:0] $end
$var wire 2 h LoadByte_ID [1:0] $end
$var wire 2 i LoadByte_Ex [1:0] $end
$var wire 1 j Jump_ID $end
$var wire 1 k Jump_Ex $end
$var wire 1 l Jal_Wr $end
$var wire 1 m Jal_Mem $end
$var wire 1 n Jal_ID $end
$var wire 1 o Jal_Ex $end
$var wire 32 p J_Addr_out_Ex [31:0] $end
$var wire 32 q J_Addr_ID [31:0] $end
$var wire 32 r J_Addr_Ex [31:0] $end
$var wire 32 s Instruction_IF [31:0] $end
$var wire 32 t Instruction_ID [31:0] $end
$var wire 2 u ExtOp_ID [1:0] $end
$var wire 2 v ExtOp_Ex [1:0] $end
$var wire 1 w Branch_Mem $end
$var wire 1 x Branch_ID $end
$var wire 1 y Branch_Ex $end
$var wire 32 z B_Addr_Ex [31:0] $end
$var wire 32 { ALU_ans_out_Mem [31:0] $end
$var wire 32 | ALU_ans_Wr [31:0] $end
$var wire 32 } ALU_ans_Mem [31:0] $end
$var wire 32 ~ ALU_ans_Ex [31:0] $end
$var wire 1 !" ALUSrc_ID $end
$var wire 1 "" ALUSrc_Ex $end
$var wire 5 #" ALUCtr_ID [4:0] $end
$var wire 5 $" ALUCtr_Ex [4:0] $end
$scope module Ex_Mem $end
$var wire 1 % clk $end
$var wire 32 %" busB_Ex [31:0] $end
$var wire 1 6 ZF_Ex $end
$var wire 1 9 WrByte_Ex $end
$var wire 1 ; Sign_Ex $end
$var wire 1 ? Rtype_L_Ex $end
$var wire 1 B Rtype_J_Ex $end
$var wire 5 &" Reg_Target_Ex [4:0] $end
$var wire 1 N RegWr_Ex $end
$var wire 32 '" PC_Addr_Ex [31:0] $end
$var wire 6 (" OP_Ex [5:0] $end
$var wire 1 ] OF_Ex $end
$var wire 1 b MemWr_Ex $end
$var wire 1 f MemToReg_Ex $end
$var wire 2 )" LoadByte_Ex [1:0] $end
$var wire 1 o Jal_Ex $end
$var wire 1 y Branch_Ex $end
$var wire 32 *" ALU_ans_Ex [31:0] $end
$var reg 32 +" ALU_ans_Mem [31:0] $end
$var reg 1 w Branch_Mem $end
$var reg 1 m Jal_Mem $end
$var reg 2 ," LoadByte_Mem [1:0] $end
$var reg 1 d MemToReg_Mem $end
$var reg 1 ` MemWr_Mem $end
$var reg 1 \ OF_Mem $end
$var reg 6 -" OP_Mem [5:0] $end
$var reg 32 ." PC_Addr_Mem [31:0] $end
$var reg 1 L RegWr_Mem $end
$var reg 5 /" Reg_Target_Mem [4:0] $end
$var reg 1 @ Rtype_J_Mem $end
$var reg 1 = Rtype_L_Mem $end
$var reg 1 : Sign_Mem $end
$var reg 1 7 WrByte_Mem $end
$var reg 1 5 ZF_Mem $end
$var reg 32 0" busB_Mem [31:0] $end
$upscope $end
$scope module ExecUnit $end
$var wire 2 1" ALUSrcA_ByPassing [1:0] $end
$var wire 2 2" ALUSrcB_ByPassing [1:0] $end
$var wire 32 3" Ex_Mem_ByPassing [31:0] $end
$var wire 32 4" J_Addr_out_Ex [31:0] $end
$var wire 32 5" Mem_Wr_ByPassing [31:0] $end
$var wire 32 6" busB_out_Ex [31:0] $end
$var wire 5 7" shamt_Ex [4:0] $end
$var wire 32 8" imm_16_Ext [31:0] $end
$var wire 16 9" imm16_Ex [15:0] $end
$var wire 32 :" busB_Ex [31:0] $end
$var wire 32 ;" busA_Ex [31:0] $end
$var wire 1 6 ZF_Ex $end
$var wire 1 9 WrByte_Ex $end
$var wire 1 ; Sign_Ex $end
$var wire 1 ? Rtype_L_Ex $end
$var wire 1 B Rtype_J_Ex $end
$var wire 5 <" Rt_Ex [4:0] $end
$var wire 5 =" Reg_Target_Ex [4:0] $end
$var wire 1 N RegWr_Ex $end
$var wire 1 P RegDst_Ex $end
$var wire 5 >" Rd_Ex [4:0] $end
$var wire 32 ?" PC_Addr_Ex [31:0] $end
$var wire 6 @" OP_Ex [5:0] $end
$var wire 1 ] OF_Ex $end
$var wire 1 b MemWr_Ex $end
$var wire 1 f MemToReg_Ex $end
$var wire 2 A" LoadByte_Ex [1:0] $end
$var wire 1 k Jump_Ex $end
$var wire 1 o Jal_Ex $end
$var wire 32 B" J_Addr_Ex [31:0] $end
$var wire 2 C" ExtOp_Ex [1:0] $end
$var wire 1 y Branch_Ex $end
$var wire 32 D" B_Addr_Ex [31:0] $end
$var wire 32 E" ALU_input_B [31:0] $end
$var wire 32 F" ALU_input_A [31:0] $end
$var wire 32 G" ALU_ans_Ex [31:0] $end
$var wire 1 "" ALUSrc_Ex $end
$var wire 5 H" ALUCtr_Ex [4:0] $end
$scope module ALU $end
$var wire 5 I" shamt [4:0] $end
$var wire 32 J" B [31:0] $end
$var wire 5 K" ALUCtr [4:0] $end
$var wire 32 L" A [31:0] $end
$var reg 1 ] OverFlow $end
$var reg 1 ; Sign $end
$var reg 1 6 Zero $end
$var reg 32 M" result [31:0] $end
$var reg 33 N" temp [32:0] $end
$var integer 32 O" t1 [31:0] $end
$var integer 32 P" t2 [31:0] $end
$upscope $end
$scope module ExtUnit_Ex $end
$var wire 32 Q" out [31:0] $end
$var wire 16 R" in [15:0] $end
$var wire 2 S" ExtOp [1:0] $end
$var reg 32 T" out_t [31:0] $end
$upscope $end
$scope module MUX_ALUSrc_A $end
$var wire 32 U" A [31:0] $end
$var wire 32 V" B [31:0] $end
$var wire 32 W" C [31:0] $end
$var wire 2 X" S [1:0] $end
$var wire 32 Y" D [31:0] $end
$var reg 32 Z" Y [31:0] $end
$upscope $end
$scope module MUX_ALUSrc_B $end
$var wire 32 [" A [31:0] $end
$var wire 32 \" B [31:0] $end
$var wire 32 ]" C [31:0] $end
$var wire 2 ^" S [1:0] $end
$var wire 32 _" D [31:0] $end
$var reg 32 `" Y [31:0] $end
$upscope $end
$upscope $end
$scope module IDUnit $end
$var wire 26 a" J_Target_ID [25:0] $end
$var wire 6 b" OP_ID [5:0] $end
$var wire 6 c" OP_out_ID [5:0] $end
$var wire 1 d" OverFlow_Wr $end
$var wire 32 e" PC_Addr_out_ID [31:0] $end
$var wire 5 f" Rd_ID [4:0] $end
$var wire 5 g" Rd_out_ID [4:0] $end
$var wire 5 h" Rs_ID [4:0] $end
$var wire 5 i" Rt_ID [4:0] $end
$var wire 5 j" Rt_out_ID [4:0] $end
$var wire 1 % clk $end
$var wire 6 k" func_ID [5:0] $end
$var wire 6 l" func_out_ID [5:0] $end
$var wire 16 m" imm16_ID [15:0] $end
$var wire 16 n" imm16_out_ID [15:0] $end
$var wire 5 o" shamt_ID [4:0] $end
$var wire 5 p" shamt_out_ID [4:0] $end
$var wire 32 q" busW [31:0] $end
$var wire 32 r" busB_ID [31:0] $end
$var wire 32 s" busA_ID [31:0] $end
$var wire 1 8 WrByte_ID $end
$var wire 5 t" Rw_Wr [4:0] $end
$var wire 1 > Rtype_L_ID $end
$var wire 1 A Rtype_J_ID $end
$var wire 1 C Rtype_ID $end
$var wire 1 K RegWr_Wr $end
$var wire 1 M RegWr_ID $end
$var wire 1 O RegDst_ID $end
$var wire 32 u" PC_Addr_ID [31:0] $end
$var wire 1 a MemWr_ID $end
$var wire 1 e MemToReg_ID $end
$var wire 2 v" LoadByte_ID [1:0] $end
$var wire 1 j Jump_ID $end
$var wire 1 l Jal_Wr $end
$var wire 1 n Jal_ID $end
$var wire 32 w" J_Addr_ID [31:0] $end
$var wire 2 x" ExtOp_ID [1:0] $end
$var wire 1 x Branch_ID $end
$var wire 1 !" ALUSrc_ID $end
$var wire 5 y" ALUCtr_ID [4:0] $end
$scope module ControlUnit $end
$var wire 6 z" OP [5:0] $end
$var wire 6 {" func [5:0] $end
$var reg 5 |" ALUCtr [4:0] $end
$var reg 1 !" ALUSrc $end
$var reg 1 x Branch $end
$var reg 2 }" ExtOp [1:0] $end
$var reg 1 n Jal $end
$var reg 1 j Jump $end
$var reg 2 ~" LoadByte [1:0] $end
$var reg 1 e MemToReg $end
$var reg 1 a MemWr $end
$var reg 1 O RegDst $end
$var reg 1 M RegWr $end
$var reg 1 C Rtype $end
$var reg 1 A Rtype_J $end
$var reg 1 > Rtype_L $end
$var reg 1 8 WrByte $end
$upscope $end
$scope module Regfile $end
$var wire 5 !# Ra [4:0] $end
$var wire 5 "# Rb [4:0] $end
$var wire 1 ## WrEn $end
$var wire 1 % clk $end
$var wire 32 $# busW [31:0] $end
$var wire 5 %# Rw [4:0] $end
$var wire 1 l Jal $end
$var reg 32 &# busA [31:0] $end
$var reg 32 '# busB [31:0] $end
$upscope $end
$upscope $end
$scope module ID_EX $end
$var wire 5 (# ALUCtr_ID [4:0] $end
$var wire 1 !" ALUSrc_ID $end
$var wire 1 x Branch_ID $end
$var wire 2 )# ExtOp_ID [1:0] $end
$var wire 32 *# J_Addr_ID [31:0] $end
$var wire 1 n Jal_ID $end
$var wire 1 j Jump_ID $end
$var wire 2 +# LoadByte_ID [1:0] $end
$var wire 1 e MemToReg_ID $end
$var wire 1 a MemWr_ID $end
$var wire 6 ,# OP_out_ID [5:0] $end
$var wire 32 -# PC_Addr_out_ID [31:0] $end
$var wire 5 .# Rd_ID [4:0] $end
$var wire 1 O RegDst_ID $end
$var wire 1 M RegWr_ID $end
$var wire 5 /# Rt_ID [4:0] $end
$var wire 1 C Rtype_ID $end
$var wire 1 A Rtype_J_ID $end
$var wire 1 > Rtype_L_ID $end
$var wire 1 8 WrByte_ID $end
$var wire 32 0# busA_ID [31:0] $end
$var wire 32 1# busB_ID [31:0] $end
$var wire 1 % clk $end
$var wire 6 2# func_out_ID [5:0] $end
$var wire 16 3# imm16_ID [15:0] $end
$var wire 5 4# shamt_ID [4:0] $end
$var wire 1 5# stall $end
$var reg 5 6# ALUCtr_Ex [4:0] $end
$var reg 1 "" ALUSrc_Ex $end
$var reg 1 y Branch_Ex $end
$var reg 2 7# ExtOp_Ex [1:0] $end
$var reg 32 8# J_Addr_Ex [31:0] $end
$var reg 1 o Jal_Ex $end
$var reg 1 k Jump_Ex $end
$var reg 2 9# LoadByte_Ex [1:0] $end
$var reg 1 f MemToReg_Ex $end
$var reg 1 b MemWr_Ex $end
$var reg 6 :# OP_out_Ex [5:0] $end
$var reg 32 ;# PC_Addr_out_Ex [31:0] $end
$var reg 5 <# Rd_Ex [4:0] $end
$var reg 1 P RegDst_Ex $end
$var reg 1 N RegWr_Ex $end
$var reg 5 =# Rt_Ex [4:0] $end
$var reg 1 D Rtype_Ex $end
$var reg 1 B Rtype_J_Ex $end
$var reg 1 ? Rtype_L_Ex $end
$var reg 1 9 WrByte_Ex $end
$var reg 32 ># busA_Ex [31:0] $end
$var reg 32 ?# busB_Ex [31:0] $end
$var reg 6 @# func_out_Ex [5:0] $end
$var reg 16 A# imm16_Ex [15:0] $end
$var reg 5 B# shamt_Ex [4:0] $end
$upscope $end
$scope module IF_ID $end
$var wire 1 % clk $end
$var wire 1 C# stall $end
$var wire 32 D# PC_Addr_IF [31:0] $end
$var wire 32 E# Instruction_IF [31:0] $end
$var reg 32 F# Instruction_ID [31:0] $end
$var reg 32 G# PC_Addr_ID [31:0] $end
$upscope $end
$scope module IUnit $end
$var wire 1 H# PC_Src $end
$var wire 30 I# Target_PC_Addr [31:2] $end
$var wire 1 % clk $end
$var wire 1 & rst $end
$var wire 30 J# PC_out [31:2] $end
$var wire 30 K# PC_Plus_4 [31:2] $end
$var wire 32 L# PC_Addr [31:0] $end
$var wire 30 M# PCSrc_MUX_out [31:2] $end
$var wire 32 N# Instruction [31:0] $end
$scope module IM $end
$var wire 10 O# Addr [11:2] $end
$var wire 32 P# Dout [31:0] $end
$upscope $end
$scope module MUX_PCSrc $end
$var wire 30 Q# A [29:0] $end
$var wire 30 R# B [29:0] $end
$var wire 1 H# S $end
$var wire 30 S# Y [29:0] $end
$upscope $end
$scope module PC $end
$var wire 30 T# Next_I_Addr [31:2] $end
$var wire 1 % clk $end
$var wire 1 U# install $end
$var wire 1 & rst $end
$var reg 30 V# I_Addr [31:2] $end
$upscope $end
$upscope $end
$scope module MemUnit $end
$var wire 32 W# ALU_ans_Mem [31:0] $end
$var wire 32 X# ALU_ans_out_Mem [31:0] $end
$var wire 1 w Branch_Mem $end
$var wire 1 m Jal_Mem $end
$var wire 2 Y# LoadByte_Mem [1:0] $end
$var wire 1 d MemToReg_Mem $end
$var wire 1 ` MemWr_Mem $end
$var wire 1 \ OF_Mem $end
$var wire 6 Z# OP_Mem [5:0] $end
$var wire 1 L RegWr_Mem $end
$var wire 5 [# Reg_Target_Mem [4:0] $end
$var wire 5 \# Reg_Target_out_Mem [4:0] $end
$var wire 1 @ Rtype_J_Mem $end
$var wire 1 = Rtype_L_Mem $end
$var wire 1 : Sign_Mem $end
$var wire 1 7 WrByte_Mem $end
$var wire 1 5 ZF_Mem $end
$var wire 32 ]# busB_Mem [31:0] $end
$var wire 1 ^# clk $end
$var wire 32 _# Word_Data_out [31:0] $end
$var wire 32 `# Mem_Data_out [31:0] $end
$var wire 8 a# Byte_Data_out [7:0] $end
$var wire 32 b# Byte_Data_ext [31:0] $end
$scope module DM_4K $end
$var wire 12 c# Addr [11:0] $end
$var wire 8 d# ByteDout [7:0] $end
$var wire 32 e# Din [31:0] $end
$var wire 1 7 WrByte $end
$var wire 1 ` WrEn $end
$var wire 1 ^# clk $end
$var wire 32 f# Dout [31:0] $end
$upscope $end
$scope module Ext_Byte $end
$var wire 1 g# ExtOp $end
$var wire 8 h# in [7:0] $end
$var wire 32 i# out [31:0] $end
$var reg 32 j# out_t [31:0] $end
$upscope $end
$scope module MUX_Byte_Word $end
$var wire 32 k# A [31:0] $end
$var wire 32 l# B [31:0] $end
$var wire 1 m# S $end
$var wire 32 n# Y [31:0] $end
$upscope $end
$upscope $end
$scope module Mem_Wr $end
$var wire 32 o# ALU_ans_Mem [31:0] $end
$var wire 1 m Jal_Mem $end
$var wire 1 d MemToReg_Mem $end
$var wire 32 p# Mem_Data_Mem [31:0] $end
$var wire 32 q# PC_Addr_Mem [31:0] $end
$var wire 1 L RegWr_Mem $end
$var wire 5 r# Reg_Target_Mem [4:0] $end
$var wire 1 = Rtype_L_Mem $end
$var wire 1 % clk $end
$var reg 32 s# ALU_ans_Wr [31:0] $end
$var reg 1 l Jal_Wr $end
$var reg 1 c MemToReg_Wr $end
$var reg 32 t# Mem_Data_Wr [31:0] $end
$var reg 32 u# PC_Addr_Wr [31:0] $end
$var reg 1 K RegWr_Wr $end
$var reg 5 v# Reg_Target_Wr [4:0] $end
$var reg 1 < Rtype_L_Wr $end
$upscope $end
$scope module WrUint $end
$var wire 32 w# ALU_ans_Wr [31:0] $end
$var wire 1 l Jal_Wr $end
$var wire 1 c MemToReg_Wr $end
$var wire 32 x# Mem_Data_Wr [31:0] $end
$var wire 32 y# PC_Addr_Wr [31:0] $end
$var wire 1 < Rtype_L_Wr $end
$var wire 32 z# busW_Wr [31:0] $end
$var wire 32 {# MUX_1_data [31:0] $end
$scope module MUX_ALU_Memory $end
$var wire 32 |# A [31:0] $end
$var wire 32 }# B [31:0] $end
$var wire 1 c S $end
$var wire 32 ~# Y [31:0] $end
$upscope $end
$scope module MUX_data_PCAddr $end
$var wire 32 !$ A [31:0] $end
$var wire 32 "$ B [31:0] $end
$var wire 1 #$ S $end
$var wire 32 $$ Y [31:0] $end
$upscope $end
$upscope $end
$upscope $end
$upscope $end
$enddefinitions $end
#0
$dumpvars
bx $$
x#$
bx "$
bz !$
bx ~#
bx }#
bx |#
bx {#
bx z#
bz y#
bx x#
bx w#
bx v#
bz u#
bx t#
bx s#
bx r#
bz q#
bx p#
bx o#
bx n#
xm#
bx l#
bx k#
bx j#
bx i#
bx h#
xg#
bx f#
bx e#
bx d#
bx c#
bx b#
bx a#
bx `#
bx _#
z^#
bx ]#
bx \#
bx [#
bx Z#
bx Y#
bx X#
bx W#
b0 V#
zU#
b1 T#
b1 S#
b1 R#
bz Q#
b100100000000010000000000000001 P#
b0 O#
b100100000000010000000000000001 N#
b1 M#
b0 L#
b1 K#
b0 J#
bz I#
0H#
bx00 G#
bx F#
b100100000000010000000000000001 E#
b0 D#
0C#
bx B#
bx A#
bz @#
bx ?#
bx >#
bx =#
bx <#
bx ;#
bx :#
bx 9#
bx00 8#
bx 7#
bx 6#
05#
bx 4#
bx 3#
bz 2#
bx 1#
bx 0#
bx /#
bx .#
bx00 -#
bx ,#
bx +#
bx00 *#
bx )#
bx (#
bx '#
bx &#
bx %#
bx $#
x##
bx "#
bx !#
bx ~"
bx }"
bx |"
bx {"
bx z"
bx y"
bx x"
bx00 w"
bx v"
bx00 u"
bx t"
bx s"
bx r"
bx q"
bx p"
bx o"
bx n"
bx m"
bx l"
bx k"
bx j"
bx i"
bx h"
bx g"
bx f"
bx00 e"
0d"
bx c"
bx b"
bx a"
bx `"
bx _"
b0 ^"
bz ]"
bz \"
bz ["
bx Z"
bx Y"
b0x X"
bx W"
bz V"
bz U"
bx T"
bx S"
bx R"
bx Q"
bx P"
bx O"
bx N"
bx M"
bx L"
bx K"
bx J"
bx I"
bx H"
bx G"
bx F"
bx E"
bx D"
bx C"
bx00 B"
bx A"
bx @"
bx ?"
bx >"
bx ="
bx <"
bx ;"
bx :"
bx 9"
bx 8"
bx 7"
bx 6"
bz 5"
bx00 4"
bz 3"
bz 2"
bz 1"
bx 0"
bx /"
bx ."
bx -"
bx ,"
bx +"
bx *"
bx )"
bx ("
bx '"
bx &"
bx %"
bx $"
bx #"
x""
x!"
bx ~
bx }
bx |
bx {
bx z
xy
xx
xw
bx v
bx u
bx t
b100100000000010000000000000001 s
bx00 r
bx00 q
bx00 p
xo
xn
xm
xl
xk
xj
bx i
bx h
bx g
xf
xe
xd
xc
xb
xa
x`
bx _
bx ^
0]
0\
bx [
bx Z
bx Y
bx00 X
b0 W
bx V
bz U
bx T
bx00 S
bx R
bx Q
xP
xO
xN
xM
xL
xK
bx J
bx I
bx H
bx G
bx F
bx E
xD
xC
xB
xA
x@
x?
x>
x=
x<
x;
x:
x9
x8
x7
06
05
bx 4
bx 3
bx 2
bx 1
bx 0
bx /
bx .
bx -
bx ,
bx +
bx *
b0 )
b10000000000000000000000000000011 (
b0 '
1&
1%
bx $
bx #
bz "
z!
$end
#5000
b100000 )
b1 '
0&
0%
#10000
b0 h
b0 v"
b0 ~"
b0 +#
08
0>
0A
0n
0C
b1 u
b1 x"
b1 }"
b1 )#
0a
1M
0e
b1 #"
b1 y"
b1 |"
b1 (#
1!"
0O
0j
0x
b1000000000000000100 q
b1000000000000000100 w"
b1000000000000000100 *#
b10000000000000001 a"
b1 ,
b1 n"
b1 3#
b1 m"
b0 *
b0 p"
b0 4#
b0 o"
b0 Q
b0 g"
b0 .#
b0 f"
b1 E
b1 j"
b1 /#
b1 i"
b1 "#
b0 h"
b0 !#
b1001 [
b1001 c"
b1001 ,#
b1001 b"
b1001 z"
b1 l"
b1 k"
b1 {"
b10001000100000000 s
b10001000100000000 E#
b10001000100000000 N#
b10001000100000000 P#
b1 O#
b10 M#
b10 S#
b10 T#
bx00 T
bx00 '"
bx00 ?"
bx00 ;#
b0 S
b0 e"
b0 -#
b0 X
b0 u"
b0 G#
b100100000000010000000000000001 t
b100100000000010000000000000001 F#
b100 W
b100 D#
b100 L#
b10 K#
b10 R#
b1 J#
b1 V#
1%
#15000
b0 1
b0 r"
b0 '#
b0 1#
b0 3
b0 s"
b0 &#
b0 0#
b100000 )
b10 '
0%
#20000
b1 ~
b1 *"
b1 G"
b1 M"
b1 F"
b1 L"
b1 Z"
b0 E"
b0 J"
b0 `"
1C
b0x u
b0x x"
b0x }"
b0x )#
b1000 #"
b1000 y"
b1000 |"
b1000 (#
0!"
1O
b100 z
b100 D"
b10000010001100000100001 s
b10000010001100000100001 E#
b10000010001100000100001 N#
b10000010001100000100001 P#
b10 O#
b11 M#
b11 S#
b11 T#
b1000100010000000000 q
b1000100010000000000 w"
b1000100010000000000 *#
b10001000100000000 a"
b1000100000000 ,
b1000100000000 n"
b1000100000000 3#
b1000100000000 m"
b100 *
b100 p"
b100 4#
b100 o"
b10 Q
b10 g"
b10 .#
b10 f"
b0 [
b0 c"
b0 ,#
b0 b"
b0 z"
b0 l"
b0 k"
b0 {"
b1 8"
b1 Q"
b1 T"
b1 W"
0;
b1 J
b1 &"
b1 ="
b1000 W
b1000 D#
b1000 L#
b11 K#
b11 R#
b10 J#
b10 V#
b100 S
b100 e"
b100 -#
b100 X
b100 u"
b100 G#
b10001000100000000 t
b10001000100000000 F#
b1 F
b1 <"
b1 =#
b0 R
b0 >"
b0 <#
b1 -
b1 9"
b1 R"
b1 A#
b1001 Y
b1001 ("
b1001 @"
b1001 :#
b1000000000000000100 p
b1000000000000000100 4"
b1000000000000000100 r
b1000000000000000100 B"
b1000000000000000100 8#
b0 T
b0 '"
b0 ?"
b0 ;#
b0 /
b0 %"
b0 6"
b0 2
b0 :"
b0 _"
b0 ?#
b0 4
b0 ;"
b0 Y"
b0 >#
b0 +
b0 7"
b0 I"
b0 B#
b0 i
b0 )"
b0 A"
b0 9#
09
0?
0B
0o
0D
b1 v
b1 C"
b1 S"
b1 7#
0b
1N
0f
b1 $"
b1 H"
b1 K"
b1 6#
b1 X"
1""
0P
0k
0y
bx00 V
bx00 ."
1%
#25000
b100000 )
b11 '
0%
#30000
b0 F"
b0 L"
b0 Z"
b0xxxxxxxx b#
b0xxxxxxxx i#
b0xxxxxxxx j#
b0xxxxxxxx k#
b1 #"
b1 y"
b1 |"
b1 (#
0g#
0m#
b1 c#
16
b0 ~
b0 *"
b0 G"
b0 M"
b10 J
b10 &"
b10 ="
b1000001000110000010000100 q
b1000001000110000010000100 w"
b1000001000110000010000100 *#
b10000010001100000100001 a"
b1100000100001 ,
b1100000100001 n"
b1100000100001 3#
b1100000100001 m"
b0 *
b0 p"
b0 4#
b0 o"
b11 Q
b11 g"
b11 .#
b11 f"
b10 h"
b10 !#
b100001 l"
b100001 k"
b100001 {"
b100010000010000010 s
b100010000010000010 E#
b100010000010000010 N#
b100010000010000010 P#
b11 O#
b100 M#
b100 S#
b100 T#
b0 g
b0 ,"
b0 Y#
07
0=
0@
0m
0`
1L
0d
0w
0:
b1 G
b1 \#
b1 r#
b1 I
b1 /"
b1 [#
b1001 Z
b1001 -"
b1001 Z#
b0 V
b0 ."
b0 0
b0 0"
b0 ]#
b0 e#
b1 {
b1 X#
b1 o#
b1 }
b1 +"
b1 W#
b10 R
b10 >"
b10 <#
b1000100000000 -
b1000100000000 9"
b1000100000000 R"
b1000100000000 A#
b0 Y
b0 ("
b0 @"
b0 :#
b1000100010000000000 p
b1000100010000000000 4"
b1000100010000000000 r
b1000100010000000000 B"
b1000100010000000000 8#
b1000 z
b1000 D"
b100 T
b100 '"
b100 ?"
b100 ;#
b100 +
b100 7"
b100 I"
b100 B#
1D
b0x v
b0x C"
b0x S"
b0x 7#
b1000 $"
b1000 H"
b1000 K"
b1000 6#
b0 X"
0""
1P
b1000 S
b1000 e"
b1000 -#
b1000 X
b1000 u"
b1000 G#
b10000010001100000100001 t
b10000010001100000100001 F#
b1100 W
b1100 D#
b1100 L#
b100 K#
b100 R#
b11 J#
b11 V#
1%
#35000
b100000 )
b100 '
0%
#40000
b1001 #"
b1001 y"
b1001 |"
b1001 (#
b1 .
b1 q"
b1 $#
b1 z#
b1 $$
b101000100110010000000000000101 s
b101000100110010000000000000101 E#
b101000100110010000000000000101 N#
b101000100110010000000000000101 P#
b100 O#
b101 M#
b101 S#
b101 T#
b10001000001000001000 q
b10001000001000001000 w"
b10001000001000001000 *#
b100010000010000010 a"
b10000010000010 ,
b10000010000010 n"
b10000010000010 3#
b10000010000010 m"
b10 *
b10 p"
b10 4#
b10 o"
b100 Q
b100 g"
b100 .#
b100 f"
b10 E
b10 j"
b10 /#
b10 i"
b10 "#
b0 h"
b0 !#
b10 l"
b10 k"
b10 {"
b11 J
b11 &"
b11 ="
b0 c#
0#$
1##
b1 {#
b1 ~#
b1 "$
b10000 W
b10000 D#
b10000 L#
b101 K#
b101 R#
b100 J#
b100 V#
b1100 S
b1100 e"
b1100 -#
b1100 X
b1100 u"
b1100 G#
b100010000010000010 t
b100010000010000010 F#
b11 R
b11 >"
b11 <#
b1100000100001 -
b1100000100001 9"
b1100000100001 R"
b1100000100001 A#
b1000001000110000010000100 p
b1000001000110000010000100 4"
b1000001000110000010000100 r
b1000001000110000010000100 B"
b1000001000110000010000100 8#
b1100 z
b1100 D"
b1000 T
b1000 '"
b1000 ?"
b1000 ;#
b0 +
b0 7"
b0 I"
b0 B#
b1 $"
b1 H"
b1 K"
b1 6#
15
b10 G
b10 \#
b10 r#
b10 I
b10 /"
b10 [#
b0 Z
b0 -"
b0 Z#
b100 V
b100 ."
b0 {
b0 X#
b0 o#
b0 }
b0 +"
b0 W#
0l
0<
1K
0c
b1 H
b1 t"
b1 %#
b1 v#
b1 |
b1 s#
b1 w#
b1 }#
1%
#45000
b100000 )
b101 '
0%
