src/CPU_Wave.vcd
$date
	Sat Jun 10 17:16:18 2023
$end
$version
	Icarus Verilog
$end
$timescale
	1ps
$end
$scope module ExtUnit_NPC_206 $end
$var wire 1 ! ExtOp $end
$var wire 16 " in [15:0] $end
$var wire 30 # out [29:0] $end
$var reg 30 $ out_t [29:0] $end
$upscope $end
$scope module tb_PipeLine_CPU $end
$var reg 1 % clk $end
$var reg 1 & rst $end
$var integer 32 ' clk_num [31:0] $end
$var integer 32 ( fd [31:0] $end
$var integer 32 ) i [31:0] $end
$scope module u_PipeLine_CPU $end
$var wire 1 % clk $end
$var wire 1 & rst $end
$var wire 5 * shamt_ID [4:0] $end
$var wire 5 + shamt_Ex [4:0] $end
$var wire 16 , imm16_ID [15:0] $end
$var wire 16 - imm16_Ex [15:0] $end
$var wire 32 . busW [31:0] $end
$var wire 32 / busB_out_Ex [31:0] $end
$var wire 32 0 busB_Mem [31:0] $end
$var wire 32 1 busB_ID [31:0] $end
$var wire 32 2 busB_Ex [31:0] $end
$var wire 32 3 busA_ID [31:0] $end
$var wire 32 4 busA_Ex [31:0] $end
$var wire 1 5 ZF_Mem $end
$var wire 1 6 ZF_Ex $end
$var wire 1 7 WrByte_Mem $end
$var wire 1 8 WrByte_ID $end
$var wire 1 9 WrByte_Ex $end
$var wire 1 : Sign_Mem $end
$var wire 1 ; Sign_Ex $end
$var wire 1 < Rtype_L_Wr $end
$var wire 1 = Rtype_L_Mem $end
$var wire 1 > Rtype_L_ID $end
$var wire 1 ? Rtype_L_Ex $end
$var wire 1 @ Rtype_J_Mem $end
$var wire 1 A Rtype_J_ID $end
$var wire 1 B Rtype_J_Ex $end
$var wire 1 C Rtype_ID $end
$var wire 1 D Rtype_Ex $end
$var wire 5 E Rt_out_ID [4:0] $end
$var wire 5 F Rt_Ex [4:0] $end
$var wire 5 G Rs_out_ID [4:0] $end
$var wire 5 H Rs_Ex [4:0] $end
$var wire 5 I Reg_Target_out_Mem [4:0] $end
$var wire 5 J Reg_Target_Wr [4:0] $end
$var wire 5 K Reg_Target_Mem [4:0] $end
$var wire 5 L Reg_Target_Ex [4:0] $end
$var wire 1 M RegWr_Wr $end
$var wire 1 N RegWr_Mem $end
$var wire 1 O RegWr_ID $end
$var wire 1 P RegWr_Ex $end
$var wire 1 Q RegDst_ID $end
$var wire 1 R RegDst_Ex $end
$var wire 5 S Rd_out_ID [4:0] $end
$var wire 5 T Rd_Ex [4:0] $end
$var wire 32 U PC_Addr_out_ID [31:0] $end
$var wire 32 V PC_Addr_out_Ex [31:0] $end
$var wire 32 W PC_Addr_Wr [31:0] $end
$var wire 32 X PC_Addr_Mem [31:0] $end
$var wire 32 Y PC_Addr_IF [31:0] $end
$var wire 32 Z PC_Addr_ID [31:0] $end
$var wire 6 [ OP_out_Ex [5:0] $end
$var wire 6 \ OP_Mem [5:0] $end
$var wire 6 ] OP_ID [5:0] $end
$var wire 1 ^ OF_Mem $end
$var wire 1 _ OF_Ex $end
$var wire 32 ` Mem_Data_out_Mem [31:0] $end
$var wire 32 a Mem_Data_Wr [31:0] $end
$var wire 1 b MemWr_Mem $end
$var wire 1 c MemWr_ID $end
$var wire 1 d MemWr_Ex $end
$var wire 1 e MemToReg_Wr $end
$var wire 1 f MemToReg_Mem $end
$var wire 1 g MemToReg_ID $end
$var wire 1 h MemToReg_Ex $end
$var wire 2 i LoadByte_Mem [1:0] $end
$var wire 2 j LoadByte_ID [1:0] $end
$var wire 2 k LoadByte_Ex [1:0] $end
$var wire 1 l Jump_ID $end
$var wire 1 m Jump_Ex $end
$var wire 1 n Jal_Wr $end
$var wire 1 o Jal_Mem $end
$var wire 1 p Jal_ID $end
$var wire 1 q Jal_Ex $end
$var wire 32 r J_Addr_out_Ex [31:0] $end
$var wire 32 s J_Addr_ID [31:0] $end
$var wire 32 t J_Addr_Ex [31:0] $end
$var wire 32 u Instruction_IF [31:0] $end
$var wire 32 v Instruction_ID [31:0] $end
$var wire 2 w ExtOp_ID [1:0] $end
$var wire 2 x ExtOp_Ex [1:0] $end
$var wire 1 y Branch_Mem $end
$var wire 1 z Branch_ID $end
$var wire 1 { Branch_Ex $end
$var wire 32 | B_Addr_Ex [31:0] $end
$var wire 32 } ALU_ans_out_Mem [31:0] $end
$var wire 32 ~ ALU_ans_Wr [31:0] $end
$var wire 32 !" ALU_ans_Mem [31:0] $end
$var wire 32 "" ALU_ans_Ex [31:0] $end
$var wire 1 #" ALUSrc_ID $end
$var wire 1 $" ALUSrc_Ex $end
$var wire 2 %" ALUSrcB_ByPassing [1:0] $end
$var wire 2 &" ALUSrcA_ByPassing [1:0] $end
$var wire 5 '" ALUCtr_ID [4:0] $end
$var wire 5 (" ALUCtr_Ex [4:0] $end
$scope module Ex_Mem $end
$var wire 1 % clk $end
$var wire 32 )" busB_Ex [31:0] $end
$var wire 1 6 ZF_Ex $end
$var wire 1 9 WrByte_Ex $end
$var wire 1 ; Sign_Ex $end
$var wire 1 ? Rtype_L_Ex $end
$var wire 1 B Rtype_J_Ex $end
$var wire 5 *" Reg_Target_Ex [4:0] $end
$var wire 1 P RegWr_Ex $end
$var wire 32 +" PC_Addr_Ex [31:0] $end
$var wire 6 ," OP_Ex [5:0] $end
$var wire 1 _ OF_Ex $end
$var wire 1 d MemWr_Ex $end
$var wire 1 h MemToReg_Ex $end
$var wire 2 -" LoadByte_Ex [1:0] $end
$var wire 1 q Jal_Ex $end
$var wire 1 { Branch_Ex $end
$var wire 32 ." ALU_ans_Ex [31:0] $end
$var reg 32 /" ALU_ans_Mem [31:0] $end
$var reg 1 y Branch_Mem $end
$var reg 1 o Jal_Mem $end
$var reg 2 0" LoadByte_Mem [1:0] $end
$var reg 1 f MemToReg_Mem $end
$var reg 1 b MemWr_Mem $end
$var reg 1 ^ OF_Mem $end
$var reg 6 1" OP_Mem [5:0] $end
$var reg 32 2" PC_Addr_Mem [31:0] $end
$var reg 1 N RegWr_Mem $end
$var reg 5 3" Reg_Target_Mem [4:0] $end
$var reg 1 @ Rtype_J_Mem $end
$var reg 1 = Rtype_L_Mem $end
$var reg 1 : Sign_Mem $end
$var reg 1 7 WrByte_Mem $end
$var reg 1 5 ZF_Mem $end
$var reg 32 4" busB_Mem [31:0] $end
$upscope $end
$scope module ExecUnit $end
$var wire 32 5" Ex_Mem_ByPassing_A [31:0] $end
$var wire 32 6" Ex_Mem_ByPassing_B [31:0] $end
$var wire 32 7" J_Addr_out_Ex [31:0] $end
$var wire 32 8" busB_out_Ex [31:0] $end
$var wire 5 9" shamt_Ex [4:0] $end
$var wire 32 :" imm_16_Ext [31:0] $end
$var wire 16 ;" imm16_Ex [15:0] $end
$var wire 32 <" busB_Ex [31:0] $end
$var wire 32 =" busA_Ex [31:0] $end
$var wire 1 6 ZF_Ex $end
$var wire 1 9 WrByte_Ex $end
$var wire 1 ; Sign_Ex $end
$var wire 1 ? Rtype_L_Ex $end
$var wire 1 B Rtype_J_Ex $end
$var wire 5 >" Rt_Ex [4:0] $end
$var wire 5 ?" Reg_Target_Ex [4:0] $end
$var wire 1 P RegWr_Ex $end
$var wire 1 R RegDst_Ex $end
$var wire 5 @" Rd_Ex [4:0] $end
$var wire 32 A" PC_Addr_Ex [31:0] $end
$var wire 6 B" OP_Ex [5:0] $end
$var wire 1 _ OF_Ex $end
$var wire 32 C" Mem_Wr_ByPassing_B [31:0] $end
$var wire 32 D" Mem_Wr_ByPassing_A [31:0] $end
$var wire 1 d MemWr_Ex $end
$var wire 1 h MemToReg_Ex $end
$var wire 2 E" LoadByte_Ex [1:0] $end
$var wire 1 m Jump_Ex $end
$var wire 1 q Jal_Ex $end
$var wire 32 F" J_Addr_Ex [31:0] $end
$var wire 2 G" ExtOp_Ex [1:0] $end
$var wire 1 { Branch_Ex $end
$var wire 32 H" B_Addr_Ex [31:0] $end
$var wire 32 I" ALU_input_B [31:0] $end
$var wire 32 J" ALU_input_A [31:0] $end
$var wire 32 K" ALU_ans_Ex [31:0] $end
$var wire 1 $" ALUSrc_Ex $end
$var wire 2 L" ALUSrcB_ByPassing [1:0] $end
$var wire 2 M" ALUSrcA_ByPassing [1:0] $end
$var wire 5 N" ALUCtr_Ex [4:0] $end
$scope module ALU $end
$var wire 5 O" shamt [4:0] $end
$var wire 32 P" B [31:0] $end
$var wire 5 Q" ALUCtr [4:0] $end
$var wire 32 R" A [31:0] $end
$var reg 1 _ OverFlow $end
$var reg 1 ; Sign $end
$var reg 1 6 Zero $end
$var reg 32 S" result [31:0] $end
$var reg 33 T" temp [32:0] $end
$var integer 32 U" t1 [31:0] $end
$var integer 32 V" t2 [31:0] $end
$upscope $end
$scope module ExtUnit_Ex $end
$var wire 32 W" out [31:0] $end
$var wire 16 X" in [15:0] $end
$var wire 2 Y" ExtOp [1:0] $end
$var reg 32 Z" out_t [31:0] $end
$upscope $end
$scope module MUX_ALUSrc_A $end
$var wire 32 [" B [31:0] $end
$var wire 32 \" C [31:0] $end
$var wire 2 ]" S [1:0] $end
$var wire 32 ^" D [31:0] $end
$var wire 32 _" A [31:0] $end
$var reg 32 `" Y [31:0] $end
$upscope $end
$scope module MUX_ALUSrc_B $end
$var wire 32 a" B [31:0] $end
$var wire 32 b" C [31:0] $end
$var wire 2 c" S [1:0] $end
$var wire 32 d" D [31:0] $end
$var wire 32 e" A [31:0] $end
$var reg 32 f" Y [31:0] $end
$upscope $end
$upscope $end
$scope module ForwardingUnit $end
$var wire 5 g" RegTarget_EX_Mem [4:0] $end
$var wire 1 N RegWr_Ex_Mem $end
$var wire 5 h" Rt_ID_EX [4:0] $end
$var wire 5 i" Rs_ID_EX [4:0] $end
$var wire 1 M RegWr_Mem_Wr $end
$var wire 5 j" RegTarget_Mem_Wr [4:0] $end
$var wire 1 $" ALUSrc_ID_Ex $end
$var reg 2 k" ALU_Src_A [1:0] $end
$var reg 2 l" ALU_Src_B [1:0] $end
$upscope $end
$scope module IDUnit $end
$var wire 26 m" J_Target_ID [25:0] $end
$var wire 6 n" OP_ID [5:0] $end
$var wire 6 o" OP_out_ID [5:0] $end
$var wire 1 p" OverFlow_Wr $end
$var wire 32 q" PC_Addr_out_ID [31:0] $end
$var wire 5 r" Rd_ID [4:0] $end
$var wire 5 s" Rd_out_ID [4:0] $end
$var wire 5 t" Rs_ID [4:0] $end
$var wire 5 u" Rs_out_ID [4:0] $end
$var wire 5 v" Rt_ID [4:0] $end
$var wire 5 w" Rt_out_ID [4:0] $end
$var wire 1 % clk $end
$var wire 6 x" func_ID [5:0] $end
$var wire 6 y" func_out_ID [5:0] $end
$var wire 16 z" imm16_ID [15:0] $end
$var wire 16 {" imm16_out_ID [15:0] $end
$var wire 5 |" shamt_ID [4:0] $end
$var wire 5 }" shamt_out_ID [4:0] $end
$var wire 32 ~" busW [31:0] $end
$var wire 32 !# busB_ID [31:0] $end
$var wire 32 "# busA_ID [31:0] $end
$var wire 1 8 WrByte_ID $end
$var wire 5 ## Rw_Wr [4:0] $end
$var wire 1 > Rtype_L_ID $end
$var wire 1 A Rtype_J_ID $end
$var wire 1 C Rtype_ID $end
$var wire 1 M RegWr_Wr $end
$var wire 1 O RegWr_ID $end
$var wire 1 Q RegDst_ID $end
$var wire 32 $# PC_Addr_ID [31:0] $end
$var wire 1 c MemWr_ID $end
$var wire 1 g MemToReg_ID $end
$var wire 2 %# LoadByte_ID [1:0] $end
$var wire 1 l Jump_ID $end
$var wire 1 n Jal_Wr $end
$var wire 1 p Jal_ID $end
$var wire 32 &# J_Addr_ID [31:0] $end
$var wire 2 '# ExtOp_ID [1:0] $end
$var wire 1 z Branch_ID $end
$var wire 1 #" ALUSrc_ID $end
$var wire 5 (# ALUCtr_ID [4:0] $end
$scope module ControlUnit $end
$var wire 6 )# OP [5:0] $end
$var wire 6 *# func [5:0] $end
$var reg 5 +# ALUCtr [4:0] $end
$var reg 1 #" ALUSrc $end
$var reg 1 z Branch $end
$var reg 2 ,# ExtOp [1:0] $end
$var reg 1 p Jal $end
$var reg 1 l Jump $end
$var reg 2 -# LoadByte [1:0] $end
$var reg 1 g MemToReg $end
$var reg 1 c MemWr $end
$var reg 1 Q RegDst $end
$var reg 1 O RegWr $end
$var reg 1 C Rtype $end
$var reg 1 A Rtype_J $end
$var reg 1 > Rtype_L $end
$var reg 1 8 WrByte $end
$upscope $end
$scope module Regfile $end
$var wire 5 .# Ra [4:0] $end
$var wire 5 /# Rb [4:0] $end
$var wire 1 0# WrEn $end
$var wire 1 % clk $end
$var wire 32 1# busW [31:0] $end
$var wire 5 2# Rw [4:0] $end
$var wire 1 n Jal $end
$var reg 32 3# busA [31:0] $end
$var reg 32 4# busB [31:0] $end
$upscope $end
$upscope $end
$scope module ID_EX $end
$var wire 5 5# ALUCtr_ID [4:0] $end
$var wire 1 #" ALUSrc_ID $end
$var wire 1 z Branch_ID $end
$var wire 2 6# ExtOp_ID [1:0] $end
$var wire 32 7# J_Addr_ID [31:0] $end
$var wire 1 p Jal_ID $end
$var wire 1 l Jump_ID $end
$var wire 2 8# LoadByte_ID [1:0] $end
$var wire 1 g MemToReg_ID $end
$var wire 1 c MemWr_ID $end
$var wire 6 9# OP_out_ID [5:0] $end
$var wire 32 :# PC_Addr_out_ID [31:0] $end
$var wire 5 ;# Rd_ID [4:0] $end
$var wire 1 Q RegDst_ID $end
$var wire 1 O RegWr_ID $end
$var wire 5 <# Rs_ID [4:0] $end
$var wire 5 =# Rt_ID [4:0] $end
$var wire 1 C Rtype_ID $end
$var wire 1 A Rtype_J_ID $end
$var wire 1 > Rtype_L_ID $end
$var wire 1 8 WrByte_ID $end
$var wire 32 ># busA_ID [31:0] $end
$var wire 32 ?# busB_ID [31:0] $end
$var wire 1 % clk $end
$var wire 6 @# func_out_ID [5:0] $end
$var wire 16 A# imm16_ID [15:0] $end
$var wire 5 B# shamt_ID [4:0] $end
$var wire 1 C# stall $end
$var reg 5 D# ALUCtr_Ex [4:0] $end
$var reg 1 $" ALUSrc_Ex $end
$var reg 1 { Branch_Ex $end
$var reg 2 E# ExtOp_Ex [1:0] $end
$var reg 32 F# J_Addr_Ex [31:0] $end
$var reg 1 q Jal_Ex $end
$var reg 1 m Jump_Ex $end
$var reg 2 G# LoadByte_Ex [1:0] $end
$var reg 1 h MemToReg_Ex $end
$var reg 1 d MemWr_Ex $end
$var reg 6 H# OP_out_Ex [5:0] $end
$var reg 32 I# PC_Addr_out_Ex [31:0] $end
$var reg 5 J# Rd_Ex [4:0] $end
$var reg 1 R RegDst_Ex $end
$var reg 1 P RegWr_Ex $end
$var reg 5 K# Rs_Ex [4:0] $end
$var reg 5 L# Rt_Ex [4:0] $end
$var reg 1 D Rtype_Ex $end
$var reg 1 B Rtype_J_Ex $end
$var reg 1 ? Rtype_L_Ex $end
$var reg 1 9 WrByte_Ex $end
$var reg 32 M# busA_Ex [31:0] $end
$var reg 32 N# busB_Ex [31:0] $end
$var reg 6 O# func_out_Ex [5:0] $end
$var reg 16 P# imm16_Ex [15:0] $end
$var reg 5 Q# shamt_Ex [4:0] $end
$upscope $end
$scope module IF_ID $end
$var wire 1 % clk $end
$var wire 1 R# stall $end
$var wire 32 S# PC_Addr_IF [31:0] $end
$var wire 32 T# Instruction_IF [31:0] $end
$var reg 32 U# Instruction_ID [31:0] $end
$var reg 32 V# PC_Addr_ID [31:0] $end
$upscope $end
$scope module IUnit $end
$var wire 1 W# PC_Src $end
$var wire 30 X# Target_PC_Addr [31:2] $end
$var wire 1 % clk $end
$var wire 1 & rst $end
$var wire 30 Y# PC_out [31:2] $end
$var wire 30 Z# PC_Plus_4 [31:2] $end
$var wire 32 [# PC_Addr [31:0] $end
$var wire 30 \# PCSrc_MUX_out [31:2] $end
$var wire 32 ]# Instruction [31:0] $end
$scope module IM $end
$var wire 10 ^# Addr [11:2] $end
$var wire 32 _# Dout [31:0] $end
$upscope $end
$scope module MUX_PCSrc $end
$var wire 30 `# A [29:0] $end
$var wire 30 a# B [29:0] $end
$var wire 1 W# S $end
$var wire 30 b# Y [29:0] $end
$upscope $end
$scope module PC $end
$var wire 30 c# Next_I_Addr [31:2] $end
$var wire 1 % clk $end
$var wire 1 d# install $end
$var wire 1 & rst $end
$var reg 30 e# I_Addr [31:2] $end
$upscope $end
$upscope $end
$scope module MemUnit $end
$var wire 32 f# ALU_ans_Mem [31:0] $end
$var wire 32 g# ALU_ans_out_Mem [31:0] $end
$var wire 1 y Branch_Mem $end
$var wire 1 o Jal_Mem $end
$var wire 2 h# LoadByte_Mem [1:0] $end
$var wire 1 f MemToReg_Mem $end
$var wire 1 b MemWr_Mem $end
$var wire 1 ^ OF_Mem $end
$var wire 6 i# OP_Mem [5:0] $end
$var wire 1 N RegWr_Mem $end
$var wire 5 j# Reg_Target_Mem [4:0] $end
$var wire 5 k# Reg_Target_out_Mem [4:0] $end
$var wire 1 @ Rtype_J_Mem $end
$var wire 1 = Rtype_L_Mem $end
$var wire 1 : Sign_Mem $end
$var wire 1 7 WrByte_Mem $end
$var wire 1 5 ZF_Mem $end
$var wire 32 l# busB_Mem [31:0] $end
$var wire 1 m# clk $end
$var wire 32 n# Word_Data_out [31:0] $end
$var wire 32 o# Mem_Data_out [31:0] $end
$var wire 8 p# Byte_Data_out [7:0] $end
$var wire 32 q# Byte_Data_ext [31:0] $end
$scope module DM_4K $end
$var wire 12 r# Addr [11:0] $end
$var wire 8 s# ByteDout [7:0] $end
$var wire 32 t# Din [31:0] $end
$var wire 1 7 WrByte $end
$var wire 1 b WrEn $end
$var wire 1 m# clk $end
$var wire 32 u# Dout [31:0] $end
$upscope $end
$scope module Ext_Byte $end
$var wire 1 v# ExtOp $end
$var wire 8 w# in [7:0] $end
$var wire 32 x# out [31:0] $end
$var reg 32 y# out_t [31:0] $end
$upscope $end
$scope module MUX_Byte_Word $end
$var wire 32 z# A [31:0] $end
$var wire 32 {# B [31:0] $end
$var wire 1 |# S $end
$var wire 32 }# Y [31:0] $end
$upscope $end
$upscope $end
$scope module Mem_Wr $end
$var wire 32 ~# ALU_ans_Mem [31:0] $end
$var wire 1 o Jal_Mem $end
$var wire 1 f MemToReg_Mem $end
$var wire 32 !$ Mem_Data_Mem [31:0] $end
$var wire 32 "$ PC_Addr_Mem [31:0] $end
$var wire 1 N RegWr_Mem $end
$var wire 5 #$ Reg_Target_Mem [4:0] $end
$var wire 1 = Rtype_L_Mem $end
$var wire 1 % clk $end
$var reg 32 $$ ALU_ans_Wr [31:0] $end
$var reg 1 n Jal_Wr $end
$var reg 1 e MemToReg_Wr $end
$var reg 32 %$ Mem_Data_Wr [31:0] $end
$var reg 32 &$ PC_Addr_Wr [31:0] $end
$var reg 1 M RegWr_Wr $end
$var reg 5 '$ Reg_Target_Wr [4:0] $end
$var reg 1 < Rtype_L_Wr $end
$upscope $end
$scope module WrUint $end
$var wire 32 ($ ALU_ans_Wr [31:0] $end
$var wire 1 n Jal_Wr $end
$var wire 1 e MemToReg_Wr $end
$var wire 32 )$ Mem_Data_Wr [31:0] $end
$var wire 32 *$ PC_Addr_Wr [31:0] $end
$var wire 1 < Rtype_L_Wr $end
$var wire 32 +$ busW_Wr [31:0] $end
$var wire 32 ,$ MUX_1_data [31:0] $end
$scope module MUX_ALU_Memory $end
$var wire 32 -$ A [31:0] $end
$var wire 32 .$ B [31:0] $end
$var wire 1 e S $end
$var wire 32 /$ Y [31:0] $end
$upscope $end
$scope module MUX_data_PCAddr $end
$var wire 32 0$ A [31:0] $end
$var wire 32 1$ B [31:0] $end
$var wire 1 2$ S $end
$var wire 32 3$ Y [31:0] $end
$upscope $end
$upscope $end
$upscope $end
$upscope $end
$enddefinitions $end
#0
$dumpvars
bx 3$
x2$
bx 1$
bz 0$
bx /$
bx .$
bx -$
bx ,$
bx +$
bz *$
bx )$
bx ($
bx '$
bz &$
bx %$
bx $$
bx #$
bz "$
bx !$
bx ~#
bx }#
x|#
bx {#
bx z#
bx y#
bx x#
bx w#
xv#
bx u#
bx t#
bx s#
bx r#
bx q#
bx p#
bx o#
bx n#
zm#
bx l#
bx k#
bx j#
bx i#
bx h#
bx g#
bx f#
b0 e#
zd#
b1 c#
b1 b#
b1 a#
bz `#
b100100000000010000000000000001 _#
b0 ^#
b100100000000010000000000000001 ]#
b1 \#
b0 [#
b1 Z#
b0 Y#
bz X#
0W#
bx00 V#
bx U#
b100100000000010000000000000001 T#
b0 S#
0R#
bx Q#
bx P#
bz O#
bx N#
bx M#
bx L#
bx K#
bx J#
bx I#
bx H#
bx G#
bx00 F#
bx E#
bx D#
0C#
bx B#
bx A#
bz @#
bx ?#
bx >#
bx =#
bx <#
bx ;#
bx00 :#
bx 9#
bx 8#
bx00 7#
bx 6#
bx 5#
bx 4#
bx 3#
bx 2#
bx 1#
x0#
bx /#
bx .#
bx -#
bx ,#
bx +#
bx *#
bx )#
bx (#
bx '#
bx00 &#
bx %#
bx00 $#
bx ##
bx "#
bx !#
bx ~"
bx }"
bx |"
bx {"
bx z"
bx y"
bx x"
bx w"
bx v"
bx u"
bx t"
bx s"
bx r"
bx00 q"
0p"
bx o"
bx n"
bx m"
bx l"
bx k"
bx j"
bx i"
bx h"
bx g"
bx f"
bx e"
bx d"
bx c"
bx b"
bx a"
bx `"
bx _"
bx ^"
bx ]"
bz \"
bx ["
bx Z"
bx Y"
bx X"
bx W"
bx V"
bx U"
bx T"
bx S"
bx R"
bx Q"
bx P"
bx O"
bx N"
bx M"
bx L"
bx K"
bx J"
bx I"
bx H"
bx G"
bx00 F"
bx E"
bx D"
bx C"
bx B"
bx A"
bx @"
bx ?"
bx >"
bx ="
bx <"
bx ;"
bx :"
bx 9"
bx 8"
bx00 7"
bx 6"
bx 5"
bx 4"
bx 3"
bx 2"
bx 1"
bx 0"
bx /"
bx ."
bx -"
bx ,"
bx +"
bx *"
bx )"
bx ("
bx '"
bx &"
bx %"
x$"
x#"
bx ""
bx !"
bx ~
bx }
bx |
x{
xz
xy
bx x
bx w
bx v
b100100000000010000000000000001 u
bx00 t
bx00 s
bx00 r
xq
xp
xo
xn
xm
xl
bx k
bx j
bx i
xh
xg
xf
xe
xd
xc
xb
bx a
bx `
0_
0^
bx ]
bx \
bx [
bx00 Z
b0 Y
bx X
bz W
bx V
bx00 U
bx T
bx S
xR
xQ
xP
xO
xN
xM
bx L
bx K
bx J
bx I
bx H
bx G
bx F
bx E
xD
xC
xB
xA
x@
x?
x>
x=
x<
x;
x:
x9
x8
x7
06
05
bx 4
bx 3
bx 2
bx 1
bx 0
bx /
bx .
bx -
bx ,
bx +
bx *
b0 )
b10000000000000000000000000000011 (
b0 '
1&
1%
bx $
bx #
bz "
z!
$end
#5000
b100000 )
b1 '
0&
0%
#10000
b0 j
b0 %#
b0 -#
b0 8#
08
0>
0A
0p
0C
b1 w
b1 '#
b1 ,#
b1 6#
0c
1O
0g
b1 '"
b1 (#
b1 +#
b1 5#
1#"
0Q
0l
0z
b1000000000000000100 s
b1000000000000000100 &#
b1000000000000000100 7#
b10000000000000001 m"
b1 ,
b1 {"
b1 A#
b1 z"
b0 *
b0 }"
b0 B#
b0 |"
b0 S
b0 s"
b0 ;#
b0 r"
b1 E
b1 w"
b1 =#
b1 v"
b1 /#
b0 G
b0 u"
b0 <#
b0 t"
b0 .#
b1001 ]
b1001 o"
b1001 9#
b1001 n"
b1001 )#
b1 y"
b1 x"
b1 *#
b10001000100000000 u
b10001000100000000 T#
b10001000100000000 ]#
b10001000100000000 _#
b1 ^#
b10 \#
b10 b#
b10 c#
bx00 V
bx00 +"
bx00 A"
bx00 I#
b0 U
b0 q"
b0 :#
b0 Z
b0 $#
b0 V#
b100100000000010000000000000001 v
b100100000000010000000000000001 U#
b100 Y
b100 S#
b100 [#
b10 Z#
b10 a#
b1 Y#
b1 e#
1%
#15000
b0 1
b0 !#
b0 4#
b0 ?#
b0 3
b0 "#
b0 3#
b0 >#
b100000 )
b10 '
0%
#20000
b1 ""
b1 ."
b1 K"
b1 S"
b1 I"
b1 P"
b1 f"
b0 J"
b0 R"
b0 `"
b1 %"
b1 L"
b1 c"
b1 l"
b0 &"
b0 M"
b0 ]"
b0 k"
1C
b0x w
b0x '#
b0x ,#
b0x 6#
b1000 '"
b1000 (#
b1000 +#
b1000 5#
0#"
1Q
b100 |
b100 H"
b10000010001100000100001 u
b10000010001100000100001 T#
b10000010001100000100001 ]#
b10000010001100000100001 _#
b10 ^#
b11 \#
b11 b#
b11 c#
b1000100010000000000 s
b1000100010000000000 &#
b1000100010000000000 7#
b10001000100000000 m"
b1000100000000 ,
b1000100000000 {"
b1000100000000 A#
b1000100000000 z"
b100 *
b100 }"
b100 B#
b100 |"
b10 S
b10 s"
b10 ;#
b10 r"
b0 ]
b0 o"
b0 9#
b0 n"
b0 )#
b0 y"
b0 x"
b0 *#
b1 :"
b1 W"
b1 Z"
b1 b"
0;
b1 L
b1 *"
b1 ?"
b1000 Y
b1000 S#
b1000 [#
b11 Z#
b11 a#
b10 Y#
b10 e#
b100 U
b100 q"
b100 :#
b100 Z
b100 $#
b100 V#
b10001000100000000 v
b10001000100000000 U#
b0 H
b0 i"
b0 K#
b1 F
b1 >"
b1 h"
b1 L#
b0 T
b0 @"
b0 J#
b1 -
b1 ;"
b1 X"
b1 P#
b1001 [
b1001 ,"
b1001 B"
b1001 H#
b1000000000000000100 r
b1000000000000000100 7"
b1000000000000000100 t
b1000000000000000100 F"
b1000000000000000100 F#
b0 V
b0 +"
b0 A"
b0 I#
b0 /
b0 )"
b0 8"
b0 2
b0 <"
b0 d"
b0 N#
b0 4
b0 ="
b0 ^"
b0 M#
b0 +
b0 9"
b0 O"
b0 Q#
b0 k
b0 -"
b0 E"
b0 G#
09
0?
0B
0q
0D
b1 x
b1 G"
b1 Y"
b1 E#
0d
1P
0h
b1 ("
b1 N"
b1 Q"
b1 D#
1$"
0R
0m
0{
bx00 X
bx00 2"
1%
#25000
b100000 )
b11 '
0%
#30000
b10 %"
b10 L"
b10 c"
b10 l"
b0xxxxxxxx q#
b0xxxxxxxx x#
b0xxxxxxxx y#
b0xxxxxxxx z#
b1 '"
b1 (#
b1 +#
b1 5#
0v#
0|#
b1 r#
b10000 ""
b10000 ."
b10000 K"
b10000 S"
b10 L
b10 *"
b10 ?"
b1000001000110000010000100 s
b1000001000110000010000100 &#
b1000001000110000010000100 7#
b10000010001100000100001 m"
b1100000100001 ,
b1100000100001 {"
b1100000100001 A#
b1100000100001 z"
b0 *
b0 }"
b0 B#
b0 |"
b11 S
b11 s"
b11 ;#
b11 r"
b10 G
b10 u"
b10 <#
b10 t"
b10 .#
b100001 y"
b100001 x"
b100001 *#
b100010000010000010 u
b100010000010000010 T#
b100010000010000010 ]#
b100010000010000010 _#
b11 ^#
b100 \#
b100 b#
b100 c#
b0 i
b0 0"
b0 h#
07
0=
0@
0o
0b
1N
0f
0y
0:
b1 I
b1 k#
b1 #$
b1 K
b1 3"
b1 g"
b1 j#
b1001 \
b1001 1"
b1001 i#
b0 X
b0 2"
b0 0
b0 4"
b0 l#
b0 t#
b1 }
b1 g#
b1 ~#
b1 !"
b1 /"
b1 5"
b1 6"
b1 ["
b1 a"
b1 f#
b10 T
b10 @"
b10 J#
b1000100000000 -
b1000100000000 ;"
b1000100000000 X"
b1000100000000 P#
b0 [
b0 ,"
b0 B"
b0 H#
b1000100010000000000 r
b1000100010000000000 7"
b1000100010000000000 t
b1000100010000000000 F"
b1000100010000000000 F#
b1000 |
b1000 H"
b100 V
b100 +"
b100 A"
b100 I#
b100 +
b100 9"
b100 O"
b100 Q#
1D
b0x x
b0x G"
b0x Y"
b0x E#
b1000 ("
b1000 N"
b1000 Q"
b1000 D#
0$"
1R
b1000 U
b1000 q"
b1000 :#
b1000 Z
b1000 $#
b1000 V#
b10000010001100000100001 v
b10000010001100000100001 U#
b1100 Y
b1100 S#
b1100 [#
b100 Z#
b100 a#
b11 Y#
b11 e#
1%
#35000
b100000 )
b100 '
0%
