src/CPU_Wave.vcd
$date
	Fri Jun 09 09:54:34 2023
$end
$version
	Icarus Verilog
$end
$timescale
	1ps
$end
$scope module ExtUnit_LB_206 $end
$var wire 1 ! ExtOp $end
$var wire 8 " in [7:0] $end
$var wire 32 # out [31:0] $end
$var reg 32 $ out_t [31:0] $end
$upscope $end
$scope module ExtUnit_NPC_206 $end
$var wire 1 % ExtOp $end
$var wire 16 & in [15:0] $end
$var wire 30 ' out [29:0] $end
$var reg 30 ( out_t [29:0] $end
$upscope $end
$scope module tb_PipeLine_CPU $end
$var reg 1 ) clk $end
$var reg 1 * rst $end
$scope module u_PipeLine_CPU $end
$var wire 1 ) clk $end
$var wire 1 * rst $end
$var wire 5 + shamt_ID [4:0] $end
$var wire 5 , shamt_Ex [4:0] $end
$var wire 16 - imm16_ID [15:0] $end
$var wire 16 . imm16_Ex [15:0] $end
$var wire 32 / busB_ID [31:0] $end
$var wire 32 0 busB_Ex [31:0] $end
$var wire 32 1 busA_ID [31:0] $end
$var wire 32 2 busA_Ex [31:0] $end
$var wire 1 3 WrByte_ID $end
$var wire 1 4 WrByte_Ex $end
$var wire 1 5 Rtype_L_ID $end
$var wire 1 6 Rtype_L_Ex $end
$var wire 1 7 Rtype_J_ID $end
$var wire 1 8 Rtype_J_Ex $end
$var wire 1 9 Rtype_ID $end
$var wire 1 : Rtype_Ex $end
$var wire 1 ; RegWr_ID $end
$var wire 1 < RegWr_Ex $end
$var wire 1 = RegDst_ID $end
$var wire 1 > RegDst_Ex $end
$var wire 32 ? PC_Addr_out_Ex [31:0] $end
$var wire 32 @ PC_Addr_IF [31:0] $end
$var wire 32 A PC_Addr_ID_Out [31:0] $end
$var wire 32 B PC_Addr_ID [31:0] $end
$var wire 6 C OP_out_Ex [5:0] $end
$var wire 6 D OP_ID [5:0] $end
$var wire 1 E MemWr_ID $end
$var wire 1 F MemWr_Ex $end
$var wire 1 G MemToReg_ID $end
$var wire 1 H MemToReg_Ex $end
$var wire 2 I LoadByte_ID [1:0] $end
$var wire 2 J LoadByte_Ex [1:0] $end
$var wire 1 K Jump_ID $end
$var wire 1 L Jump_Ex $end
$var wire 1 M Jal_ID $end
$var wire 1 N Jal_Ex $end
$var wire 32 O J_Addr_ID [31:0] $end
$var wire 32 P J_Addr_Ex [31:0] $end
$var wire 32 Q Instruction_IF [31:0] $end
$var wire 32 R Instruction_ID [31:0] $end
$var wire 2 S ExtOp_ID [1:0] $end
$var wire 2 T ExtOp_Ex [1:0] $end
$var wire 1 U Branch_ID $end
$var wire 1 V Branch_Ex $end
$var wire 1 W ALUSrc_ID $end
$var wire 1 X ALUSrc_Ex $end
$var wire 5 Y ALUCtr_ID [4:0] $end
$var wire 5 Z ALUCtr_Ex [4:0] $end
$scope module ExecUnit $end
$var wire 2 [ ALUSrcA_ByPassing [1:0] $end
$var wire 2 \ ALUSrcB_ByPassing [1:0] $end
$var wire 32 ] Ex_Mem_ByPassing [31:0] $end
$var wire 32 ^ J_Addr_out_Ex [31:0] $end
$var wire 32 _ Mem_Wr_ByPassing [31:0] $end
$var wire 32 ` busB_Ex_out [31:0] $end
$var wire 5 a shamt_Ex [4:0] $end
$var wire 32 b imm_16_Ext [31:0] $end
$var wire 16 c imm16_Ex [15:0] $end
$var wire 32 d busB_Ex [31:0] $end
$var wire 32 e busA_Ex [31:0] $end
$var wire 1 f ZF_Ex $end
$var wire 1 4 WrByte_Ex $end
$var wire 1 g Sign_Ex $end
$var wire 1 6 Rtype_L_Ex $end
$var wire 1 8 Rtype_J_Ex $end
$var wire 1 < RegWr_Ex $end
$var wire 1 > RegDst_Ex $end
$var wire 32 h PC_Addr_Ex [31:0] $end
$var wire 6 i OP_Ex [5:0] $end
$var wire 1 j OF_Ex $end
$var wire 1 F MemWr_Ex $end
$var wire 1 H MemToReg_Ex $end
$var wire 2 k LoadByte_Ex [1:0] $end
$var wire 1 L Jump_Ex $end
$var wire 1 N Jal_Ex $end
$var wire 32 l J_Addr_Ex [31:0] $end
$var wire 2 m ExtOp_Ex [1:0] $end
$var wire 1 V Branch_Ex $end
$var wire 32 n B_Addr_Ex [31:0] $end
$var wire 32 o ALU_input_B [31:0] $end
$var wire 32 p ALU_input_A [31:0] $end
$var wire 32 q ALU_ans_Ex [31:0] $end
$var wire 1 X ALUSrc_Ex $end
$var wire 5 r ALUCtr_Ex [4:0] $end
$scope module ALU $end
$var wire 5 s shamt [4:0] $end
$var wire 32 t B [31:0] $end
$var wire 5 u ALUCtr [4:0] $end
$var wire 32 v A [31:0] $end
$var reg 1 j OverFlow $end
$var reg 1 g Sign $end
$var reg 1 f Zero $end
$var reg 32 w result [31:0] $end
$var reg 33 x temp [32:0] $end
$var integer 32 y t1 [31:0] $end
$var integer 32 z t2 [31:0] $end
$upscope $end
$scope module ExtUnit_Ex $end
$var wire 32 { out [31:0] $end
$var wire 16 | in [15:0] $end
$var wire 2 } ExtOp [1:0] $end
$var reg 32 ~ out_t [31:0] $end
$upscope $end
$scope module MUX_ALUSrc_A $end
$var wire 32 !" A [31:0] $end
$var wire 32 "" B [31:0] $end
$var wire 32 #" C [31:0] $end
$var wire 2 $" S [1:0] $end
$var wire 32 %" D [31:0] $end
$var reg 32 &" Y [31:0] $end
$upscope $end
$scope module MUX_ALUSrc_B $end
$var wire 32 '" A [31:0] $end
$var wire 32 (" B [31:0] $end
$var wire 32 )" C [31:0] $end
$var wire 2 *" S [1:0] $end
$var wire 32 +" D [31:0] $end
$var reg 32 ," Y [31:0] $end
$upscope $end
$upscope $end
$scope module IDUnit $end
$var wire 26 -" J_Target [25:0] $end
$var wire 1 ." Jal_Wr $end
$var wire 6 /" OP [5:0] $end
$var wire 6 0" OP_out [5:0] $end
$var wire 1 1" OverFlow_Wr $end
$var wire 32 2" PC_Addr_out [31:0] $end
$var wire 5 3" Rd [4:0] $end
$var wire 1 4" RegWr_Wr $end
$var wire 5 5" Rs [4:0] $end
$var wire 5 6" Rt [4:0] $end
$var wire 5 7" Rw_Wr [4:0] $end
$var wire 32 8" busW [31:0] $end
$var wire 1 ) clk $end
$var wire 6 9" func [5:0] $end
$var wire 6 :" func_out [5:0] $end
$var wire 16 ;" imm16 [15:0] $end
$var wire 16 <" imm16_out [15:0] $end
$var wire 5 =" shamt [4:0] $end
$var wire 5 >" shamt_out [4:0] $end
$var wire 32 ?" busB [31:0] $end
$var wire 32 @" busA [31:0] $end
$var wire 1 3 WrByte $end
$var wire 1 5 Rtype_L $end
$var wire 1 7 Rtype_J $end
$var wire 1 9 Rtype $end
$var wire 1 ; RegWr $end
$var wire 1 = RegDst $end
$var wire 32 A" PC_Addr [31:0] $end
$var wire 1 E MemWr $end
$var wire 1 G MemToReg $end
$var wire 2 B" LoadByte [1:0] $end
$var wire 1 K Jump $end
$var wire 1 M Jal $end
$var wire 32 C" J_Addr [31:0] $end
$var wire 2 D" ExtOp [1:0] $end
$var wire 1 U Branch $end
$var wire 1 W ALUSrc $end
$var wire 5 E" ALUCtr [4:0] $end
$scope module ControlUnit $end
$var wire 6 F" OP [5:0] $end
$var wire 6 G" func [5:0] $end
$var reg 5 H" ALUCtr [4:0] $end
$var reg 1 W ALUSrc $end
$var reg 1 U Branch $end
$var reg 2 I" ExtOp [1:0] $end
$var reg 1 M Jal $end
$var reg 1 K Jump $end
$var reg 2 J" LoadByte [1:0] $end
$var reg 1 G MemToReg $end
$var reg 1 E MemWr $end
$var reg 1 = RegDst $end
$var reg 1 ; RegWr $end
$var reg 1 9 Rtype $end
$var reg 1 7 Rtype_J $end
$var reg 1 5 Rtype_L $end
$var reg 1 3 WrByte $end
$upscope $end
$scope module Regfile $end
$var wire 1 ." Jal $end
$var wire 5 K" Ra [4:0] $end
$var wire 5 L" Rb [4:0] $end
$var wire 5 M" Rw [4:0] $end
$var wire 1 N" WrEn $end
$var wire 32 O" busA [31:0] $end
$var wire 32 P" busB [31:0] $end
$var wire 32 Q" busW [31:0] $end
$var wire 1 ) clk $end
$upscope $end
$upscope $end
$scope module ID_EX $end
$var wire 5 R" ALUCtr_ID [4:0] $end
$var wire 1 W ALUSrc_ID $end
$var wire 1 U Branch_ID $end
$var wire 2 S" ExtOp_ID [1:0] $end
$var wire 32 T" J_Addr_ID [31:0] $end
$var wire 1 M Jal_ID $end
$var wire 1 K Jump_ID $end
$var wire 2 U" LoadByte_ID [1:0] $end
$var wire 1 G MemToReg_ID $end
$var wire 1 E MemWr_ID $end
$var wire 6 V" OP_out_ID [5:0] $end
$var wire 32 W" PC_Addr_out_ID [31:0] $end
$var wire 1 = RegDst_ID $end
$var wire 1 ; RegWr_ID $end
$var wire 1 9 Rtype_ID $end
$var wire 1 7 Rtype_J_ID $end
$var wire 1 5 Rtype_L_ID $end
$var wire 1 3 WrByte_ID $end
$var wire 32 X" busA_ID [31:0] $end
$var wire 32 Y" busB_ID [31:0] $end
$var wire 1 ) clk $end
$var wire 6 Z" func_out_ID [5:0] $end
$var wire 16 [" imm16_ID [15:0] $end
$var wire 5 \" shamt_ID [4:0] $end
$var wire 1 ]" stall $end
$var reg 5 ^" ALUCtr_Ex [4:0] $end
$var reg 1 X ALUSrc_Ex $end
$var reg 1 V Branch_Ex $end
$var reg 2 _" ExtOp_Ex [1:0] $end
$var reg 32 `" J_Addr_Ex [31:0] $end
$var reg 1 N Jal_Ex $end
$var reg 1 L Jump_Ex $end
$var reg 2 a" LoadByte_Ex [1:0] $end
$var reg 1 H MemToReg_Ex $end
$var reg 1 F MemWr_Ex $end
$var reg 6 b" OP_out_Ex [5:0] $end
$var reg 32 c" PC_Addr_out_Ex [31:0] $end
$var reg 1 > RegDst_Ex $end
$var reg 1 < RegWr_Ex $end
$var reg 1 : Rtype_Ex $end
$var reg 1 8 Rtype_J_Ex $end
$var reg 1 6 Rtype_L_Ex $end
$var reg 1 4 WrByte_Ex $end
$var reg 32 d" busA_Ex [31:0] $end
$var reg 32 e" busB_Ex [31:0] $end
$var reg 6 f" func_out_Ex [5:0] $end
$var reg 16 g" imm16_Ex [15:0] $end
$var reg 5 h" shamt_Ex [4:0] $end
$upscope $end
$scope module IF_ID $end
$var wire 1 ) clk $end
$var wire 1 i" stall $end
$var wire 32 j" PC_Addr_IF [31:0] $end
$var wire 32 k" Instruction_IF [31:0] $end
$var reg 32 l" Instruction_ID [31:0] $end
$var reg 32 m" PC_Addr_ID [31:0] $end
$upscope $end
$scope module IUnit $end
$var wire 1 n" PC_Src $end
$var wire 30 o" Target_PC_Addr [31:2] $end
$var wire 1 ) clk $end
$var wire 1 * rst $end
$var wire 30 p" PC_out [31:2] $end
$var wire 30 q" PC_Plus_4 [31:2] $end
$var wire 32 r" PC_Addr [31:0] $end
$var wire 30 s" PCSrc_MUX_out [31:2] $end
$var wire 32 t" Instruction [31:0] $end
$scope module IM $end
$var wire 10 u" Addr [11:2] $end
$var wire 32 v" Dout [31:0] $end
$upscope $end
$scope module MUX_PCSrc $end
$var wire 30 w" A [29:0] $end
$var wire 30 x" B [29:0] $end
$var wire 1 n" S $end
$var wire 30 y" Y [29:0] $end
$upscope $end
$scope module PC $end
$var wire 30 z" Next_I_Addr [31:2] $end
$var wire 1 ) clk $end
$var wire 1 * rst $end
$var reg 30 {" I_Addr [31:2] $end
$upscope $end
$upscope $end
$upscope $end
$upscope $end
$enddefinitions $end
#0
$dumpvars
b0 {"
b1 z"
b1 y"
b1 x"
bz w"
b100100000000010000000000000001 v"
b0 u"
b100100000000010000000000000001 t"
b1 s"
b0 r"
b1 q"
b0 p"
bz o"
0n"
bx00 m"
bx l"
b100100000000010000000000000001 k"
b0 j"
0i"
bx h"
bx g"
bz f"
bx e"
bx d"
bx c"
bx b"
bx a"
bx00 `"
bx _"
bx ^"
0]"
bx \"
bx ["
bz Z"
bx Y"
bx X"
bx00 W"
bx V"
bx U"
bx00 T"
bx S"
bx R"
b0 Q"
bx P"
bx O"
0N"
b0 M"
bx L"
bx K"
bx J"
bx I"
bx H"
bx G"
bx F"
bx E"
bx D"
bx00 C"
bx B"
bx00 A"
bx @"
bx ?"
bx >"
bx ="
bx <"
bx ;"
bx :"
bx 9"
b0 8"
b0 7"
bx 6"
bx 5"
04"
bx 3"
bx00 2"
01"
bx 0"
bx /"
0."
bx -"
bx ,"
bx +"
b0 *"
bz )"
bz ("
bz '"
bx &"
bx %"
b0x $"
bx #"
bz ""
bz !"
bx ~
bx }
bx |
bx {
bx z
bx y
bx x
bx w
bx v
bx u
bx t
bx s
bx r
bx q
bx p
bx o
bx n
bx m
bx00 l
bx k
0j
bx i
bx h
xg
0f
bx e
bx d
bx c
bx b
bx a
bx `
bz _
bx00 ^
bz ]
bz \
bz [
bx Z
bx Y
xX
xW
xV
xU
bx T
bx S
bx R
b100100000000010000000000000001 Q
bx00 P
bx00 O
xN
xM
xL
xK
bx J
bx I
xH
xG
xF
xE
bx D
bx C
bx00 B
bx00 A
b0 @
bx ?
x>
x=
x<
x;
x:
x9
x8
x7
x6
x5
x4
x3
bx 2
bx 1
bx 0
bx /
bx .
bx -
bx ,
bx +
1*
1)
bx (
bx '
bz &
z%
bx $
bx #
bz "
z!
$end
#5000
0*
0)
#10000
b0 I
b0 B"
b0 J"
b0 U"
03
05
07
0M
09
b1 S
b1 D"
b1 I"
b1 S"
0E
1;
0G
b1 Y
b1 E"
b1 H"
b1 R"
1W
0=
0K
0U
b1000000000000000100 O
b1000000000000000100 C"
b1000000000000000100 T"
b10000000000000001 -"
b1 -
b1 <"
b1 ["
b1 ;"
b0 +
b0 >"
b0 \"
b0 ="
b0 3"
b0 /
b0 ?"
b0 P"
b0 Y"
b1 6"
b1 L"
b0 1
b0 @"
b0 O"
b0 X"
b0 5"
b0 K"
b1001 D
b1001 0"
b1001 V"
b1001 /"
b1001 F"
b1 :"
b1 9"
b1 G"
b10001000100000000 Q
b10001000100000000 k"
b10001000100000000 t"
b10001000100000000 v"
b1 u"
b10 s"
b10 y"
b10 z"
bx00 ?
bx00 h
bx00 c"
b0 A
b0 2"
b0 W"
b0 B
b0 A"
b0 m"
b100100000000010000000000000001 R
b100100000000010000000000000001 l"
b100 @
b100 j"
b100 r"
b10 q"
b10 x"
b1 p"
b1 {"
1)
#15000
0)
#20000
b1 q
b1 w
b1 p
b1 v
b1 &"
b0 o
b0 t
b0 ,"
19
b0x S
b0x D"
b0x I"
b0x S"
b1000 Y
b1000 E"
b1000 H"
b1000 R"
0W
1=
b10000010001100000100001 Q
b10000010001100000100001 k"
b10000010001100000100001 t"
b10000010001100000100001 v"
b10 u"
b11 s"
b11 y"
b11 z"
b1000100010000000000 O
b1000100010000000000 C"
b1000100010000000000 T"
b10001000100000000 -"
b1000100000000 -
b1000100000000 <"
b1000100000000 ["
b1000100000000 ;"
b100 +
b100 >"
b100 \"
b100 ="
b10 3"
b0 D
b0 0"
b0 V"
b0 /"
b0 F"
b0 :"
b0 9"
b0 G"
b1 n
b1 b
b1 {
b1 ~
b1 #"
0g
b1000 @
b1000 j"
b1000 r"
b11 q"
b11 x"
b10 p"
b10 {"
b100 A
b100 2"
b100 W"
b100 B
b100 A"
b100 m"
b10001000100000000 R
b10001000100000000 l"
b1 .
b1 c
b1 |
b1 g"
b1001 C
b1001 i
b1001 b"
b1000000000000000100 ^
b1000000000000000100 P
b1000000000000000100 l
b1000000000000000100 `"
b0 ?
b0 h
b0 c"
b0 `
b0 0
b0 d
b0 +"
b0 e"
b0 2
b0 e
b0 %"
b0 d"
b0 ,
b0 a
b0 s
b0 h"
b0 J
b0 k
b0 a"
04
06
08
0N
0:
b1 T
b1 m
b1 }
b1 _"
0F
0<
0H
b1 Z
b1 r
b1 u
b1 ^"
b1 $"
1X
0>
0L
0V
1)
#25000
0)
#30000
b0 p
b0 v
b0 &"
b1 Y
b1 E"
b1 H"
b1 R"
1f
b0 q
b0 w
b1000001000110000010000100 O
b1000001000110000010000100 C"
b1000001000110000010000100 T"
b10000010001100000100001 -"
b1100000100001 -
b1100000100001 <"
b1100000100001 ["
b1100000100001 ;"
b0 +
b0 >"
b0 \"
b0 ="
b11 3"
b10 5"
b10 K"
b100001 :"
b100001 9"
b100001 G"
b100010000010000010 Q
b100010000010000010 k"
b100010000010000010 t"
b100010000010000010 v"
b11 u"
b100 s"
b100 y"
b100 z"
b1000100000000 .
b1000100000000 c
b1000100000000 |
b1000100000000 g"
b0 C
b0 i
b0 b"
b1000100010000000000 ^
b1000100010000000000 P
b1000100010000000000 l
b1000100010000000000 `"
b101 n
b100 ?
b100 h
b100 c"
b100 ,
b100 a
b100 s
b100 h"
1:
b0x T
b0x m
b0x }
b0x _"
1<
b1000 Z
b1000 r
b1000 u
b1000 ^"
b0 $"
0X
1>
b1000 A
b1000 2"
b1000 W"
b1000 B
b1000 A"
b1000 m"
b10000010001100000100001 R
b10000010001100000100001 l"
b1100 @
b1100 j"
b1100 r"
b100 q"
b100 x"
b11 p"
b11 {"
1)
#35000
0)
#40000
b1001 Y
b1001 E"
b1001 H"
b1001 R"
b101000100110010000000000000101 Q
b101000100110010000000000000101 k"
b101000100110010000000000000101 t"
b101000100110010000000000000101 v"
b100 u"
b101 s"
b101 y"
b101 z"
b10001000001000001000 O
b10001000001000001000 C"
b10001000001000001000 T"
b100010000010000010 -"
b10000010000010 -
b10000010000010 <"
b10000010000010 ["
b10000010000010 ;"
b10 +
b10 >"
b10 \"
b10 ="
b100 3"
b10 6"
b10 L"
b0 5"
b0 K"
b10 :"
b10 9"
b10 G"
b10000 @
b10000 j"
b10000 r"
b101 q"
b101 x"
b100 p"
b100 {"
b1100 A
b1100 2"
b1100 W"
b1100 B
b1100 A"
b1100 m"
b100010000010000010 R
b100010000010000010 l"
b1100000100001 .
b1100000100001 c
b1100000100001 |
b1100000100001 g"
b1000001000110000010000100 ^
b1000001000110000010000100 P
b1000001000110000010000100 l
b1000001000110000010000100 `"
b1001 n
b1000 ?
b1000 h
b1000 c"
b0 ,
b0 a
b0 s
b0 h"
b1 Z
b1 r
b1 u
b1 ^"
1)
#45000
0)
#50000
09
b1 S
b1 D"
b1 I"
b1 S"
b1100 Y
b1100 E"
b1100 H"
b1100 R"
1W
0=
b10011001000000000000010100 O
b10011001000000000000010100 C"
b10011001000000000000010100 T"
b100110010000000000000101 -"
b101 -
b101 <"
b101 ["
b101 ;"
b0 +
b0 >"
b0 \"
b0 ="
b0 3"
b11001 6"
b11001 L"
b100 5"
b100 K"
b1010 D
b1010 0"
b1010 V"
b1010 /"
b1010 F"
b101 :"
b101 9"
b101 G"
b111001000010000000000010000 Q
b111001000010000000000010000 k"
b111001000010000000000010000 t"
b111001000010000000000010000 v"
b101 u"
b110 s"
b110 y"
b110 z"
b10000010000010 .
b10000010000010 c
b10000010000010 |
b10000010000010 g"
b10001000001000001000 ^
b10001000001000001000 P
b10001000001000001000 l
b10001000001000001000 `"
b1101 n
b1100 ?
b1100 h
b1100 c"
b10 ,
b10 a
b10 s
b10 h"
b1001 Z
b1001 r
b1001 u
b1001 ^"
b10000 A
b10000 2"
b10000 W"
b10000 B
b10000 A"
b10000 m"
b101000100110010000000000000101 R
b101000100110010000000000000101 l"
b10100 @
b10100 j"
b10100 r"
b110 q"
b110 x"
b101 p"
b101 {"
1)
#55000
0)
#60000
b101 p
b101 v
b101 &"
b0 S
b0 D"
b0 I"
b0 S"
0;
xG
b11111 Y
b11111 E"
b11111 H"
b11111 R"
0W
x=
1U
b11001000010100000100011 Q
b11001000010100000100011 k"
b11001000010100000100011 t"
b11001000010100000100011 v"
b110 u"
b111 s"
b111 y"
b111 z"
b1100100001000000000001000000 O
b1100100001000000000001000000 C"
b1100100001000000000001000000 T"
b11001000010000000000010000 -"
b10000 -
b10000 <"
b10000 ["
b10000 ;"
b1 6"
b1 L"
b11001 5"
b11001 K"
b1 D
b1 0"
b1 V"
b1 /"
b1 F"
b10000 :"
b10000 9"
b10000 G"
b101 b
b101 {
b101 ~
b101 #"
b11000 @
b11000 j"
b11000 r"
b111 q"
b111 x"
b110 p"
b110 {"
b10100 A
b10100 2"
b10100 W"
b10100 B
b10100 A"
b10100 m"
b111001000010000000000010000 R
b111001000010000000000010000 l"
b101 .
b101 c
b101 |
b101 g"
b1010 C
b1010 i
b1010 b"
b10011001000000000000010100 ^
b10011001000000000000010100 P
b10011001000000000000010100 l
b10011001000000000000010100 `"
b10101 n
b10000 ?
b10000 h
b10000 c"
b0 ,
b0 a
b0 s
b0 h"
0:
b1 T
b1 m
b1 }
b1 _"
0<
b1100 Z
b1100 r
b1100 u
b1100 ^"
b1 $"
1X
0>
1)
#65000
0)
#70000
1f
b0 q
b0 w
b0 p
b0 v
b0 &"
19
b0x S
b0x D"
b0x I"
b0x S"
1;
0G
b11 Y
b11 E"
b11 H"
b11 R"
1=
0U
b10000 b
b10000 {
b10000 ~
b10000 #"
b1100100001010000010001100 O
b1100100001010000010001100 C"
b1100100001010000010001100 T"
b11001000010100000100011 -"
b10100000100011 -
b10100000100011 <"
b10100000100011 ["
b10100000100011 ;"
b101 3"
b100 6"
b100 L"
b11 5"
b11 K"
b0 D
b0 0"
b0 V"
b0 /"
b0 F"
b100011 :"
b100011 9"
b100011 G"
b10101100000001010000000000010100 Q
b10101100000001010000000000010100 k"
b10101100000001010000000000010100 t"
b10101100000001010000000000010100 v"
b111 u"
b1000 s"
b1000 y"
b1000 z"
b10000 .
b10000 c
b10000 |
b10000 g"
b1 C
b1 i
b1 b"
b1100100001000000000001000000 ^
b1100100001000000000001000000 P
b1100100001000000000001000000 l
b1100100001000000000001000000 `"
b100100 n
b10100 ?
b10100 h
b10100 c"
b0 T
b0 m
b0 }
b0 _"
x<
xH
b11111 Z
b11111 r
b11111 u
b11111 ^"
b0 $"
0X
x>
1V
b11000 A
b11000 2"
b11000 W"
b11000 B
b11000 A"
b11000 m"
b11001000010100000100011 R
b11001000010100000100011 l"
b11100 @
b11100 j"
b11100 r"
b1000 q"
b1000 x"
b111 p"
b111 {"
1)
#75000
0)
#80000
09
b1 S
b1 D"
b1 I"
b1 S"
1E
0;
b1 Y
b1 E"
b1 H"
b1 R"
1W
x=
b101000100011000000100111 Q
b101000100011000000100111 k"
b101000100011000000100111 t"
b101000100011000000100111 v"
b1000 u"
b1001 s"
b1001 y"
b1001 z"
b101000000000001010000 O
b101000000000001010000 C"
b101000000000001010000 T"
b1010000000000010100 -"
b10100 -
b10100 <"
b10100 ["
b10100 ;"
b0 3"
b101 6"
b101 L"
b0 5"
b0 K"
b101011 D
b101011 0"
b101011 V"
b101011 /"
b101011 F"
b10100 :"
b10100 9"
b10100 G"
b100000 @
b100000 j"
b100000 r"
b1001 q"
b1001 x"
b1000 p"
b1000 {"
b11100 A
b11100 2"
b11100 W"
b11100 B
b11100 A"
b11100 m"
b10101100000001010000000000010100 R
b10101100000001010000000000010100 l"
b10100000100011 .
b10100000100011 c
b10100000100011 |
b10100000100011 g"
b0 C
b0 i
b0 b"
b1100100001010000010001100 ^
b1100100001010000010001100 P
b1100100001010000010001100 l
b1100100001010000010001100 `"
b101000 n
b11000 ?
b11000 h
b11000 c"
1:
b0x T
b0x m
b0x }
b0x _"
1<
0H
b11 Z
b11 r
b11 u
b11 ^"
1>
0V
1)
#85000
0)
#90000
0f
b10100 q
b10100 w
b10100 p
b10100 v
b10100 &"
19
b0x S
b0x D"
b0x I"
b0x S"
0E
1;
b1110 Y
b1110 E"
b1110 H"
b1110 R"
0W
1=
b10100 b
b10100 {
b10100 ~
b10100 #"
b10100010001100000010011100 O
b10100010001100000010011100 C"
b10100010001100000010011100 T"
b101000100011000000100111 -"
b11000000100111 -
b11000000100111 <"
b11000000100111 ["
b11000000100111 ;"
b110 3"
b10 6"
b10 L"
b101 5"
b101 K"
b0 D
b0 0"
b0 V"
b0 /"
b0 F"
b100111 :"
b100111 9"
b100111 G"
b110000110011100000100101 Q
b110000110011100000100101 k"
b110000110011100000100101 t"
b110000110011100000100101 v"
b1001 u"
b1010 s"
b1010 y"
b1010 z"
b10100 .
b10100 c
b10100 |
b10100 g"
b101011 C
b101011 i
b101011 b"
b101000000000001010000 ^
b101000000000001010000 P
b101000000000001010000 l
b101000000000001010000 `"
b110000 n
b11100 ?
b11100 h
b11100 c"
0:
b1 T
b1 m
b1 }
b1 _"
1F
x<
b1 Z
b1 r
b1 u
b1 ^"
b1 $"
1X
x>
b100000 A
b100000 2"
b100000 W"
b100000 B
b100000 A"
b100000 m"
b101000100011000000100111 R
b101000100011000000100111 l"
b100100 @
b100100 j"
b100100 r"
b1010 q"
b1010 x"
b1001 p"
b1001 {"
1)
#95000
0)
#100000
b0 p
b0 v
b0 &"
b101 Y
b101 E"
b101 H"
b101 R"
b111001100100000000100110 Q
b111001100100000000100110 k"
b111001100100000000100110 t"
b111001100100000000100110 v"
b1010 u"
b1011 s"
b1011 y"
b1011 z"
b11000011001110000010010100 O
b11000011001110000010010100 C"
b11000011001110000010010100 T"
b110000110011100000100101 -"
b11100000100101 -
b11100000100101 <"
b11100000100101 ["
b11100000100101 ;"
b111 3"
b11 6"
b11 L"
b110 5"
b110 K"
b100101 :"
b100101 9"
b100101 G"
1g
b11111111111111111111111111111111 q
b11111111111111111111111111111111 w
b101000 @
b101000 j"
b101000 r"
b1011 q"
b1011 x"
b1010 p"
b1010 {"
b100100 A
b100100 2"
b100100 W"
b100100 B
b100100 A"
b100100 m"
b110000110011100000100101 R
b110000110011100000100101 l"
b11000000100111 .
b11000000100111 c
b11000000100111 |
b11000000100111 g"
b0 C
b0 i
b0 b"
b10100010001100000010011100 ^
b10100010001100000010011100 P
b10100010001100000010011100 l
b10100010001100000010011100 `"
b110100 n
b100000 ?
b100000 h
b100000 c"
1:
b0x T
b0x m
b0x }
b0x _"
0F
1<
b1110 Z
b1110 r
b1110 u
b1110 ^"
b0 $"
0X
1>
1)
#105000
0)
#110000
b110 Y
b110 E"
b110 H"
b110 R"
0g
1f
b0 q
b0 w
b11100110010000000010011000 O
b11100110010000000010011000 C"
b11100110010000000010011000 T"
b111001100100000000100110 -"
b100000000100110 -
b100000000100110 <"
b100000000100110 ["
b100000000100110 ;"
b1000 3"
b110 6"
b110 L"
b111 5"
b111 K"
b100110 :"
b100110 9"
b100110 G"
b10101100000010000000000000011100 Q
b10101100000010000000000000011100 k"
b10101100000010000000000000011100 t"
b10101100000010000000000000011100 v"
b1011 u"
b1100 s"
b1100 y"
b1100 z"
b11100000100101 .
b11100000100101 c
b11100000100101 |
b11100000100101 g"
b11000011001110000010010100 ^
b11000011001110000010010100 P
b11000011001110000010010100 l
b11000011001110000010010100 `"
b111000 n
b100100 ?
b100100 h
b100100 c"
b101 Z
b101 r
b101 u
b101 ^"
b101000 A
b101000 2"
b101000 W"
b101000 B
b101000 A"
b101000 m"
b111001100100000000100110 R
b111001100100000000100110 l"
b101100 @
b101100 j"
b101100 r"
b1100 q"
b1100 x"
b1011 p"
b1011 {"
1)
#115000
0)
#120000
09
b1 S
b1 D"
b1 I"
b1 S"
1E
0;
b1 Y
b1 E"
b1 H"
b1 R"
1W
x=
b10001000000110000000000000010 Q
b10001000000110000000000000010 k"
b10001000000110000000000000010 t"
b10001000000110000000000000010 v"
b1100 u"
b1101 s"
b1101 y"
b1101 z"
b1000000000000001110000 O
b1000000000000001110000 C"
b1000000000000001110000 T"
b10000000000000011100 -"
b11100 -
b11100 <"
b11100 ["
b11100 ;"
b0 3"
b1000 6"
b1000 L"
b0 5"
b0 K"
b101011 D
b101011 0"
b101011 V"
b101011 /"
b101011 F"
b11100 :"
b11100 9"
b11100 G"
b110000 @
b110000 j"
b110000 r"
b1101 q"
b1101 x"
b1100 p"
b1100 {"
b101100 A
b101100 2"
b101100 W"
b101100 B
b101100 A"
b101100 m"
b10101100000010000000000000011100 R
b10101100000010000000000000011100 l"
b100000000100110 .
b100000000100110 c
b100000000100110 |
b100000000100110 g"
b11100110010000000010011000 ^
b11100110010000000010011000 P
b11100110010000000010011000 l
b11100110010000000010011000 `"
b111100 n
b101000 ?
b101000 h
b101000 c"
b110 Z
b110 r
b110 u
b110 ^"
1)
#125000
0)
#130000
0f
b11100 q
b11100 w
b11100 p
b11100 v
b11100 &"
b0x S
b0x D"
b0x I"
b0x S"
0E
xG
b10 Y
b10 E"
b10 H"
b10 R"
0W
1U
b11100 b
b11100 {
b11100 ~
b11100 #"
b100000011000000000000001000 O
b100000011000000000000001000 C"
b100000011000000000000001000 T"
b1000000110000000000000010 -"
b10 -
b10 <"
b10 ["
b10 ;"
b11 6"
b11 L"
b1000 5"
b1000 K"
b100 D
b100 0"
b100 V"
b100 /"
b100 F"
b10 :"
b10 9"
b10 G"
b110001110100100000101010 Q
b110001110100100000101010 k"
b110001110100100000101010 t"
b110001110100100000101010 v"
b1101 u"
b1110 s"
b1110 y"
b1110 z"
b11100 .
b11100 c
b11100 |
b11100 g"
b101011 C
b101011 i
b101011 b"
b1000000000000001110000 ^
b1000000000000001110000 P
b1000000000000001110000 l
b1000000000000001110000 `"
b1001000 n
b101100 ?
b101100 h
b101100 c"
0:
b1 T
b1 m
b1 }
b1 _"
1F
x<
b1 Z
b1 r
b1 u
b1 ^"
b1 $"
1X
x>
b110000 A
b110000 2"
b110000 W"
b110000 B
b110000 A"
b110000 m"
b10001000000110000000000000010 R
b10001000000110000000000000010 l"
b110100 @
b110100 j"
b110100 r"
b1110 q"
b1110 x"
b1101 p"
b1101 {"
1)
#135000
0)
