src/CPU_Wave.vcd
$date
	Tue Jun 13 10:39:38 2023
$end
$version
	Icarus Verilog
$end
$timescale
	1ps
$end
$scope module ExtUnit_NPC_206 $end
$var wire 1 ! ExtOp $end
$var wire 16 " in [15:0] $end
$var wire 30 # out [29:0] $end
$var reg 30 $ out_t [29:0] $end
$upscope $end
$scope module tb_PipeLine_CPU $end
$var reg 1 % clk $end
$var reg 1 & rst $end
$var integer 32 ' clk_num [31:0] $end
$var integer 32 ( fd [31:0] $end
$var integer 32 ) i [31:0] $end
$scope module u_PipeLine_CPU $end
$var wire 1 * BranchCtr_ID $end
$var wire 1 % clk $end
$var wire 1 + flush $end
$var wire 1 & rst $end
$var wire 5 , shamt_ID [4:0] $end
$var wire 5 - shamt_Ex [4:0] $end
$var wire 16 . imm16_ID [15:0] $end
$var wire 16 / imm16_Ex [15:0] $end
$var wire 32 0 busW [31:0] $end
$var wire 32 1 busB_out_Ex [31:0] $end
$var wire 32 2 busB_Mem [31:0] $end
$var wire 32 3 busB_ID [31:0] $end
$var wire 32 4 busB_Ex [31:0] $end
$var wire 2 5 busBSrc_ByPassing [1:0] $end
$var wire 32 6 busA_ID [31:0] $end
$var wire 32 7 busA_Ex [31:0] $end
$var wire 1 8 ZF_Mem $end
$var wire 1 9 ZF_Ex $end
$var wire 1 : WrByte_Mem $end
$var wire 1 ; WrByte_ID $end
$var wire 1 < WrByte_Ex $end
$var wire 1 = Sign_Mem $end
$var wire 1 > Sign_Ex $end
$var wire 1 ? Rtype_L_Wr $end
$var wire 1 @ Rtype_L_Mem $end
$var wire 1 A Rtype_L_ID $end
$var wire 1 B Rtype_L_Ex $end
$var wire 1 C Rtype_J_Mem $end
$var wire 1 D Rtype_J_ID $end
$var wire 1 E Rtype_J_Ex $end
$var wire 1 F Rtype_ID $end
$var wire 1 G Rtype_Ex $end
$var wire 5 H Rt_out_ID [4:0] $end
$var wire 5 I Rt_Mem [4:0] $end
$var wire 5 J Rt_Ex [4:0] $end
$var wire 5 K Rs_out_ID [4:0] $end
$var wire 5 L Rs_Ex [4:0] $end
$var wire 5 M Reg_Target_out_Mem [4:0] $end
$var wire 5 N Reg_Target_Wr [4:0] $end
$var wire 5 O Reg_Target_Mem [4:0] $end
$var wire 5 P Reg_Target_Ex [4:0] $end
$var wire 1 Q RegWr_Wr $end
$var wire 1 R RegWr_Mem $end
$var wire 1 S RegWr_ID $end
$var wire 1 T RegWr_Ex $end
$var wire 1 U RegDst_ID $end
$var wire 1 V RegDst_Ex $end
$var wire 5 W Rd_out_ID [4:0] $end
$var wire 5 X Rd_Ex [4:0] $end
$var wire 32 Y PC_Addr_out_ID [31:0] $end
$var wire 32 Z PC_Addr_out_Ex [31:0] $end
$var wire 32 [ PC_Addr_Wr [31:0] $end
$var wire 32 \ PC_Addr_Mem [31:0] $end
$var wire 32 ] PC_Addr_IF [31:0] $end
$var wire 32 ^ PC_Addr_ID [31:0] $end
$var wire 6 _ OP_out_Ex [5:0] $end
$var wire 6 ` OP_Mem [5:0] $end
$var wire 6 a OP_ID [5:0] $end
$var wire 1 b OF_Mem $end
$var wire 1 c OF_Ex $end
$var wire 32 d Mem_Data_out_Mem [31:0] $end
$var wire 32 e Mem_Data_Wr [31:0] $end
$var wire 1 f MemWr_Mem $end
$var wire 1 g MemWr_ID $end
$var wire 1 h MemWr_Ex $end
$var wire 1 i MemToReg_Wr $end
$var wire 1 j MemToReg_Mem $end
$var wire 1 k MemToReg_ID $end
$var wire 1 l MemToReg_Ex $end
$var wire 1 m Load_Use $end
$var wire 2 n LoadByte_Mem [1:0] $end
$var wire 2 o LoadByte_ID [1:0] $end
$var wire 2 p LoadByte_Ex [1:0] $end
$var wire 1 q Jump_Mem $end
$var wire 1 r Jump_ID $end
$var wire 1 s Jump_Ex $end
$var wire 1 t Jal_Wr $end
$var wire 1 u Jal_Mem $end
$var wire 1 v Jal_ID $end
$var wire 1 w Jal_Ex $end
$var wire 32 x J_Addr_out_Mem [31:0] $end
$var wire 32 y J_Addr_out_Ex [31:0] $end
$var wire 32 z J_Addr_Mem [31:0] $end
$var wire 32 { J_Addr_ID [31:0] $end
$var wire 32 | J_Addr_Ex [31:0] $end
$var wire 32 } Instruction_IF [31:0] $end
$var wire 32 ~ Instruction_ID [31:0] $end
$var wire 2 !" ExtOp_ID [1:0] $end
$var wire 2 "" ExtOp_Ex [1:0] $end
$var wire 1 #" Branch_Mem $end
$var wire 1 $" Branch_ID $end
$var wire 1 %" Branch_Ex $end
$var wire 1 &" BranchPredict_fault $end
$var wire 1 '" BranchPredict_Mem $end
$var wire 1 (" BranchPredict_IF $end
$var wire 1 )" BranchPredict_ID $end
$var wire 1 *" BranchPredict_Ex $end
$var wire 1 +" BranchCtr_Mem $end
$var wire 32 ," B_J_Addr_PC [31:0] $end
$var wire 32 -" B_J_Addr [31:0] $end
$var wire 32 ." B_Amendment_Addr [31:0] $end
$var wire 32 /" B_Addr_Mem [31:0] $end
$var wire 32 0" B_Addr_IF [31:0] $end
$var wire 32 1" B_Addr_Ex [31:0] $end
$var wire 32 2" ALU_ans_out_Mem [31:0] $end
$var wire 32 3" ALU_ans_Wr [31:0] $end
$var wire 32 4" ALU_ans_Mem [31:0] $end
$var wire 32 5" ALU_ans_Ex [31:0] $end
$var wire 1 6" ALUSrc_ID $end
$var wire 1 7" ALUSrc_Ex $end
$var wire 2 8" ALUSrcB_ByPassing [1:0] $end
$var wire 2 9" ALUSrcA_ByPassing [1:0] $end
$var wire 5 :" ALUCtr_ID [4:0] $end
$var wire 5 ;" ALUCtr_Ex [4:0] $end
$scope module BranchPredict_Unit $end
$var wire 1 % clk $end
$var wire 32 <" PC_Addr_Mem [31:0] $end
$var wire 32 =" PC_Addr_IF [31:0] $end
$var wire 1 '" BranchPredict_Mem $end
$var wire 1 +" BranchCtr_Mem $end
$var reg 1 (" BranchPredict_IF $end
$var reg 1 &" BranchPredict_fault $end
$var integer 32 >" i [31:0] $end
$scope begin CHANGE_STATUS $end
$upscope $end
$scope begin FIND_ADDR_ID $end
$upscope $end
$scope begin FIND_ADDR_IF $end
$upscope $end
$upscope $end
$scope module Ex_Mem $end
$var wire 1 % clk $end
$var wire 1 + flush $end
$var wire 32 ?" busB_Ex [31:0] $end
$var wire 1 9 ZF_Ex $end
$var wire 1 < WrByte_Ex $end
$var wire 1 > Sign_Ex $end
$var wire 1 B Rtype_L_Ex $end
$var wire 1 E Rtype_J_Ex $end
$var wire 5 @" Rt_Ex [4:0] $end
$var wire 5 A" Reg_Target_Ex [4:0] $end
$var wire 1 T RegWr_Ex $end
$var wire 32 B" PC_Addr_Ex [31:0] $end
$var wire 6 C" OP_Ex [5:0] $end
$var wire 1 c OF_Ex $end
$var wire 1 h MemWr_Ex $end
$var wire 1 l MemToReg_Ex $end
$var wire 2 D" LoadByte_Ex [1:0] $end
$var wire 1 s Jump_Ex $end
$var wire 1 w Jal_Ex $end
$var wire 32 E" J_Addr_Ex [31:0] $end
$var wire 1 %" Branch_Ex $end
$var wire 1 *" BranchPredict_Ex $end
$var wire 32 F" B_Addr_Ex [31:0] $end
$var wire 32 G" ALU_ans_Ex [31:0] $end
$var reg 32 H" ALU_ans_Mem [31:0] $end
$var reg 32 I" B_Addr_Mem [31:0] $end
$var reg 1 '" BranchPredict_Mem $end
$var reg 1 #" Branch_Mem $end
$var reg 32 J" J_Addr_Mem [31:0] $end
$var reg 1 u Jal_Mem $end
$var reg 1 q Jump_Mem $end
$var reg 2 K" LoadByte_Mem [1:0] $end
$var reg 1 j MemToReg_Mem $end
$var reg 1 f MemWr_Mem $end
$var reg 1 b OF_Mem $end
$var reg 6 L" OP_Mem [5:0] $end
$var reg 32 M" PC_Addr_Mem [31:0] $end
$var reg 1 R RegWr_Mem $end
$var reg 5 N" Reg_Target_Mem [4:0] $end
$var reg 5 O" Rt_Mem [4:0] $end
$var reg 1 C Rtype_J_Mem $end
$var reg 1 @ Rtype_L_Mem $end
$var reg 1 = Sign_Mem $end
$var reg 1 : WrByte_Mem $end
$var reg 1 8 ZF_Mem $end
$var reg 32 P" busB_Mem [31:0] $end
$upscope $end
$scope module ExecUnit $end
$var wire 32 Q" Ex_Mem_ByPassing_A [31:0] $end
$var wire 32 R" Ex_Mem_ByPassing_B [31:0] $end
$var wire 32 S" J_Addr_out_Ex [31:0] $end
$var wire 5 T" shamt_Ex [4:0] $end
$var wire 32 U" imm_16_Ext [31:0] $end
$var wire 16 V" imm16_Ex [15:0] $end
$var wire 32 W" busB_out_Ex [31:0] $end
$var wire 32 X" busB_Ex [31:0] $end
$var wire 2 Y" busBSrc_ByPassing [1:0] $end
$var wire 32 Z" busA_Ex [31:0] $end
$var wire 1 9 ZF_Ex $end
$var wire 1 < WrByte_Ex $end
$var wire 1 > Sign_Ex $end
$var wire 1 B Rtype_L_Ex $end
$var wire 1 E Rtype_J_Ex $end
$var wire 5 [" Rt_Ex [4:0] $end
$var wire 5 \" Reg_Target_Ex [4:0] $end
$var wire 1 T RegWr_Ex $end
$var wire 1 V RegDst_Ex $end
$var wire 5 ]" Rd_Ex [4:0] $end
$var wire 32 ^" PC_Addr_Ex [31:0] $end
$var wire 6 _" OP_Ex [5:0] $end
$var wire 1 c OF_Ex $end
$var wire 32 `" Mem_Wr_ByPassing_B [31:0] $end
$var wire 32 a" Mem_Wr_ByPassing_A [31:0] $end
$var wire 1 h MemWr_Ex $end
$var wire 1 l MemToReg_Ex $end
$var wire 2 b" LoadByte_Ex [1:0] $end
$var wire 1 s Jump_Ex $end
$var wire 1 w Jal_Ex $end
$var wire 32 c" J_Addr_Ex [31:0] $end
$var wire 2 d" ExtOp_Ex [1:0] $end
$var wire 1 %" Branch_Ex $end
$var wire 32 e" B_Addr_Ex [31:0] $end
$var wire 32 f" ALU_input_B [31:0] $end
$var wire 32 g" ALU_input_A [31:0] $end
$var wire 32 h" ALU_ans_Ex [31:0] $end
$var wire 1 7" ALUSrc_Ex $end
$var wire 2 i" ALUSrcB_ByPassing [1:0] $end
$var wire 2 j" ALUSrcA_ByPassing [1:0] $end
$var wire 5 k" ALUCtr_Ex [4:0] $end
$scope module ALU $end
$var wire 5 l" shamt [4:0] $end
$var wire 32 m" B [31:0] $end
$var wire 5 n" ALUCtr [4:0] $end
$var wire 32 o" A [31:0] $end
$var reg 1 c OverFlow $end
$var reg 1 > Sign $end
$var reg 1 9 Zero $end
$var reg 32 p" result [31:0] $end
$var reg 33 q" temp [32:0] $end
$var integer 32 r" t1 [31:0] $end
$var integer 32 s" t2 [31:0] $end
$upscope $end
$scope module ExtUnit_Ex $end
$var wire 32 t" out [31:0] $end
$var wire 16 u" in [15:0] $end
$var wire 2 v" ExtOp [1:0] $end
$var reg 32 w" out_t [31:0] $end
$upscope $end
$scope module MUX_ALUSrc_A $end
$var wire 32 x" B [31:0] $end
$var wire 32 y" C [31:0] $end
$var wire 2 z" S [1:0] $end
$var wire 32 {" D [31:0] $end
$var wire 32 |" A [31:0] $end
$var reg 32 }" Y [31:0] $end
$upscope $end
$scope module MUX_ALUSrc_B $end
$var wire 32 ~" B [31:0] $end
$var wire 32 !# C [31:0] $end
$var wire 2 "# S [1:0] $end
$var wire 32 ## D [31:0] $end
$var wire 32 $# A [31:0] $end
$var reg 32 %# Y [31:0] $end
$upscope $end
$scope module MUX_busB $end
$var wire 32 &# B [31:0] $end
$var wire 32 '# C [31:0] $end
$var wire 2 (# S [1:0] $end
$var wire 32 )# D [31:0] $end
$var wire 32 *# A [31:0] $end
$var reg 32 +# Y [31:0] $end
$upscope $end
$upscope $end
$scope module ForwardingUnit $end
$var wire 5 ,# RegTarget_EX_Mem [4:0] $end
$var wire 1 R RegWr_Ex_Mem $end
$var wire 5 -# Rt_ID_EX [4:0] $end
$var wire 5 .# Rs_ID_EX [4:0] $end
$var wire 1 Q RegWr_Mem_Wr $end
$var wire 5 /# RegTarget_Mem_Wr [4:0] $end
$var wire 1 h MemWr_ID_EX $end
$var wire 1 7" ALUSrc_ID_Ex $end
$var reg 2 0# ALU_Src_A [1:0] $end
$var reg 2 1# ALU_Src_B [1:0] $end
$var reg 2 2# busBSrc [1:0] $end
$upscope $end
$scope module IDUnit $end
$var wire 1 * BranchCtr_ID $end
$var wire 26 3# J_Target_ID [25:0] $end
$var wire 6 4# OP_ID [5:0] $end
$var wire 6 5# OP_out_ID [5:0] $end
$var wire 1 6# OverFlow_Wr $end
$var wire 32 7# PC_Addr_out_ID [31:0] $end
$var wire 5 8# Rd_ID [4:0] $end
$var wire 5 9# Rd_out_ID [4:0] $end
$var wire 5 :# Rs_ID [4:0] $end
$var wire 5 ;# Rs_out_ID [4:0] $end
$var wire 5 <# Rt_ID [4:0] $end
$var wire 5 =# Rt_out_ID [4:0] $end
$var wire 1 % clk $end
$var wire 6 ># func_ID [5:0] $end
$var wire 6 ?# func_out_ID [5:0] $end
$var wire 16 @# imm16_ID [15:0] $end
$var wire 16 A# imm16_out_ID [15:0] $end
$var wire 5 B# shamt_ID [4:0] $end
$var wire 5 C# shamt_out_ID [4:0] $end
$var wire 32 D# busW [31:0] $end
$var wire 32 E# busB_ID [31:0] $end
$var wire 32 F# busA_ID [31:0] $end
$var wire 1 ; WrByte_ID $end
$var wire 5 G# Rw_Wr [4:0] $end
$var wire 1 A Rtype_L_ID $end
$var wire 1 D Rtype_J_ID $end
$var wire 1 F Rtype_ID $end
$var wire 1 Q RegWr_Wr $end
$var wire 1 S RegWr_ID $end
$var wire 1 U RegDst_ID $end
$var wire 32 H# PC_Addr_ID [31:0] $end
$var wire 1 g MemWr_ID $end
$var wire 1 k MemToReg_ID $end
$var wire 2 I# LoadByte_ID [1:0] $end
$var wire 1 r Jump_ID $end
$var wire 1 t Jal_Wr $end
$var wire 1 v Jal_ID $end
$var wire 32 J# J_Addr_ID [31:0] $end
$var wire 2 K# ExtOp_ID [1:0] $end
$var wire 1 $" Branch_ID $end
$var wire 1 6" ALUSrc_ID $end
$var wire 5 L# ALUCtr_ID [4:0] $end
$scope module ControlUnit $end
$var wire 6 M# OP [5:0] $end
$var wire 6 N# func [5:0] $end
$var reg 5 O# ALUCtr [4:0] $end
$var reg 1 6" ALUSrc $end
$var reg 1 $" Branch $end
$var reg 2 P# ExtOp [1:0] $end
$var reg 1 v Jal $end
$var reg 1 r Jump $end
$var reg 2 Q# LoadByte [1:0] $end
$var reg 1 k MemToReg $end
$var reg 1 g MemWr $end
$var reg 1 U RegDst $end
$var reg 1 S RegWr $end
$var reg 1 F Rtype $end
$var reg 1 D Rtype_J $end
$var reg 1 A Rtype_L $end
$var reg 1 ; WrByte $end
$upscope $end
$scope module Regfile $end
$var wire 5 R# Ra [4:0] $end
$var wire 5 S# Rb [4:0] $end
$var wire 1 T# WrEn $end
$var wire 1 % clk $end
$var wire 32 U# busW [31:0] $end
$var wire 5 V# Rw [4:0] $end
$var wire 1 t Jal $end
$var reg 32 W# busA [31:0] $end
$var reg 32 X# busB [31:0] $end
$upscope $end
$upscope $end
$scope module ID_EX $end
$var wire 5 Y# ALUCtr_ID [4:0] $end
$var wire 1 6" ALUSrc_ID $end
$var wire 1 $" Branch_ID $end
$var wire 2 Z# ExtOp_ID [1:0] $end
$var wire 32 [# J_Addr_ID [31:0] $end
$var wire 1 v Jal_ID $end
$var wire 1 r Jump_ID $end
$var wire 2 \# LoadByte_ID [1:0] $end
$var wire 1 k MemToReg_ID $end
$var wire 1 g MemWr_ID $end
$var wire 6 ]# OP_out_ID [5:0] $end
$var wire 32 ^# PC_Addr_out_ID [31:0] $end
$var wire 5 _# Rd_ID [4:0] $end
$var wire 1 U RegDst_ID $end
$var wire 1 S RegWr_ID $end
$var wire 5 `# Rs_ID [4:0] $end
$var wire 5 a# Rt_ID [4:0] $end
$var wire 1 F Rtype_ID $end
$var wire 1 D Rtype_J_ID $end
$var wire 1 A Rtype_L_ID $end
$var wire 1 ; WrByte_ID $end
$var wire 32 b# busA_ID [31:0] $end
$var wire 32 c# busB_ID [31:0] $end
$var wire 1 % clk $end
$var wire 1 d# flush $end
$var wire 6 e# func_out_ID [5:0] $end
$var wire 16 f# imm16_ID [15:0] $end
$var wire 5 g# shamt_ID [4:0] $end
$var wire 1 h# stall $end
$var wire 1 )" BranchPredict_ID $end
$var reg 5 i# ALUCtr_Ex [4:0] $end
$var reg 1 7" ALUSrc_Ex $end
$var reg 1 *" BranchPredict_Ex $end
$var reg 1 %" Branch_Ex $end
$var reg 2 j# ExtOp_Ex [1:0] $end
$var reg 32 k# J_Addr_Ex [31:0] $end
$var reg 1 w Jal_Ex $end
$var reg 1 s Jump_Ex $end
$var reg 2 l# LoadByte_Ex [1:0] $end
$var reg 1 l MemToReg_Ex $end
$var reg 1 h MemWr_Ex $end
$var reg 6 m# OP_out_Ex [5:0] $end
$var reg 32 n# PC_Addr_out_Ex [31:0] $end
$var reg 5 o# Rd_Ex [4:0] $end
$var reg 1 V RegDst_Ex $end
$var reg 1 T RegWr_Ex $end
$var reg 5 p# Rs_Ex [4:0] $end
$var reg 5 q# Rt_Ex [4:0] $end
$var reg 1 G Rtype_Ex $end
$var reg 1 E Rtype_J_Ex $end
$var reg 1 B Rtype_L_Ex $end
$var reg 1 < WrByte_Ex $end
$var reg 32 r# busA_Ex [31:0] $end
$var reg 32 s# busB_Ex [31:0] $end
$var reg 6 t# func_out_Ex [5:0] $end
$var reg 16 u# imm16_Ex [15:0] $end
$var reg 5 v# shamt_Ex [4:0] $end
$upscope $end
$scope module IF_ID $end
$var wire 1 (" BranchPredict_IF $end
$var wire 1 % clk $end
$var wire 1 + flush $end
$var wire 1 m stall $end
$var wire 32 w# PC_Addr_IF [31:0] $end
$var wire 32 x# Instruction_IF [31:0] $end
$var reg 1 )" BranchPredict_ID $end
$var reg 32 y# Instruction_ID [31:0] $end
$var reg 32 z# PC_Addr_ID [31:0] $end
$upscope $end
$scope module IUnit $end
$var wire 1 {# PC_Src $end
$var wire 30 |# Target_PC_Addr [31:2] $end
$var wire 1 % clk $end
$var wire 1 & rst $end
$var wire 1 m stall $end
$var wire 30 }# PC_out [31:2] $end
$var wire 30 ~# PC_Plus_4 [31:2] $end
$var wire 32 !$ PC_Addr [31:0] $end
$var wire 30 "$ PCSrc_MUX_out [31:2] $end
$var wire 32 #$ Instruction [31:0] $end
$var wire 32 $$ B_imm16_ext [31:0] $end
$var wire 16 %$ B_imm16 [15:0] $end
$var wire 32 &$ B_Addr_IF [31:0] $end
$scope module Ext_B_imm16 $end
$var wire 2 '$ ExtOp [1:0] $end
$var wire 16 ($ in [15:0] $end
$var wire 32 )$ out [31:0] $end
$var reg 32 *$ out_t [31:0] $end
$upscope $end
$scope module IM $end
$var wire 10 +$ Addr [11:2] $end
$var wire 32 ,$ Dout [31:0] $end
$upscope $end
$scope module MUX_PCSrc $end
$var wire 30 -$ A [29:0] $end
$var wire 30 .$ B [29:0] $end
$var wire 1 /$ S $end
$var wire 30 0$ Y [29:0] $end
$upscope $end
$scope module PC $end
$var wire 30 1$ Next_I_Addr [31:2] $end
$var wire 1 % clk $end
$var wire 1 & rst $end
$var wire 1 m stall $end
$var reg 30 2$ I_Addr [31:2] $end
$upscope $end
$upscope $end
$scope module LoadUseUnit $end
$var wire 1 m Load_Use $end
$var wire 1 l MemToReg_ID_Ex $end
$var wire 5 3$ Rs_IF_ID [4:0] $end
$var wire 5 4$ Rt_ID_EX [4:0] $end
$var wire 5 5$ Rt_IF_ID [4:0] $end
$upscope $end
$scope module MUX_BranchPredict_B_J $end
$var wire 32 6$ B [31:0] $end
$var wire 1 7$ S $end
$var wire 32 8$ Y [31:0] $end
$var wire 32 9$ A [31:0] $end
$upscope $end
$scope module MUX_Branch_Amendment_Addr $end
$var wire 32 :$ A [31:0] $end
$var wire 32 ;$ B [31:0] $end
$var wire 1 '" S $end
$var wire 32 <$ Y [31:0] $end
$upscope $end
$scope module MUX_Branch_Amendment_Jump $end
$var wire 32 =$ B [31:0] $end
$var wire 1 >$ S $end
$var wire 32 ?$ Y [31:0] $end
$var wire 32 @$ A [31:0] $end
$upscope $end
$scope module MemUnit $end
$var wire 32 A$ ALU_ans_Mem [31:0] $end
$var wire 32 B$ ALU_ans_out_Mem [31:0] $end
$var wire 1 #" Branch_Mem $end
$var wire 32 C$ J_Addr_Mem [31:0] $end
$var wire 1 u Jal_Mem $end
$var wire 2 D$ LoadByte_Mem [1:0] $end
$var wire 1 j MemToReg_Mem $end
$var wire 1 f MemWr_Mem $end
$var wire 1 b OF_Mem $end
$var wire 6 E$ OP_Mem [5:0] $end
$var wire 32 F$ PC_Addr_Mem [31:0] $end
$var wire 1 R RegWr_Mem $end
$var wire 5 G$ Reg_Target_Mem [4:0] $end
$var wire 5 H$ Reg_Target_out_Mem [4:0] $end
$var wire 5 I$ Rt_Mem [4:0] $end
$var wire 1 C Rtype_J_Mem $end
$var wire 1 @ Rtype_L_Mem $end
$var wire 1 = Sign_Mem $end
$var wire 1 : WrByte_Mem $end
$var wire 1 8 ZF_Mem $end
$var wire 32 J$ busB_Mem [31:0] $end
$var wire 1 % clk $end
$var wire 32 K$ Word_Data_out [31:0] $end
$var wire 32 L$ Mem_Data_out [31:0] $end
$var wire 32 M$ J_Addr_out_Mem [31:0] $end
$var wire 8 N$ Byte_Data_out [7:0] $end
$var wire 32 O$ Byte_Data_ext [31:0] $end
$var wire 1 +" BranchCtr_Mem $end
$scope module Branch_Control_Unit $end
$var wire 1 #" Branch $end
$var wire 5 P$ BranchFlag [4:0] $end
$var wire 6 Q$ OP [5:0] $end
$var wire 1 b OverFlow $end
$var wire 1 = Sign $end
$var wire 1 8 Zero $end
$var reg 1 +" BranchCtr $end
$upscope $end
$scope module DM_4K $end
$var wire 12 R$ Addr [11:0] $end
$var wire 8 S$ ByteDout [7:0] $end
$var wire 32 T$ Din [31:0] $end
$var wire 1 : WrByte $end
$var wire 1 f WrEn $end
$var wire 1 % clk $end
$var wire 32 U$ Dout [31:0] $end
$upscope $end
$scope module Ext_Byte $end
$var wire 1 V$ ExtOp $end
$var wire 8 W$ in [7:0] $end
$var wire 32 X$ out [31:0] $end
$var reg 32 Y$ out_t [31:0] $end
$upscope $end
$scope module MUX_Byte_Word $end
$var wire 32 Z$ A [31:0] $end
$var wire 32 [$ B [31:0] $end
$var wire 1 \$ S $end
$var wire 32 ]$ Y [31:0] $end
$upscope $end
$upscope $end
$scope module Mem_Wr $end
$var wire 32 ^$ ALU_ans_Mem [31:0] $end
$var wire 1 u Jal_Mem $end
$var wire 1 j MemToReg_Mem $end
$var wire 32 _$ Mem_Data_Mem [31:0] $end
$var wire 32 `$ PC_Addr_Mem [31:0] $end
$var wire 1 R RegWr_Mem $end
$var wire 5 a$ Reg_Target_Mem [4:0] $end
$var wire 1 @ Rtype_L_Mem $end
$var wire 1 % clk $end
$var reg 32 b$ ALU_ans_Wr [31:0] $end
$var reg 1 t Jal_Wr $end
$var reg 1 i MemToReg_Wr $end
$var reg 32 c$ Mem_Data_Wr [31:0] $end
$var reg 32 d$ PC_Addr_Wr [31:0] $end
$var reg 1 Q RegWr_Wr $end
$var reg 5 e$ Reg_Target_Wr [4:0] $end
$var reg 1 ? Rtype_L_Wr $end
$upscope $end
$scope module WrUnit $end
$var wire 32 f$ ALU_ans_Wr [31:0] $end
$var wire 1 t Jal_Wr $end
$var wire 1 i MemToReg_Wr $end
$var wire 32 g$ Mem_Data_Wr [31:0] $end
$var wire 32 h$ PC_Addr_Wr [31:0] $end
$var wire 1 ? Rtype_L_Wr $end
$var wire 32 i$ busW_Wr [31:0] $end
$var wire 32 j$ MUX_1_data [31:0] $end
$scope module MUX_ALU_Memory $end
$var wire 32 k$ A [31:0] $end
$var wire 32 l$ B [31:0] $end
$var wire 1 i S $end
$var wire 32 m$ Y [31:0] $end
$upscope $end
$scope module MUX_data_PCAddr $end
$var wire 32 n$ A [31:0] $end
$var wire 32 o$ B [31:0] $end
$var wire 1 p$ S $end
$var wire 32 q$ Y [31:0] $end
$upscope $end
$upscope $end
$upscope $end
$upscope $end
$enddefinitions $end
#0
$dumpvars
bx q$
xp$
bx o$
bx n$
bx m$
bx l$
bx k$
bx j$
bx i$
bx h$
bx g$
bx f$
bx e$
bx d$
bx c$
bx b$
bx a$
bx `$
bx _$
bx ^$
bx ]$
x\$
bx [$
bx Z$
bx Y$
bx X$
bx W$
xV$
bx U$
bx T$
bx S$
bx R$
bx Q$
bx P$
bx O$
bx N$
bx M$
bx L$
bx K$
bx J$
bx I$
bx H$
bx G$
bx F$
bx E$
bx D$
bx C$
bx B$
bx A$
bx @$
bx ?$
x>$
bx =$
bx <$
bx ;$
bx :$
bx 9$
bx 8$
x7$
b100 6$
bx 5$
bx 4$
bx 3$
b0 2$
b1 1$
b1 0$
0/$
b1 .$
bx -$
b100100000000010000000000000001 ,$
b0 +$
b1 *$
b1 )$
b1 ($
b1 '$
b100 &$
b1 %$
b1 $$
b100100000000010000000000000001 #$
b1 "$
b0 !$
b1 ~#
b0 }#
bx |#
x{#
bx00 z#
bx y#
b100100000000010000000000000001 x#
b0 w#
bx v#
bx u#
bz t#
bx s#
bx r#
bx q#
bx p#
bx o#
bx n#
bx m#
bx l#
bx00 k#
bx j#
bx i#
0h#
bx g#
bx f#
bz e#
xd#
bx c#
bx b#
bx a#
bx `#
bx _#
bx00 ^#
bx ]#
bx \#
bx00 [#
bx Z#
bx Y#
bx X#
bx W#
bx V#
bx U#
xT#
bx S#
bx R#
bx Q#
bx P#
bx O#
bx N#
bx M#
bx L#
bx K#
bx00 J#
bx I#
bx00 H#
bx G#
bx F#
bx E#
bx D#
bx C#
bx B#
bx A#
bx @#
bx ?#
bx >#
bx =#
bx <#
bx ;#
bx :#
bx 9#
bx 8#
bx00 7#
06#
bx 5#
bx 4#
bx 3#
bx 2#
bx 1#
bx 0#
bx /#
bx .#
bx -#
bx ,#
bx +#
bx *#
bx )#
bx (#
bz '#
bx &#
bx %#
bx $#
bx ##
bx "#
bx !#
bx ~"
bx }"
bx |"
bx {"
bx z"
bz y"
bx x"
bx w"
bx v"
bx u"
bx t"
bx s"
bx r"
bx q"
bx p"
bx o"
bx n"
bx m"
bx l"
bx k"
bx j"
bx i"
bx h"
bx g"
bx f"
bx e"
bx d"
bx00 c"
bx b"
bx a"
bx `"
bx _"
bx ^"
bx ]"
bx \"
bx ["
bx Z"
bx Y"
bx X"
bx W"
bx V"
bx U"
bx T"
bx00 S"
bx R"
bx Q"
bx P"
bx O"
bx N"
bx M"
bx L"
bx K"
bx J"
bx I"
bx H"
bx G"
bx F"
bx00 E"
bx D"
bx C"
bx B"
bx A"
bx @"
bx ?"
b111 >"
b0 ="
bx <"
bx ;"
bx :"
bx 9"
bx 8"
x7"
x6"
bx 5"
bx 4"
bx 3"
bx 2"
bx 1"
b100 0"
bx /"
bx ."
bx -"
bx ,"
0+"
x*"
x)"
x("
x'"
0&"
x%"
x$"
x#"
bx ""
bx !"
bx ~
b100100000000010000000000000001 }
bx00 |
bx00 {
bx z
bx00 y
bx x
xw
xv
xu
xt
xs
xr
xq
bx p
bx o
bx n
xm
xl
xk
xj
xi
xh
xg
xf
bx e
bx d
0c
0b
bx a
bx `
bx _
bx00 ^
b0 ]
bx \
bx [
bx Z
bx00 Y
bx X
bx W
xV
xU
xT
xS
xR
xQ
bx P
bx O
bx N
bx M
bx L
bx K
bx J
bx I
bx H
xG
xF
xE
xD
xC
xB
xA
x@
x?
x>
x=
x<
x;
x:
09
08
bx 7
bx 6
bx 5
bx 4
bx 3
bx 2
bx 1
bx 0
bx /
bx .
bx -
bx ,
x+
z*
b0 )
b10000000000000000000000000000011 (
b0 '
1&
1%
bx $
bx #
bz "
z!
$end
#1000
0("
b10000000000 >"
#5000
0&
0%
#6000
b111 >"
#7000
b100000 )
b1 '
#10000
0m
b1000100000000 $$
b1000100000000 )$
b1000100000000 *$
b0 o
b0 I#
b0 Q#
b0 \#
0;
0A
0D
0v
0F
b1 !"
b1 K#
b1 P#
b1 Z#
0g
1S
0k
b1 :"
b1 L#
b1 O#
b1 Y#
16"
0U
0r
0$"
b1000100000000 %$
b1000100000000 ($
b1000000000000000100 {
b1000000000000000100 J#
b1000000000000000100 [#
b10000000000000001 3#
b1 .
b1 A#
b1 f#
b1 @#
b0 ,
b0 C#
b0 g#
b0 B#
b0 W
b0 9#
b0 _#
b0 8#
b1 H
b1 =#
b1 a#
b1 5$
b1 <#
b1 S#
b0 K
b0 ;#
b0 `#
b0 3$
b0 :#
b0 R#
b1001 a
b1001 5#
b1001 ]#
b1001 4#
b1001 M#
b1 ?#
b1 >#
b1 N#
b10001000100000000 }
b10001000100000000 x#
b10001000100000000 #$
b10001000100000000 ,$
b1 +$
b10 "$
b10 0$
b10 1$
bx00 z
bx00 J"
bx00 C$
bx00 Z
bx00 B"
bx00 ^"
bx00 n#
0)"
b0 Y
b0 7#
b0 ^#
b0 ^
b0 H#
b0 z#
b100100000000010000000000000001 ~
b100100000000010000000000000001 y#
b100010000000100 0"
b100010000000100 &$
b100010000000100 6$
b100 ]
b100 ="
b100 w#
b100 !$
b10 ~#
b10 .$
b1 }#
b1 2$
1%
#11000
b10000000000 >"
#15000
0%
#16000
b0 3
b0 E#
b0 X#
b0 c#
b0 6
b0 F#
b0 W#
b0 b#
b111 >"
#17000
b100000 )
b10 '
