src/CPU_Wave.vcd
$date
	Thu Jun 08 10:32:00 2023
$end
$version
	Icarus Verilog
$end
$timescale
	1ps
$end
$scope module tb_PipeLine_CPU $end
$var reg 1 ! clk $end
$var reg 1 " rst $end
$scope module u_PipeLine_CPU $end
$var wire 1 ! clk $end
$var wire 1 " rst $end
$var wire 32 # PC_Addr_IF [31:0] $end
$var wire 32 $ PC_Addr_ID [31:0] $end
$var wire 32 % Instruction_IF [31:0] $end
$var wire 32 & Instruction_ID [31:0] $end
$scope module IDUnit $end
$var wire 26 ' J_Target [25:0] $end
$var wire 1 ( Jal_Wr $end
$var wire 6 ) OP [5:0] $end
$var wire 6 * OP_out [5:0] $end
$var wire 1 + OverFlow_Wr $end
$var wire 32 , PC_Addr_out [31:0] $end
$var wire 5 - Rd [4:0] $end
$var wire 1 . RegWr_Wr $end
$var wire 5 / Rs [4:0] $end
$var wire 5 0 Rt [4:0] $end
$var wire 5 1 Rw_Wr [4:0] $end
$var wire 32 2 busW [31:0] $end
$var wire 1 ! clk $end
$var wire 6 3 func [5:0] $end
$var wire 6 4 func_out [5:0] $end
$var wire 16 5 imm16 [15:0] $end
$var wire 16 6 imm16_out [15:0] $end
$var wire 5 7 shamt [4:0] $end
$var wire 32 8 busB [31:0] $end
$var wire 32 9 busA [31:0] $end
$var wire 1 : WrByte $end
$var wire 1 ; Rtype_L $end
$var wire 1 < Rtype_J $end
$var wire 1 = Rtype $end
$var wire 1 > RegWr $end
$var wire 1 ? RegDst $end
$var wire 32 @ PC_Addr [31:0] $end
$var wire 1 A MemWr $end
$var wire 1 B MemToReg $end
$var wire 2 C LoadByte [1:0] $end
$var wire 1 D Jump $end
$var wire 1 E Jal $end
$var wire 32 F J_Addr [31:0] $end
$var wire 2 G ExtOp [1:0] $end
$var wire 1 H Branch $end
$var wire 1 I ALUSrc $end
$var wire 5 J ALUCtr [4:0] $end
$scope module ControlUnit $end
$var wire 6 K OP [5:0] $end
$var wire 6 L func [5:0] $end
$var reg 5 M ALUCtr [4:0] $end
$var reg 1 I ALUSrc $end
$var reg 1 H Branch $end
$var reg 2 N ExtOp [1:0] $end
$var reg 1 E Jal $end
$var reg 1 D Jump $end
$var reg 2 O LoadByte [1:0] $end
$var reg 1 B MemToReg $end
$var reg 1 A MemWr $end
$var reg 1 ? RegDst $end
$var reg 1 > RegWr $end
$var reg 1 = Rtype $end
$var reg 1 < Rtype_J $end
$var reg 1 ; Rtype_L $end
$var reg 1 : WrByte $end
$upscope $end
$scope module Regfile $end
$var wire 1 ( Jal $end
$var wire 5 P Ra [4:0] $end
$var wire 5 Q Rb [4:0] $end
$var wire 5 R Rw [4:0] $end
$var wire 1 S WrEn $end
$var wire 32 T busA [31:0] $end
$var wire 32 U busB [31:0] $end
$var wire 32 V busW [31:0] $end
$var wire 1 ! clk $end
$upscope $end
$upscope $end
$scope module IF_ID $end
$var wire 1 ! clk $end
$var wire 1 W stall $end
$var wire 32 X PC_Addr_IN [31:0] $end
$var wire 32 Y Instruction_IN [31:0] $end
$var reg 32 Z Instruction [31:0] $end
$var reg 32 [ PC_Addr [31:0] $end
$upscope $end
$scope module IUnit $end
$var wire 1 \ PC_Src $end
$var wire 30 ] Target_PC_Addr [31:2] $end
$var wire 1 ! clk $end
$var wire 1 " rst $end
$var wire 30 ^ PC_out [31:2] $end
$var wire 30 _ PC_Plus_4 [31:2] $end
$var wire 32 ` PC_Addr [31:0] $end
$var wire 30 a PCSrc_MUX_out [31:2] $end
$var wire 32 b Instruction [31:0] $end
$scope module IM $end
$var wire 10 c Addr [11:2] $end
$var wire 32 d Dout [31:0] $end
$upscope $end
$scope module MUX_PCSrc $end
$var wire 30 e A [29:0] $end
$var wire 30 f B [29:0] $end
$var wire 1 \ S $end
$var wire 30 g Y [29:0] $end
$upscope $end
$scope module PC $end
$var wire 30 h Next_I_Addr [31:2] $end
$var wire 1 ! clk $end
$var wire 1 " rst $end
$var reg 30 i I_Addr [31:2] $end
$upscope $end
$upscope $end
$upscope $end
$upscope $end
$enddefinitions $end
#0
$dumpvars
b0 i
b1 h
b1 g
b1 f
bz e
b100100000000010000000000000001 d
b0 c
b100100000000010000000000000001 b
b1 a
b0 `
b1 _
b0 ^
bz ]
0\
bx00 [
bx Z
b100100000000010000000000000001 Y
b0 X
0W
b0 V
bx U
bx T
0S
b0 R
bx Q
bx P
bx O
bx N
bx M
bx L
bx K
bx J
xI
xH
bx G
bx00 F
xE
xD
bx C
xB
xA
bx00 @
x?
x>
x=
x<
x;
x:
bx 9
bx 8
bx 7
bx 6
bx 5
bx 4
bx 3
b0 2
b0 1
bx 0
bx /
0.
bx -
bx00 ,
0+
bx *
bx )
0(
bx '
bx &
b100100000000010000000000000001 %
bx00 $
b0 #
1"
1!
$end
#5000
0"
0!
#10000
b0 C
b0 O
0:
0;
0<
0E
0=
b1 G
b1 N
0A
1>
0B
b1 J
b1 M
1I
0?
0D
0H
b1000000000000000100 F
b10000000000000001 '
b1 6
b1 5
b0 7
b0 -
b0 8
b0 U
b1 0
b1 Q
b0 9
b0 T
b0 /
b0 P
b1001 *
b1001 )
b1001 K
b1 4
b1 3
b1 L
b10001000100000000 %
b10001000100000000 Y
b10001000100000000 b
b10001000100000000 d
b1 c
b10 a
b10 g
b10 h
b0 ,
b0 $
b0 @
b0 [
b100100000000010000000000000001 &
b100100000000010000000000000001 Z
b100 #
b100 X
b100 `
b10 _
b10 f
b1 ^
b1 i
1!
#15000
0!
#20000
1=
b0x G
b0x N
b1000 J
b1000 M
0I
1?
b10000010001100000100001 %
b10000010001100000100001 Y
b10000010001100000100001 b
b10000010001100000100001 d
b10 c
b11 a
b11 g
b11 h
b1000100010000000000 F
b10001000100000000 '
b1000100000000 6
b1000100000000 5
b100 7
b10 -
b0 *
b0 )
b0 K
b0 4
b0 3
b0 L
b1000 #
b1000 X
b1000 `
b11 _
b11 f
b10 ^
b10 i
b100 ,
b100 $
b100 @
b100 [
b10001000100000000 &
b10001000100000000 Z
1!
#25000
0!
#30000
b1 J
b1 M
b1000001000110000010000100 F
b10000010001100000100001 '
b1100000100001 6
b1100000100001 5
b0 7
b11 -
b10 /
b10 P
b100001 4
b100001 3
b100001 L
b100010000010000010 %
b100010000010000010 Y
b100010000010000010 b
b100010000010000010 d
b11 c
b100 a
b100 g
b100 h
b1000 ,
b1000 $
b1000 @
b1000 [
b10000010001100000100001 &
b10000010001100000100001 Z
b1100 #
b1100 X
b1100 `
b100 _
b100 f
b11 ^
b11 i
1!
#35000
0!
#40000
b1001 J
b1001 M
b101000100110010000000000000101 %
b101000100110010000000000000101 Y
b101000100110010000000000000101 b
b101000100110010000000000000101 d
b100 c
b101 a
b101 g
b101 h
b10001000001000001000 F
b100010000010000010 '
b10000010000010 6
b10000010000010 5
b10 7
b100 -
b10 0
b10 Q
b0 /
b0 P
b10 4
b10 3
b10 L
b10000 #
b10000 X
b10000 `
b101 _
b101 f
b100 ^
b100 i
b1100 ,
b1100 $
b1100 @
b1100 [
b100010000010000010 &
b100010000010000010 Z
1!
#45000
0!
#50000
0=
b1 G
b1 N
b1100 J
b1100 M
1I
0?
b10011001000000000000010100 F
b100110010000000000000101 '
b101 6
b101 5
b0 7
b0 -
b11001 0
b11001 Q
b100 /
b100 P
b1010 *
b1010 )
b1010 K
b101 4
b101 3
b101 L
b111001000010000000000010000 %
b111001000010000000000010000 Y
b111001000010000000000010000 b
b111001000010000000000010000 d
b101 c
b110 a
b110 g
b110 h
b10000 ,
b10000 $
b10000 @
b10000 [
b101000100110010000000000000101 &
b101000100110010000000000000101 Z
b10100 #
b10100 X
b10100 `
b110 _
b110 f
b101 ^
b101 i
1!
#55000
0!
#60000
b0x G
b0x N
0>
xB
b11111 J
b11111 M
0I
x?
1H
b11001000010100000100011 %
b11001000010100000100011 Y
b11001000010100000100011 b
b11001000010100000100011 d
b110 c
b111 a
b111 g
b111 h
b1100100001000000000001000000 F
b11001000010000000000010000 '
b10000 6
b10000 5
b1 0
b1 Q
b11001 /
b11001 P
b1 *
b1 )
b1 K
b10000 4
b10000 3
b10000 L
b11000 #
b11000 X
b11000 `
b111 _
b111 f
b110 ^
b110 i
b10100 ,
b10100 $
b10100 @
b10100 [
b111001000010000000000010000 &
b111001000010000000000010000 Z
1!
#65000
0!
#70000
1=
1>
0B
b11 J
b11 M
1?
0H
b1100100001010000010001100 F
b11001000010100000100011 '
b10100000100011 6
b10100000100011 5
b101 -
b100 0
b100 Q
b11 /
b11 P
b0 *
b0 )
b0 K
b100011 4
b100011 3
b100011 L
b10101100000001010000000000010100 %
b10101100000001010000000000010100 Y
b10101100000001010000000000010100 b
b10101100000001010000000000010100 d
b111 c
b1000 a
b1000 g
b1000 h
b11000 ,
b11000 $
b11000 @
b11000 [
b11001000010100000100011 &
b11001000010100000100011 Z
b11100 #
b11100 X
b11100 `
b1000 _
b1000 f
b111 ^
b111 i
1!
#75000
0!
#80000
0=
b1 G
b1 N
1A
0>
b1 J
b1 M
1I
x?
b101000100011000000100111 %
b101000100011000000100111 Y
b101000100011000000100111 b
b101000100011000000100111 d
b1000 c
b1001 a
b1001 g
b1001 h
b101000000000001010000 F
b1010000000000010100 '
b10100 6
b10100 5
b0 -
b101 0
b101 Q
b0 /
b0 P
b101011 *
b101011 )
b101011 K
b10100 4
b10100 3
b10100 L
b100000 #
b100000 X
b100000 `
b1001 _
b1001 f
b1000 ^
b1000 i
b11100 ,
b11100 $
b11100 @
b11100 [
b10101100000001010000000000010100 &
b10101100000001010000000000010100 Z
1!
#85000
0!
#90000
1=
b0x G
b0x N
0A
1>
b1110 J
b1110 M
0I
1?
b10100010001100000010011100 F
b101000100011000000100111 '
b11000000100111 6
b11000000100111 5
b110 -
b10 0
b10 Q
b101 /
b101 P
b0 *
b0 )
b0 K
b100111 4
b100111 3
b100111 L
b110000110011100000100101 %
b110000110011100000100101 Y
b110000110011100000100101 b
b110000110011100000100101 d
b1001 c
b1010 a
b1010 g
b1010 h
b100000 ,
b100000 $
b100000 @
b100000 [
b101000100011000000100111 &
b101000100011000000100111 Z
b100100 #
b100100 X
b100100 `
b1010 _
b1010 f
b1001 ^
b1001 i
1!
#95000
0!
#100000
b101 J
b101 M
b111001100100000000100110 %
b111001100100000000100110 Y
b111001100100000000100110 b
b111001100100000000100110 d
b1010 c
b1011 a
b1011 g
b1011 h
b11000011001110000010010100 F
b110000110011100000100101 '
b11100000100101 6
b11100000100101 5
b111 -
b11 0
b11 Q
b110 /
b110 P
b100101 4
b100101 3
b100101 L
b101000 #
b101000 X
b101000 `
b1011 _
b1011 f
b1010 ^
b1010 i
b100100 ,
b100100 $
b100100 @
b100100 [
b110000110011100000100101 &
b110000110011100000100101 Z
1!
#105000
0!
#110000
b110 J
b110 M
b11100110010000000010011000 F
b111001100100000000100110 '
b100000000100110 6
b100000000100110 5
b1000 -
b110 0
b110 Q
b111 /
b111 P
b100110 4
b100110 3
b100110 L
b10101100000010000000000000011100 %
b10101100000010000000000000011100 Y
b10101100000010000000000000011100 b
b10101100000010000000000000011100 d
b1011 c
b1100 a
b1100 g
b1100 h
b101000 ,
b101000 $
b101000 @
b101000 [
b111001100100000000100110 &
b111001100100000000100110 Z
b101100 #
b101100 X
b101100 `
b1100 _
b1100 f
b1011 ^
b1011 i
1!
#115000
0!
#120000
0=
b1 G
b1 N
1A
0>
b1 J
b1 M
1I
x?
b10001000000110000000000000010 %
b10001000000110000000000000010 Y
b10001000000110000000000000010 b
b10001000000110000000000000010 d
b1100 c
b1101 a
b1101 g
b1101 h
b1000000000000001110000 F
b10000000000000011100 '
b11100 6
b11100 5
b0 -
b1000 0
b1000 Q
b0 /
b0 P
b101011 *
b101011 )
b101011 K
b11100 4
b11100 3
b11100 L
b110000 #
b110000 X
b110000 `
b1101 _
b1101 f
b1100 ^
b1100 i
b101100 ,
b101100 $
b101100 @
b101100 [
b10101100000010000000000000011100 &
b10101100000010000000000000011100 Z
1!
#125000
0!
#130000
b0x G
b0x N
0A
xB
b10 J
b10 M
0I
1H
b100000011000000000000001000 F
b1000000110000000000000010 '
b10 6
b10 5
b11 0
b11 Q
b1000 /
b1000 P
b100 *
b100 )
b100 K
b10 4
b10 3
b10 L
b110001110100100000101010 %
b110001110100100000101010 Y
b110001110100100000101010 b
b110001110100100000101010 d
b1101 c
b1110 a
b1110 g
b1110 h
b110000 ,
b110000 $
b110000 @
b110000 [
b10001000000110000000000000010 &
b10001000000110000000000000010 Z
b110100 #
b110100 X
b110100 `
b1110 _
b1110 f
b1101 ^
b1101 i
1!
#135000
0!
#140000
1=
1>
0B
b1100 J
b1100 M
1?
0H
b100100000000010000000000001000 %
b100100000000010000000000001000 Y
b100100000000010000000000001000 b
b100100000000010000000000001000 d
b1110 c
b1111 a
b1111 g
b1111 h
b11000111010010000010101000 F
b110001110100100000101010 '
b100100000101010 6
b100100000101010 5
b1001 -
b111 0
b111 Q
b110 /
b110 P
b0 *
b0 )
b0 K
b101010 4
b101010 3
b101010 L
b111000 #
b111000 X
b111000 `
b1111 _
b1111 f
b1110 ^
b1110 i
b110100 ,
b110100 $
b110100 @
b110100 [
b110001110100100000101010 &
b110001110100100000101010 Z
1!
#145000
0!
#150000
0=
b1 G
b1 N
b1 J
b1 M
1I
0?
b1000000000000100000 F
b10000000000001000 '
b1000 6
b1000 5
b0 -
b1 0
b1 Q
b0 /
b0 P
b1001 *
b1001 )
b1001 K
b1000 4
b1000 3
b1000 L
b10001100001010100000000000010100 %
b10001100001010100000000000010100 Y
b10001100001010100000000000010100 b
b10001100001010100000000000010100 d
b1111 c
b10000 a
b10000 g
b10000 h
b111000 ,
b111000 $
b111000 @
b111000 [
b100100000000010000000000001000 &
b100100000000010000000000001000 Z
b111100 #
b111100 X
b111100 `
b10000 _
b10000 f
b1111 ^
b1111 i
1!
#155000
0!
#160000
1B
b10101010001010000000000000100 %
b10101010001010000000000000100 Y
b10101010001010000000000000100 b
b10101010001010000000000000100 d
b10000 c
b10001 a
b10001 g
b10001 h
b101010000000000001010000 F
b1010100000000000010100 '
b10100 6
b10100 5
b1010 0
b1010 Q
b1 /
b1 P
b100011 *
b100011 )
b100011 K
b10100 4
b10100 3
b10100 L
b1000000 #
b1000000 X
b1000000 `
b10001 _
b10001 f
b10000 ^
b10000 i
b111100 ,
b111100 $
b111100 @
b111100 [
b10001100001010100000000000010100 &
b10001100001010100000000000010100 Z
1!
#165000
0!
#170000
b0x G
b0x N
0>
xB
b10 J
b10 M
0I
x?
1H
b101000101000000000000010000 F
b1010001010000000000000100 '
b100 6
b100 5
b101 0
b101 Q
b1010 /
b1010 P
b101 *
b101 )
b101 K
b100 4
b100 3
b100 L
b10000010101100000100100 %
b10000010101100000100100 Y
b10000010101100000100100 b
b10000010101100000100100 d
b10001 c
b10010 a
b10010 g
b10010 h
b1000000 ,
b1000000 $
b1000000 @
b1000000 [
b10101010001010000000000000100 &
b10101010001010000000000000100 Z
b1000100 #
b1000100 X
b1000100 `
b10010 _
b10010 f
b10001 ^
b10001 i
1!
#175000
0!
#180000
1=
1>
0B
b100 J
b100 M
1?
0H
b10101100001010110000000000011100 %
b10101100001010110000000000011100 Y
b10101100001010110000000000011100 b
b10101100001010110000000000011100 d
b10010 c
b10011 a
b10011 g
b10011 h
b1000001010110000010010000 F
b10000010101100000100100 '
b101100000100100 6
b101100000100100 5
b1011 -
b1 0
b1 Q
b10 /
b10 P
b0 *
b0 )
b0 K
b100100 4
b100100 3
b100100 L
b1001000 #
b1001000 X
b1001000 `
b10011 _
b10011 f
b10010 ^
b10010 i
b1000100 ,
b1000100 $
b1000100 @
b1000100 [
b10000010101100000100100 &
b10000010101100000100100 Z
1!
#185000
0!
#190000
0=
b1 G
b1 N
1A
0>
b1 J
b1 M
1I
x?
b101011000000000001110000 F
b1010110000000000011100 '
b11100 6
b11100 5
b0 -
b1011 0
b1011 Q
b1 /
b1 P
b101011 *
b101011 )
b101011 K
b11100 4
b11100 3
b11100 L
b10101100001001000000000000010000 %
b10101100001001000000000000010000 Y
b10101100001001000000000000010000 b
b10101100001001000000000000010000 d
b10011 c
b10100 a
b10100 g
b10100 h
b1001000 ,
b1001000 $
b1001000 @
b1001000 [
b10101100001010110000000000011100 &
b10101100001010110000000000011100 Z
b1001100 #
b1001100 X
b1001100 `
b10100 _
b10100 f
b10011 ^
b10011 i
1!
#195000
0!
#200000
b1100000000000000000000011001 %
b1100000000000000000000011001 Y
b1100000000000000000000011001 b
b1100000000000000000000011001 d
b10100 c
b10101 a
b10101 g
b10101 h
b100100000000000001000000 F
b1001000000000000010000 '
b10000 6
b10000 5
b100 0
b100 Q
b10000 4
b10000 3
b10000 L
b1010000 #
b1010000 X
b1010000 `
b10101 _
b10101 f
b10100 ^
b10100 i
b1001100 ,
b1001100 $
b1001100 @
b1001100 [
b10101100001001000000000000010000 &
b10101100001001000000000000010000 Z
1!
#205000
0!
#210000
1E
b0x G
b0x N
0A
1>
xB
bx J
bx M
xI
1D
b1100100 F
b11001 '
b11001 6
b11001 5
b0 0
b0 Q
b0 /
b0 P
b11 *
b11 )
b11 K
b11001 4
b11001 3
b11001 L
b111100000011000000000000001100 %
b111100000011000000000000001100 Y
b111100000011000000000000001100 b
b111100000011000000000000001100 d
b10101 c
b10110 a
b10110 g
b10110 h
b1010000 ,
b1010000 $
b1010000 @
b1010000 [
b1100000000000000000000011001 &
b1100000000000000000000011001 Z
b1010100 #
b1010100 X
b1010100 `
b10110 _
b10110 f
b10101 ^
b10101 i
1!
#215000
0!
#220000
0E
b10 G
b10 N
0B
b11110 J
b11110 M
1I
0?
0D
b10011001101000000000111 %
b10011001101000000000111 Y
b10011001101000000000111 b
b10011001101000000000111 d
b10110 c
b10111 a
b10111 g
b10111 h
b1100000000000000110000 F
b11000000000000001100 '
b1100 6
b1100 5
b1100 0
b1100 Q
b1111 *
b1111 )
b1111 K
b1100 4
b1100 3
b1100 L
b1011000 #
b1011000 X
b1011000 `
b10111 _
b10111 f
b10110 ^
b10110 i
b1010100 ,
b1010100 $
b1010100 @
b1010100 [
b111100000011000000000000001100 &
b111100000011000000000000001100 Z
1!
#225000
0!
#230000
1=
b0x G
b0x N
b10010 J
b10010 M
0I
1?
b1001100110100000000011100 F
b10011001101000000000111 '
b1101000000000111 6
b1101000000000111 5
b11010 -
b10 /
b10 P
b0 *
b0 )
b0 K
b111 4
b111 3
b111 L
b1110101101100000000100 %
b1110101101100000000100 Y
b1110101101100000000100 b
b1110101101100000000100 d
b10111 c
b11000 a
b11000 g
b11000 h
b1011000 ,
b1011000 $
b1011000 @
b1011000 [
b10011001101000000000111 &
b10011001101000000000111 Z
b1011100 #
b1011100 X
b1011100 `
b11000 _
b11000 f
b10111 ^
b10111 i
1!
#235000
0!
#240000
b1111 J
b1111 M
b11011000001111100000001001 %
b11011000001111100000001001 Y
b11011000001111100000001001 b
b11011000001111100000001001 d
b11000 c
b11001 a
b11001 g
b11001 h
b111010110110000000010000 F
b1110101101100000000100 '
b1101100000000100 6
b1101100000000100 5
b11011 -
b11010 0
b11010 Q
b1 /
b1 P
b100 4
b100 3
b100 L
b1100000 #
b1100000 X
b1100000 `
b11001 _
b11001 f
b11000 ^
b11000 i
b1011100 ,
b1011100 $
b1011100 @
b1011100 [
b1110101101100000000100 &
b1110101101100000000100 Z
1!
#245000
0!
#250000
1;
1<
b11111 J
b11111 M
b1101100000111110000000100100 F
b11011000001111100000001001 '
b1111100000001001 6
b1111100000001001 5
b11111 -
b0 0
b0 Q
b11011 /
b11011 P
b1001 4
b1001 3
b1001 L
b10100000011110100000000000000101 %
b10100000011110100000000000000101 Y
b10100000011110100000000000000101 b
b10100000011110100000000000000101 d
b11001 c
b11010 a
b11010 g
b11010 h
b1100000 ,
b1100000 $
b1100000 @
b1100000 [
b11011000001111100000001001 &
b11011000001111100000001001 Z
b1100100 #
b1100100 X
b1100100 `
b11010 _
b11010 f
b11001 ^
b11001 i
1!
#255000
0!
#260000
1:
0;
0<
0=
b1 G
b1 N
1A
0>
xB
b1 J
b1 M
1I
0?
b11000110110100000101011 %
b11000110110100000101011 Y
b11000110110100000101011 b
b11000110110100000101011 d
b11010 c
b11011 a
b11011 g
b11011 h
b1111010000000000000010100 F
b11110100000000000000101 '
b101 6
b101 5
b0 -
b11010 0
b11010 Q
b11 /
b11 P
b101000 *
b101000 )
b101000 K
b101 4
b101 3
b101 L
b1101000 #
b1101000 X
b1101000 `
b11011 _
b11011 f
b11010 ^
b11010 i
b1100100 ,
b1100100 $
b1100100 @
b1100100 [
b10100000011110100000000000000101 &
b10100000011110100000000000000101 Z
1!
#265000
0!
#270000
0:
1=
b0x G
b0x N
0A
1>
0B
b1101 J
b1101 M
0I
1?
b1100011011010000010101100 F
b11000110110100000101011 '
b110100000101011 6
b110100000101011 5
b1101 -
b11 0
b11 Q
b0 *
b0 )
b0 K
b101011 4
b101011 3
b101011 L
b11101101000000000000000000011 %
b11101101000000000000000000011 Y
b11101101000000000000000000011 b
b11101101000000000000000000011 d
b11011 c
b11100 a
b11100 g
b11100 h
b1101000 ,
b1101000 $
b1101000 @
b1101000 [
b11000110110100000101011 &
b11000110110100000101011 Z
b1101100 #
b1101100 X
b1101100 `
b11100 _
b11100 f
b11011 ^
b11011 i
1!
#275000
0!
#280000
0=
0>
xB
b11111 J
b11111 M
x?
1H
b100001100111000000000100 %
b100001100111000000000100 Y
b100001100111000000000100 b
b100001100111000000000100 d
b11100 c
b11101 a
b11101 g
b11101 h
b110100000000000000000001100 F
b1101000000000000000000011 '
b11 6
b11 5
b0 -
b0 0
b0 Q
b1101 /
b1101 P
b111 *
b111 )
b111 K
b11 4
b11 3
b11 L
b1110000 #
b1110000 X
b1110000 `
b11101 _
b11101 f
b11100 ^
b11100 i
b1101100 ,
b1101100 $
b1101100 @
b1101100 [
b11101101000000000000000000011 &
b11101101000000000000000000011 Z
1!
#285000
0!
#290000
1=
1>
0B
b1111 J
b1111 M
1?
0H
b10000110011100000000010000 F
b100001100111000000000100 '
b111000000000100 6
b111000000000100 5
b1110 -
b110 0
b110 Q
b100 /
b100 P
b0 *
b0 )
b0 K
b100 4
b100 3
b100 L
b11100111100010000011 %
b11100111100010000011 Y
b11100111100010000011 b
b11100111100010000011 d
b11101 c
b11110 a
b11110 g
b11110 h
b1110000 ,
b1110000 $
b1110000 @
b1110000 [
b100001100111000000000100 &
b100001100111000000000100 Z
b1110100 #
b1110100 X
b1110100 `
b11110 _
b11110 f
b11101 ^
b11101 i
1!
#295000
0!
#300000
b1011 J
b1011 M
b1011111000000000000110 %
b1011111000000000000110 Y
b1011111000000000000110 b
b1011111000000000000110 d
b11110 c
b11111 a
b11111 g
b11111 h
b1110011110001000001100 F
b11100111100010000011 '
b111100010000011 6
b111100010000011 5
b10 7
b1111 -
b1110 0
b1110 Q
b0 /
b0 P
b11 4
b11 3
b11 L
b1111000 #
b1111000 X
b1111000 `
b11111 _
b11111 f
b11110 ^
b11110 i
b1110100 ,
b1110100 $
b1110100 @
b1110100 [
b11100111100010000011 &
b11100111100010000011 Z
1!
#305000
0!
#310000
b10000 J
b10000 M
b101111100000000000011000 F
b1011111000000000000110 '
b1000000000000110 6
b1000000000000110 5
b0 7
b10000 -
b1111 0
b1111 Q
b1 /
b1 P
b110 4
b110 3
b110 L
b11010000000000000000000001000 %
b11010000000000000000000001000 Y
b11010000000000000000000001000 b
b11010000000000000000000001000 d
b11111 c
b100000 a
b100000 g
b100000 h
b1111000 ,
b1111000 $
b1111000 @
b1111000 [
b1011111000000000000110 &
b1011111000000000000110 Z
b1111100 #
b1111100 X
b1111100 `
b100000 _
b100000 f
b11111 ^
b11111 i
1!
#315000
0!
#320000
0=
0>
xB
b11111 J
b11111 M
x?
1H
b1011111000000000000111 %
b1011111000000000000111 Y
b1011111000000000000111 b
b1011111000000000000111 d
b100000 c
b100001 a
b100001 g
b100001 h
b1000000000000000000000100000 F
b10000000000000000000001000 '
b1000 6
b1000 5
b0 -
b0 0
b0 Q
b10000 /
b10000 P
b110 *
b110 )
b110 K
b1000 4
b1000 3
b1000 L
b10000000 #
b10000000 X
b10000000 `
b100001 _
b100001 f
b100000 ^
b100000 i
b1111100 ,
b1111100 $
b1111100 @
b1111100 [
b11010000000000000000000001000 &
b11010000000000000000000001000 Z
1!
#325000
0!
#330000
1=
1>
0B
b10010 J
b10010 M
1?
0H
b101111100000000000011100 F
b1011111000000000000111 '
b1000000000000111 6
b1000000000000111 5
b10000 -
b1111 0
b1111 Q
b1 /
b1 P
b0 *
b0 )
b0 K
b111 4
b111 3
b111 L
b100100000010110000000010001100 %
b100100000010110000000010001100 Y
b100100000010110000000010001100 b
b100100000010110000000010001100 d
b100001 c
b100010 a
b100010 g
b100010 h
b10000000 ,
b10000000 $
b10000000 @
b10000000 [
b1011111000000000000111 &
b1011111000000000000111 Z
b10000100 #
b10000100 X
b10000100 `
b100010 _
b100010 f
b100001 ^
b100001 i
1!
#335000
0!
#340000
0=
b1 G
b1 N
b1 J
b1 M
1I
0?
b110000000000000000000000110 %
b110000000000000000000000110 Y
b110000000000000000000000110 b
b110000000000000000000000110 d
b100010 c
b100011 a
b100011 g
b100011 h
b1011000000001000110000 F
b10110000000010001100 '
b10001100 6
b10001100 5
b10 7
b0 -
b1011 0
b1011 Q
b0 /
b0 P
b1001 *
b1001 )
b1001 K
b1100 4
b1100 3
b1100 L
b10001000 #
b10001000 X
b10001000 `
b100011 _
b100011 f
b100010 ^
b100010 i
b10000100 ,
b10000100 $
b10000100 @
b10000100 [
b100100000010110000000010001100 &
b100100000010110000000010001100 Z
1!
#345000
0!
#350000
b0x G
b0x N
0>
xB
b11111 J
b11111 M
0I
x?
1H
b1000000000000000000000011000 F
b10000000000000000000000110 '
b110 6
b110 5
b0 7
b0 0
b0 Q
b10000 /
b10000 P
b1 *
b1 )
b1 K
b110 4
b110 3
b110 L
b10001101010111000000000000000011 %
b10001101010111000000000000000011 Y
b10001101010111000000000000000011 b
b10001101010111000000000000000011 d
b100011 c
b100100 a
b100100 g
b100100 h
b10001000 ,
b10001000 $
b10001000 @
b10001000 [
b110000000000000000000000110 &
b110000000000000000000000110 Z
b10001100 #
b10001100 X
b10001100 `
b100100 _
b100100 f
b100011 ^
b100011 i
1!
#355000
0!
#360000
b1 G
b1 N
1>
1B
b1 J
b1 M
1I
0?
0H
b10111100111010000000000000111 %
b10111100111010000000000000111 Y
b10111100111010000000000000111 b
b10111100111010000000000000111 d
b100100 c
b100101 a
b100101 g
b100101 h
b101011100000000000000001100 F
b1010111000000000000000011 '
b11 6
b11 5
b11100 0
b11100 Q
b1010 /
b1010 P
b100011 *
b100011 )
b100011 K
b11 4
b11 3
b11 L
b10010000 #
b10010000 X
b10010000 `
b100101 _
b100101 f
b100100 ^
b100100 i
b10001100 ,
b10001100 $
b10001100 @
b10001100 [
b10001101010111000000000000000011 &
b10001101010111000000000000000011 Z
1!
#365000
0!
#370000
b0x G
b0x N
0>
xB
b10 J
b10 M
0I
x?
1H
b1110011101000000000000011100 F
b11100111010000000000000111 '
b111 6
b111 5
b11101 0
b11101 Q
b11100 /
b11100 P
b101 *
b101 )
b101 K
b111 4
b111 3
b111 L
b10100000101011110000000000001000 %
b10100000101011110000000000001000 Y
b10100000101011110000000000001000 b
b10100000101011110000000000001000 d
b100101 c
b100110 a
b100110 g
b100110 h
b10010000 ,
b10010000 $
b10010000 @
b10010000 [
b10111100111010000000000000111 &
b10111100111010000000000000111 Z
b10010100 #
b10010100 X
b10010100 `
b100110 _
b100110 f
b100101 ^
b100101 i
1!
#375000
0!
#380000
1:
b1 G
b1 N
1A
b1 J
b1 M
1I
0?
0H
b10000000101100100000000000001000 %
b10000000101100100000000000001000 Y
b10000000101100100000000000001000 b
b10000000101100100000000000001000 d
b100110 c
b100111 a
b100111 g
b100111 h
b10101111000000000000100000 F
b101011110000000000001000 '
b1000 6
b1000 5
b1111 0
b1111 Q
b101 /
b101 P
b101000 *
b101000 )
b101000 K
b1000 4
b1000 3
b1000 L
b10011000 #
b10011000 X
b10011000 `
b100111 _
b100111 f
b100110 ^
b100110 i
b10010100 ,
b10010100 $
b10010100 @
b10010100 [
b10100000101011110000000000001000 &
b10100000101011110000000000001000 Z
1!
#385000
0!
#390000
b11 C
b11 O
0:
0A
1>
1B
b10110010000000000000100000 F
b101100100000000000001000 '
b10010 0
b10010 Q
b100000 *
b100000 )
b100000 K
b10010000101100110000000000001000 %
b10010000101100110000000000001000 Y
b10010000101100110000000000001000 b
b10010000101100110000000000001000 d
b100111 c
b101000 a
b101000 g
b101000 h
b10011000 ,
b10011000 $
b10011000 @
b10011000 [
b10000000101100100000000000001000 &
b10000000101100100000000000001000 Z
b10011100 #
b10011100 X
b10011100 `
b101000 _
b101000 f
b100111 ^
b100111 i
1!
#395000
0!
#400000
b10 C
b10 O
b101101111110001111111111111111 %
b101101111110001111111111111111 Y
b101101111110001111111111111111 b
b101101111110001111111111111111 d
b101000 c
b101001 a
b101001 g
b101001 h
b10110011000000000000100000 F
b101100110000000000001000 '
b10011 0
b10011 Q
b100100 *
b100100 )
b100100 K
b10100000 #
b10100000 X
b10100000 `
b101001 _
b101001 f
b101000 ^
b101000 i
b10011100 ,
b10011100 $
b10011100 @
b10011100 [
b10010000101100110000000000001000 &
b10010000101100110000000000001000 Z
1!
#405000
0!
