src/CPU_Wave.vcd
$date
	Sun Jun 11 09:29:03 2023
$end
$version
	Icarus Verilog
$end
$timescale
	1ps
$end
$scope module ExtUnit_NPC_206 $end
$var wire 1 ! ExtOp $end
$var wire 16 " in [15:0] $end
$var wire 30 # out [29:0] $end
$var reg 30 $ out_t [29:0] $end
$upscope $end
$scope module tb_PipeLine_CPU $end
$var reg 1 % clk $end
$var reg 1 & rst $end
$var integer 32 ' clk_num [31:0] $end
$var integer 32 ( fd [31:0] $end
$var integer 32 ) i [31:0] $end
$scope module u_PipeLine_CPU $end
$var wire 1 % clk $end
$var wire 1 & rst $end
$var wire 5 * shamt_ID [4:0] $end
$var wire 5 + shamt_Ex [4:0] $end
$var wire 16 , imm16_ID [15:0] $end
$var wire 16 - imm16_Ex [15:0] $end
$var wire 32 . busW [31:0] $end
$var wire 32 / busB_out_Ex [31:0] $end
$var wire 32 0 busB_Mem [31:0] $end
$var wire 32 1 busB_ID [31:0] $end
$var wire 32 2 busB_Ex [31:0] $end
$var wire 2 3 busBSrc_ByPassing [1:0] $end
$var wire 32 4 busA_ID [31:0] $end
$var wire 32 5 busA_Ex [31:0] $end
$var wire 1 6 ZF_Mem $end
$var wire 1 7 ZF_Ex $end
$var wire 1 8 WrByte_Mem $end
$var wire 1 9 WrByte_ID $end
$var wire 1 : WrByte_Ex $end
$var wire 1 ; Sign_Mem $end
$var wire 1 < Sign_Ex $end
$var wire 1 = Rtype_L_Wr $end
$var wire 1 > Rtype_L_Mem $end
$var wire 1 ? Rtype_L_ID $end
$var wire 1 @ Rtype_L_Ex $end
$var wire 1 A Rtype_J_Mem $end
$var wire 1 B Rtype_J_ID $end
$var wire 1 C Rtype_J_Ex $end
$var wire 1 D Rtype_ID $end
$var wire 1 E Rtype_Ex $end
$var wire 5 F Rt_out_ID [4:0] $end
$var wire 5 G Rt_Ex [4:0] $end
$var wire 5 H Rs_out_ID [4:0] $end
$var wire 5 I Rs_Ex [4:0] $end
$var wire 5 J Reg_Target_out_Mem [4:0] $end
$var wire 5 K Reg_Target_Wr [4:0] $end
$var wire 5 L Reg_Target_Mem [4:0] $end
$var wire 5 M Reg_Target_Ex [4:0] $end
$var wire 1 N RegWr_Wr $end
$var wire 1 O RegWr_Mem $end
$var wire 1 P RegWr_ID $end
$var wire 1 Q RegWr_Ex $end
$var wire 1 R RegDst_ID $end
$var wire 1 S RegDst_Ex $end
$var wire 5 T Rd_out_ID [4:0] $end
$var wire 5 U Rd_Ex [4:0] $end
$var wire 32 V PC_Addr_out_ID [31:0] $end
$var wire 32 W PC_Addr_out_Ex [31:0] $end
$var wire 32 X PC_Addr_Wr [31:0] $end
$var wire 32 Y PC_Addr_Mem [31:0] $end
$var wire 32 Z PC_Addr_IF [31:0] $end
$var wire 32 [ PC_Addr_ID [31:0] $end
$var wire 6 \ OP_out_Ex [5:0] $end
$var wire 6 ] OP_Mem [5:0] $end
$var wire 6 ^ OP_ID [5:0] $end
$var wire 1 _ OF_Mem $end
$var wire 1 ` OF_Ex $end
$var wire 32 a Mem_Data_out_Mem [31:0] $end
$var wire 32 b Mem_Data_Wr [31:0] $end
$var wire 1 c MemWr_Mem $end
$var wire 1 d MemWr_ID $end
$var wire 1 e MemWr_Ex $end
$var wire 1 f MemToReg_Wr $end
$var wire 1 g MemToReg_Mem $end
$var wire 1 h MemToReg_ID $end
$var wire 1 i MemToReg_Ex $end
$var wire 2 j LoadByte_Mem [1:0] $end
$var wire 2 k LoadByte_ID [1:0] $end
$var wire 2 l LoadByte_Ex [1:0] $end
$var wire 1 m Jump_ID $end
$var wire 1 n Jump_Ex $end
$var wire 1 o Jal_Wr $end
$var wire 1 p Jal_Mem $end
$var wire 1 q Jal_ID $end
$var wire 1 r Jal_Ex $end
$var wire 32 s J_Addr_out_Ex [31:0] $end
$var wire 32 t J_Addr_ID [31:0] $end
$var wire 32 u J_Addr_Ex [31:0] $end
$var wire 32 v Instruction_IF [31:0] $end
$var wire 32 w Instruction_ID [31:0] $end
$var wire 2 x ExtOp_ID [1:0] $end
$var wire 2 y ExtOp_Ex [1:0] $end
$var wire 1 z Branch_Mem $end
$var wire 1 { Branch_ID $end
$var wire 1 | Branch_Ex $end
$var wire 32 } B_Addr_Ex [31:0] $end
$var wire 32 ~ ALU_ans_out_Mem [31:0] $end
$var wire 32 !" ALU_ans_Wr [31:0] $end
$var wire 32 "" ALU_ans_Mem [31:0] $end
$var wire 32 #" ALU_ans_Ex [31:0] $end
$var wire 1 $" ALUSrc_ID $end
$var wire 1 %" ALUSrc_Ex $end
$var wire 2 &" ALUSrcB_ByPassing [1:0] $end
$var wire 2 '" ALUSrcA_ByPassing [1:0] $end
$var wire 5 (" ALUCtr_ID [4:0] $end
$var wire 5 )" ALUCtr_Ex [4:0] $end
$scope module Ex_Mem $end
$var wire 1 % clk $end
$var wire 32 *" busB_Ex [31:0] $end
$var wire 1 7 ZF_Ex $end
$var wire 1 : WrByte_Ex $end
$var wire 1 < Sign_Ex $end
$var wire 1 @ Rtype_L_Ex $end
$var wire 1 C Rtype_J_Ex $end
$var wire 5 +" Reg_Target_Ex [4:0] $end
$var wire 1 Q RegWr_Ex $end
$var wire 32 ," PC_Addr_Ex [31:0] $end
$var wire 6 -" OP_Ex [5:0] $end
$var wire 1 ` OF_Ex $end
$var wire 1 e MemWr_Ex $end
$var wire 1 i MemToReg_Ex $end
$var wire 2 ." LoadByte_Ex [1:0] $end
$var wire 1 r Jal_Ex $end
$var wire 1 | Branch_Ex $end
$var wire 32 /" ALU_ans_Ex [31:0] $end
$var reg 32 0" ALU_ans_Mem [31:0] $end
$var reg 1 z Branch_Mem $end
$var reg 1 p Jal_Mem $end
$var reg 2 1" LoadByte_Mem [1:0] $end
$var reg 1 g MemToReg_Mem $end
$var reg 1 c MemWr_Mem $end
$var reg 1 _ OF_Mem $end
$var reg 6 2" OP_Mem [5:0] $end
$var reg 32 3" PC_Addr_Mem [31:0] $end
$var reg 1 O RegWr_Mem $end
$var reg 5 4" Reg_Target_Mem [4:0] $end
$var reg 1 A Rtype_J_Mem $end
$var reg 1 > Rtype_L_Mem $end
$var reg 1 ; Sign_Mem $end
$var reg 1 8 WrByte_Mem $end
$var reg 1 6 ZF_Mem $end
$var reg 32 5" busB_Mem [31:0] $end
$upscope $end
$scope module ExecUnit $end
$var wire 32 6" Ex_Mem_ByPassing_A [31:0] $end
$var wire 32 7" Ex_Mem_ByPassing_B [31:0] $end
$var wire 32 8" J_Addr_out_Ex [31:0] $end
$var wire 5 9" shamt_Ex [4:0] $end
$var wire 32 :" imm_16_Ext [31:0] $end
$var wire 16 ;" imm16_Ex [15:0] $end
$var wire 32 <" busB_out_Ex [31:0] $end
$var wire 32 =" busB_Ex [31:0] $end
$var wire 2 >" busBSrc_ByPassing [1:0] $end
$var wire 32 ?" busA_Ex [31:0] $end
$var wire 1 7 ZF_Ex $end
$var wire 1 : WrByte_Ex $end
$var wire 1 < Sign_Ex $end
$var wire 1 @ Rtype_L_Ex $end
$var wire 1 C Rtype_J_Ex $end
$var wire 5 @" Rt_Ex [4:0] $end
$var wire 5 A" Reg_Target_Ex [4:0] $end
$var wire 1 Q RegWr_Ex $end
$var wire 1 S RegDst_Ex $end
$var wire 5 B" Rd_Ex [4:0] $end
$var wire 32 C" PC_Addr_Ex [31:0] $end
$var wire 6 D" OP_Ex [5:0] $end
$var wire 1 ` OF_Ex $end
$var wire 32 E" Mem_Wr_ByPassing_B [31:0] $end
$var wire 32 F" Mem_Wr_ByPassing_A [31:0] $end
$var wire 1 e MemWr_Ex $end
$var wire 1 i MemToReg_Ex $end
$var wire 2 G" LoadByte_Ex [1:0] $end
$var wire 1 n Jump_Ex $end
$var wire 1 r Jal_Ex $end
$var wire 32 H" J_Addr_Ex [31:0] $end
$var wire 2 I" ExtOp_Ex [1:0] $end
$var wire 1 | Branch_Ex $end
$var wire 32 J" B_Addr_Ex [31:0] $end
$var wire 32 K" ALU_input_B [31:0] $end
$var wire 32 L" ALU_input_A [31:0] $end
$var wire 32 M" ALU_ans_Ex [31:0] $end
$var wire 1 %" ALUSrc_Ex $end
$var wire 2 N" ALUSrcB_ByPassing [1:0] $end
$var wire 2 O" ALUSrcA_ByPassing [1:0] $end
$var wire 5 P" ALUCtr_Ex [4:0] $end
$scope module ALU $end
$var wire 5 Q" shamt [4:0] $end
$var wire 32 R" B [31:0] $end
$var wire 5 S" ALUCtr [4:0] $end
$var wire 32 T" A [31:0] $end
$var reg 1 ` OverFlow $end
$var reg 1 < Sign $end
$var reg 1 7 Zero $end
$var reg 32 U" result [31:0] $end
$var reg 33 V" temp [32:0] $end
$var integer 32 W" t1 [31:0] $end
$var integer 32 X" t2 [31:0] $end
$upscope $end
$scope module ExtUnit_Ex $end
$var wire 32 Y" out [31:0] $end
$var wire 16 Z" in [15:0] $end
$var wire 2 [" ExtOp [1:0] $end
$var reg 32 \" out_t [31:0] $end
$upscope $end
$scope module MUX_ALUSrc_A $end
$var wire 32 ]" B [31:0] $end
$var wire 32 ^" C [31:0] $end
$var wire 2 _" S [1:0] $end
$var wire 32 `" D [31:0] $end
$var wire 32 a" A [31:0] $end
$var reg 32 b" Y [31:0] $end
$upscope $end
$scope module MUX_ALUSrc_B $end
$var wire 32 c" B [31:0] $end
$var wire 32 d" C [31:0] $end
$var wire 2 e" S [1:0] $end
$var wire 32 f" D [31:0] $end
$var wire 32 g" A [31:0] $end
$var reg 32 h" Y [31:0] $end
$upscope $end
$scope module MUX_busB $end
$var wire 32 i" B [31:0] $end
$var wire 32 j" C [31:0] $end
$var wire 2 k" S [1:0] $end
$var wire 32 l" D [31:0] $end
$var wire 32 m" A [31:0] $end
$var reg 32 n" Y [31:0] $end
$upscope $end
$upscope $end
$scope module ForwardingUnit $end
$var wire 5 o" RegTarget_EX_Mem [4:0] $end
$var wire 1 O RegWr_Ex_Mem $end
$var wire 5 p" Rt_ID_EX [4:0] $end
$var wire 5 q" Rs_ID_EX [4:0] $end
$var wire 1 N RegWr_Mem_Wr $end
$var wire 5 r" RegTarget_Mem_Wr [4:0] $end
$var wire 1 e MemWr_ID_EX $end
$var wire 1 %" ALUSrc_ID_Ex $end
$var reg 2 s" ALU_Src_A [1:0] $end
$var reg 2 t" ALU_Src_B [1:0] $end
$var reg 2 u" busBSrc [1:0] $end
$upscope $end
$scope module IDUnit $end
$var wire 26 v" J_Target_ID [25:0] $end
$var wire 6 w" OP_ID [5:0] $end
$var wire 6 x" OP_out_ID [5:0] $end
$var wire 1 y" OverFlow_Wr $end
$var wire 32 z" PC_Addr_out_ID [31:0] $end
$var wire 5 {" Rd_ID [4:0] $end
$var wire 5 |" Rd_out_ID [4:0] $end
$var wire 5 }" Rs_ID [4:0] $end
$var wire 5 ~" Rs_out_ID [4:0] $end
$var wire 5 !# Rt_ID [4:0] $end
$var wire 5 "# Rt_out_ID [4:0] $end
$var wire 1 % clk $end
$var wire 6 ## func_ID [5:0] $end
$var wire 6 $# func_out_ID [5:0] $end
$var wire 16 %# imm16_ID [15:0] $end
$var wire 16 &# imm16_out_ID [15:0] $end
$var wire 5 '# shamt_ID [4:0] $end
$var wire 5 (# shamt_out_ID [4:0] $end
$var wire 32 )# busW [31:0] $end
$var wire 32 *# busB_ID [31:0] $end
$var wire 32 +# busA_ID [31:0] $end
$var wire 1 9 WrByte_ID $end
$var wire 5 ,# Rw_Wr [4:0] $end
$var wire 1 ? Rtype_L_ID $end
$var wire 1 B Rtype_J_ID $end
$var wire 1 D Rtype_ID $end
$var wire 1 N RegWr_Wr $end
$var wire 1 P RegWr_ID $end
$var wire 1 R RegDst_ID $end
$var wire 32 -# PC_Addr_ID [31:0] $end
$var wire 1 d MemWr_ID $end
$var wire 1 h MemToReg_ID $end
$var wire 2 .# LoadByte_ID [1:0] $end
$var wire 1 m Jump_ID $end
$var wire 1 o Jal_Wr $end
$var wire 1 q Jal_ID $end
$var wire 32 /# J_Addr_ID [31:0] $end
$var wire 2 0# ExtOp_ID [1:0] $end
$var wire 1 { Branch_ID $end
$var wire 1 $" ALUSrc_ID $end
$var wire 5 1# ALUCtr_ID [4:0] $end
$scope module ControlUnit $end
$var wire 6 2# OP [5:0] $end
$var wire 6 3# func [5:0] $end
$var reg 5 4# ALUCtr [4:0] $end
$var reg 1 $" ALUSrc $end
$var reg 1 { Branch $end
$var reg 2 5# ExtOp [1:0] $end
$var reg 1 q Jal $end
$var reg 1 m Jump $end
$var reg 2 6# LoadByte [1:0] $end
$var reg 1 h MemToReg $end
$var reg 1 d MemWr $end
$var reg 1 R RegDst $end
$var reg 1 P RegWr $end
$var reg 1 D Rtype $end
$var reg 1 B Rtype_J $end
$var reg 1 ? Rtype_L $end
$var reg 1 9 WrByte $end
$upscope $end
$scope module Regfile $end
$var wire 5 7# Ra [4:0] $end
$var wire 5 8# Rb [4:0] $end
$var wire 1 9# WrEn $end
$var wire 1 % clk $end
$var wire 32 :# busW [31:0] $end
$var wire 5 ;# Rw [4:0] $end
$var wire 1 o Jal $end
$var reg 32 <# busA [31:0] $end
$var reg 32 =# busB [31:0] $end
$upscope $end
$upscope $end
$scope module ID_EX $end
$var wire 5 ># ALUCtr_ID [4:0] $end
$var wire 1 $" ALUSrc_ID $end
$var wire 1 { Branch_ID $end
$var wire 2 ?# ExtOp_ID [1:0] $end
$var wire 32 @# J_Addr_ID [31:0] $end
$var wire 1 q Jal_ID $end
$var wire 1 m Jump_ID $end
$var wire 2 A# LoadByte_ID [1:0] $end
$var wire 1 h MemToReg_ID $end
$var wire 1 d MemWr_ID $end
$var wire 6 B# OP_out_ID [5:0] $end
$var wire 32 C# PC_Addr_out_ID [31:0] $end
$var wire 5 D# Rd_ID [4:0] $end
$var wire 1 R RegDst_ID $end
$var wire 1 P RegWr_ID $end
$var wire 5 E# Rs_ID [4:0] $end
$var wire 5 F# Rt_ID [4:0] $end
$var wire 1 D Rtype_ID $end
$var wire 1 B Rtype_J_ID $end
$var wire 1 ? Rtype_L_ID $end
$var wire 1 9 WrByte_ID $end
$var wire 32 G# busA_ID [31:0] $end
$var wire 32 H# busB_ID [31:0] $end
$var wire 1 % clk $end
$var wire 6 I# func_out_ID [5:0] $end
$var wire 16 J# imm16_ID [15:0] $end
$var wire 5 K# shamt_ID [4:0] $end
$var wire 1 L# stall $end
$var reg 5 M# ALUCtr_Ex [4:0] $end
$var reg 1 %" ALUSrc_Ex $end
$var reg 1 | Branch_Ex $end
$var reg 2 N# ExtOp_Ex [1:0] $end
$var reg 32 O# J_Addr_Ex [31:0] $end
$var reg 1 r Jal_Ex $end
$var reg 1 n Jump_Ex $end
$var reg 2 P# LoadByte_Ex [1:0] $end
$var reg 1 i MemToReg_Ex $end
$var reg 1 e MemWr_Ex $end
$var reg 6 Q# OP_out_Ex [5:0] $end
$var reg 32 R# PC_Addr_out_Ex [31:0] $end
$var reg 5 S# Rd_Ex [4:0] $end
$var reg 1 S RegDst_Ex $end
$var reg 1 Q RegWr_Ex $end
$var reg 5 T# Rs_Ex [4:0] $end
$var reg 5 U# Rt_Ex [4:0] $end
$var reg 1 E Rtype_Ex $end
$var reg 1 C Rtype_J_Ex $end
$var reg 1 @ Rtype_L_Ex $end
$var reg 1 : WrByte_Ex $end
$var reg 32 V# busA_Ex [31:0] $end
$var reg 32 W# busB_Ex [31:0] $end
$var reg 6 X# func_out_Ex [5:0] $end
$var reg 16 Y# imm16_Ex [15:0] $end
$var reg 5 Z# shamt_Ex [4:0] $end
$upscope $end
$scope module IF_ID $end
$var wire 1 % clk $end
$var wire 1 [# stall $end
$var wire 32 \# PC_Addr_IF [31:0] $end
$var wire 32 ]# Instruction_IF [31:0] $end
$var reg 32 ^# Instruction_ID [31:0] $end
$var reg 32 _# PC_Addr_ID [31:0] $end
$upscope $end
$scope module IUnit $end
$var wire 1 `# PC_Src $end
$var wire 30 a# Target_PC_Addr [31:2] $end
$var wire 1 % clk $end
$var wire 1 & rst $end
$var wire 30 b# PC_out [31:2] $end
$var wire 30 c# PC_Plus_4 [31:2] $end
$var wire 32 d# PC_Addr [31:0] $end
$var wire 30 e# PCSrc_MUX_out [31:2] $end
$var wire 32 f# Instruction [31:0] $end
$scope module IM $end
$var wire 10 g# Addr [11:2] $end
$var wire 32 h# Dout [31:0] $end
$upscope $end
$scope module MUX_PCSrc $end
$var wire 30 i# A [29:0] $end
$var wire 30 j# B [29:0] $end
$var wire 1 `# S $end
$var wire 30 k# Y [29:0] $end
$upscope $end
$scope module PC $end
$var wire 30 l# Next_I_Addr [31:2] $end
$var wire 1 % clk $end
$var wire 1 & rst $end
$var wire 1 m# stall $end
$var reg 30 n# I_Addr [31:2] $end
$upscope $end
$upscope $end
$scope module MemUnit $end
$var wire 32 o# ALU_ans_Mem [31:0] $end
$var wire 32 p# ALU_ans_out_Mem [31:0] $end
$var wire 1 z Branch_Mem $end
$var wire 1 p Jal_Mem $end
$var wire 2 q# LoadByte_Mem [1:0] $end
$var wire 1 g MemToReg_Mem $end
$var wire 1 c MemWr_Mem $end
$var wire 1 _ OF_Mem $end
$var wire 6 r# OP_Mem [5:0] $end
$var wire 1 O RegWr_Mem $end
$var wire 5 s# Reg_Target_Mem [4:0] $end
$var wire 5 t# Reg_Target_out_Mem [4:0] $end
$var wire 1 A Rtype_J_Mem $end
$var wire 1 > Rtype_L_Mem $end
$var wire 1 ; Sign_Mem $end
$var wire 1 8 WrByte_Mem $end
$var wire 1 6 ZF_Mem $end
$var wire 32 u# busB_Mem [31:0] $end
$var wire 1 % clk $end
$var wire 32 v# Word_Data_out [31:0] $end
$var wire 32 w# Mem_Data_out [31:0] $end
$var wire 8 x# Byte_Data_out [7:0] $end
$var wire 32 y# Byte_Data_ext [31:0] $end
$scope module DM_4K $end
$var wire 12 z# Addr [11:0] $end
$var wire 8 {# ByteDout [7:0] $end
$var wire 32 |# Din [31:0] $end
$var wire 1 8 WrByte $end
$var wire 1 c WrEn $end
$var wire 1 % clk $end
$var wire 32 }# Dout [31:0] $end
$upscope $end
$scope module Ext_Byte $end
$var wire 1 ~# ExtOp $end
$var wire 8 !$ in [7:0] $end
$var wire 32 "$ out [31:0] $end
$var reg 32 #$ out_t [31:0] $end
$upscope $end
$scope module MUX_Byte_Word $end
$var wire 32 $$ A [31:0] $end
$var wire 32 %$ B [31:0] $end
$var wire 1 &$ S $end
$var wire 32 '$ Y [31:0] $end
$upscope $end
$upscope $end
$scope module Mem_Wr $end
$var wire 32 ($ ALU_ans_Mem [31:0] $end
$var wire 1 p Jal_Mem $end
$var wire 1 g MemToReg_Mem $end
$var wire 32 )$ Mem_Data_Mem [31:0] $end
$var wire 32 *$ PC_Addr_Mem [31:0] $end
$var wire 1 O RegWr_Mem $end
$var wire 5 +$ Reg_Target_Mem [4:0] $end
$var wire 1 > Rtype_L_Mem $end
$var wire 1 % clk $end
$var reg 32 ,$ ALU_ans_Wr [31:0] $end
$var reg 1 o Jal_Wr $end
$var reg 1 f MemToReg_Wr $end
$var reg 32 -$ Mem_Data_Wr [31:0] $end
$var reg 32 .$ PC_Addr_Wr [31:0] $end
$var reg 1 N RegWr_Wr $end
$var reg 5 /$ Reg_Target_Wr [4:0] $end
$var reg 1 = Rtype_L_Wr $end
$upscope $end
$scope module WrUint $end
$var wire 32 0$ ALU_ans_Wr [31:0] $end
$var wire 1 o Jal_Wr $end
$var wire 1 f MemToReg_Wr $end
$var wire 32 1$ Mem_Data_Wr [31:0] $end
$var wire 32 2$ PC_Addr_Wr [31:0] $end
$var wire 1 = Rtype_L_Wr $end
$var wire 32 3$ busW_Wr [31:0] $end
$var wire 32 4$ MUX_1_data [31:0] $end
$scope module MUX_ALU_Memory $end
$var wire 32 5$ A [31:0] $end
$var wire 32 6$ B [31:0] $end
$var wire 1 f S $end
$var wire 32 7$ Y [31:0] $end
$upscope $end
$scope module MUX_data_PCAddr $end
$var wire 32 8$ A [31:0] $end
$var wire 32 9$ B [31:0] $end
$var wire 1 :$ S $end
$var wire 32 ;$ Y [31:0] $end
$upscope $end
$upscope $end
$upscope $end
$upscope $end
$enddefinitions $end
#0
$dumpvars
bx ;$
x:$
bx 9$
bz 8$
bx 7$
bx 6$
bx 5$
bx 4$
bx 3$
bz 2$
bx 1$
bx 0$
bx /$
bz .$
bx -$
bx ,$
bx +$
bz *$
bx )$
bx ($
bx '$
x&$
bx %$
bx $$
bx #$
bx "$
bx !$
x~#
bx }#
bx |#
bx {#
bx z#
bx y#
bx x#
bx w#
bx v#
bx u#
bx t#
bx s#
bx r#
bx q#
bx p#
bx o#
b0 n#
0m#
b1 l#
b1 k#
b1 j#
bz i#
b100100000000010000000000000001 h#
b0 g#
b100100000000010000000000000001 f#
b1 e#
b0 d#
b1 c#
b0 b#
bz a#
0`#
bx00 _#
bx ^#
b100100000000010000000000000001 ]#
b0 \#
0[#
bx Z#
bx Y#
bz X#
bx W#
bx V#
bx U#
bx T#
bx S#
bx R#
bx Q#
bx P#
bx00 O#
bx N#
bx M#
0L#
bx K#
bx J#
bz I#
bx H#
bx G#
bx F#
bx E#
bx D#
bx00 C#
bx B#
bx A#
bx00 @#
bx ?#
bx >#
bx =#
bx <#
bx ;#
bx :#
x9#
bx 8#
bx 7#
bx 6#
bx 5#
bx 4#
bx 3#
bx 2#
bx 1#
bx 0#
bx00 /#
bx .#
bx00 -#
bx ,#
bx +#
bx *#
bx )#
bx (#
bx '#
bx &#
bx %#
bx $#
bx ##
bx "#
bx !#
bx ~"
bx }"
bx |"
bx {"
bx00 z"
0y"
bx x"
bx w"
bx v"
bx u"
bx t"
bx s"
bx r"
bx q"
bx p"
bx o"
bx n"
bx m"
bx l"
bx k"
bz j"
bx i"
bx h"
bx g"
bx f"
bx e"
bx d"
bx c"
bx b"
bx a"
bx `"
bx _"
bz ^"
bx ]"
bx \"
bx ["
bx Z"
bx Y"
bx X"
bx W"
bx V"
bx U"
bx T"
bx S"
bx R"
bx Q"
bx P"
bx O"
bx N"
bx M"
bx L"
bx K"
bx J"
bx I"
bx00 H"
bx G"
bx F"
bx E"
bx D"
bx C"
bx B"
bx A"
bx @"
bx ?"
bx >"
bx ="
bx <"
bx ;"
bx :"
bx 9"
bx00 8"
bx 7"
bx 6"
bx 5"
bx 4"
bx 3"
bx 2"
bx 1"
bx 0"
bx /"
bx ."
bx -"
bx ,"
bx +"
bx *"
bx )"
bx ("
bx '"
bx &"
x%"
x$"
bx #"
bx ""
bx !"
bx ~
bx }
x|
x{
xz
bx y
bx x
bx w
b100100000000010000000000000001 v
bx00 u
bx00 t
bx00 s
xr
xq
xp
xo
xn
xm
bx l
bx k
bx j
xi
xh
xg
xf
xe
xd
xc
bx b
bx a
0`
0_
bx ^
bx ]
bx \
bx00 [
b0 Z
bx Y
bz X
bx W
bx00 V
bx U
bx T
xS
xR
xQ
xP
xO
xN
bx M
bx L
bx K
bx J
bx I
bx H
bx G
bx F
xE
xD
xC
xB
xA
x@
x?
x>
x=
x<
x;
x:
x9
x8
07
06
bx 5
bx 4
bx 3
bx 2
bx 1
bx 0
bx /
bx .
bx -
bx ,
bx +
bx *
b0 )
b10000000000000000000000000000011 (
b0 '
1&
1%
bx $
bx #
bz "
z!
$end
#5000
0&
0%
#7000
b100000 )
b1 '
#10000
b0 k
b0 .#
b0 6#
b0 A#
09
0?
0B
0q
0D
b1 x
b1 0#
b1 5#
b1 ?#
0d
1P
0h
b1 ("
b1 1#
b1 4#
b1 >#
1$"
0R
0m
0{
b1000000000000000100 t
b1000000000000000100 /#
b1000000000000000100 @#
b10000000000000001 v"
b1 ,
b1 &#
b1 J#
b1 %#
b0 *
b0 (#
b0 K#
b0 '#
b0 T
b0 |"
b0 D#
b0 {"
b1 F
b1 "#
b1 F#
b1 !#
b1 8#
b0 H
b0 ~"
b0 E#
b0 }"
b0 7#
b1001 ^
b1001 x"
b1001 B#
b1001 w"
b1001 2#
b1 $#
b1 ##
b1 3#
b10001000100000000 v
b10001000100000000 ]#
b10001000100000000 f#
b10001000100000000 h#
b1 g#
b10 e#
b10 k#
b10 l#
bx00 W
bx00 ,"
bx00 C"
bx00 R#
b0 V
b0 z"
b0 C#
b0 [
b0 -#
b0 _#
b100100000000010000000000000001 w
b100100000000010000000000000001 ^#
b100 Z
b100 \#
b100 d#
b10 c#
b10 j#
b1 b#
b1 n#
1%
#15000
0%
#16000
b0 1
b0 *#
b0 =#
b0 H#
b0 4
b0 +#
b0 <#
b0 G#
#17000
b100000 )
b10 '
#20000
b1 #"
b1 /"
b1 M"
b1 U"
b0 /
b0 *"
b0 <"
b0 n"
b1 K"
b1 R"
b1 h"
b0 L"
b0 T"
b0 b"
b0 3
b0 >"
b0 k"
b0 u"
b1 &"
b1 N"
b1 e"
b1 t"
b0 '"
b0 O"
b0 _"
b0 s"
1D
b0x x
b0x 0#
b0x 5#
b0x ?#
b1000 ("
b1000 1#
b1000 4#
b1000 >#
0$"
1R
b100 }
b100 J"
b10000010001100000100001 v
b10000010001100000100001 ]#
b10000010001100000100001 f#
b10000010001100000100001 h#
b10 g#
b11 e#
b11 k#
b11 l#
b1000100010000000000 t
b1000100010000000000 /#
b1000100010000000000 @#
b10001000100000000 v"
b1000100000000 ,
b1000100000000 &#
b1000100000000 J#
b1000100000000 %#
b100 *
b100 (#
b100 K#
b100 '#
b10 T
b10 |"
b10 D#
b10 {"
b0 ^
b0 x"
b0 B#
b0 w"
b0 2#
b0 $#
b0 ##
b0 3#
b1 :"
b1 Y"
b1 \"
b1 d"
0<
b1 M
b1 +"
b1 A"
b1000 Z
b1000 \#
b1000 d#
b11 c#
b11 j#
b10 b#
b10 n#
b100 V
b100 z"
b100 C#
b100 [
b100 -#
b100 _#
b10001000100000000 w
b10001000100000000 ^#
b0 I
b0 q"
b0 T#
b1 G
b1 @"
b1 p"
b1 U#
b0 U
b0 B"
b0 S#
b1 -
b1 ;"
b1 Z"
b1 Y#
b1001 \
b1001 -"
b1001 D"
b1001 Q#
b1000000000000000100 s
b1000000000000000100 8"
b1000000000000000100 u
b1000000000000000100 H"
b1000000000000000100 O#
b0 W
b0 ,"
b0 C"
b0 R#
b0 2
b0 ="
b0 f"
b0 l"
b0 W#
b0 5
b0 ?"
b0 `"
b0 V#
b0 +
b0 9"
b0 Q"
b0 Z#
b0 l
b0 ."
b0 G"
b0 P#
0:
0@
0C
0r
0E
b1 y
b1 I"
b1 ["
b1 N#
0e
1Q
0i
b1 )"
b1 P"
b1 S"
b1 M#
1%"
0S
0n
0|
bx00 Y
bx00 3"
1%
#25000
0%
#27000
b100000 )
b11 '
#30000
b1 /
b1 *"
b1 <"
b1 n"
b10 3
b10 >"
b10 k"
b10 u"
b10 &"
b10 N"
b10 e"
b10 t"
b0xxxxxxxx y#
b0xxxxxxxx "$
b0xxxxxxxx #$
b0xxxxxxxx $$
b1 ("
b1 1#
b1 4#
b1 >#
0~#
0&$
b1 z#
b10000 #"
b10000 /"
b10000 M"
b10000 U"
b10 M
b10 +"
b10 A"
b1000001000110000010000100 t
b1000001000110000010000100 /#
b1000001000110000010000100 @#
b10000010001100000100001 v"
b1100000100001 ,
b1100000100001 &#
b1100000100001 J#
b1100000100001 %#
b0 *
b0 (#
b0 K#
b0 '#
b11 T
b11 |"
b11 D#
b11 {"
b10 H
b10 ~"
b10 E#
b10 }"
b10 7#
b100001 $#
b100001 ##
b100001 3#
b100010000010000010 v
b100010000010000010 ]#
b100010000010000010 f#
b100010000010000010 h#
b11 g#
b100 e#
b100 k#
b100 l#
b0 j
b0 1"
b0 q#
08
0>
0A
0p
0c
1O
0g
0z
0;
b1 J
b1 t#
b1 +$
b1 L
b1 4"
b1 o"
b1 s#
b1001 ]
b1001 2"
b1001 r#
b0 Y
b0 3"
b0 0
b0 5"
b0 u#
b0 |#
b1 ~
b1 p#
b1 ($
b1 ""
b1 0"
b1 6"
b1 7"
b1 ]"
b1 c"
b1 i"
b1 o#
b10 U
b10 B"
b10 S#
b1000100000000 -
b1000100000000 ;"
b1000100000000 Z"
b1000100000000 Y#
b0 \
b0 -"
b0 D"
b0 Q#
b1000100010000000000 s
b1000100010000000000 8"
b1000100010000000000 u
b1000100010000000000 H"
b1000100010000000000 O#
b1000 }
b1000 J"
b100 W
b100 ,"
b100 C"
b100 R#
b100 +
b100 9"
b100 Q"
b100 Z#
1E
b0x y
b0x I"
b0x ["
b0x N#
b1000 )"
b1000 P"
b1000 S"
b1000 M#
0%"
1S
b1000 V
b1000 z"
b1000 C#
b1000 [
b1000 -#
b1000 _#
b10000010001100000100001 w
b10000010001100000100001 ^#
b1100 Z
b1100 \#
b1100 d#
b100 c#
b100 j#
b11 b#
b11 n#
1%
#35000
0%
#37000
b100000 )
b100 '
