src/CPU_Wave.vcd
$date
	Fri Jun 09 15:50:04 2023
$end
$version
	Icarus Verilog
$end
$timescale
	1ps
$end
$scope module ExtUnit_LB_206 $end
$var wire 1 ! ExtOp $end
$var wire 8 " in [7:0] $end
$var wire 32 # out [31:0] $end
$var reg 32 $ out_t [31:0] $end
$upscope $end
$scope module ExtUnit_NPC_206 $end
$var wire 1 % ExtOp $end
$var wire 16 & in [15:0] $end
$var wire 30 ' out [29:0] $end
$var reg 30 ( out_t [29:0] $end
$upscope $end
$scope module tb_PipeLine_CPU $end
$var reg 1 ) clk $end
$var reg 1 * rst $end
$scope module u_PipeLine_CPU $end
$var wire 1 ) clk $end
$var wire 1 * rst $end
$var wire 5 + shamt_ID [4:0] $end
$var wire 5 , shamt_Ex [4:0] $end
$var wire 16 - imm16_ID [15:0] $end
$var wire 16 . imm16_Ex [15:0] $end
$var wire 32 / busB_out_Ex [31:0] $end
$var wire 32 0 busB_ID [31:0] $end
$var wire 32 1 busB_Ex [31:0] $end
$var wire 32 2 busA_ID [31:0] $end
$var wire 32 3 busA_Ex [31:0] $end
$var wire 1 4 ZF_Ex $end
$var wire 1 5 WrByte_ID $end
$var wire 1 6 WrByte_Ex $end
$var wire 1 7 Sign_Ex $end
$var wire 1 8 Rtype_L_ID $end
$var wire 1 9 Rtype_L_Ex $end
$var wire 1 : Rtype_J_ID $end
$var wire 1 ; Rtype_J_Ex $end
$var wire 1 < Rtype_ID $end
$var wire 1 = Rtype_Ex $end
$var wire 5 > Rt_out_ID [4:0] $end
$var wire 5 ? Rt_Ex [4:0] $end
$var wire 5 @ Reg_Target_Ex [4:0] $end
$var wire 1 A RegWr_ID $end
$var wire 1 B RegWr_Ex $end
$var wire 1 C RegDst_ID $end
$var wire 1 D RegDst_Ex $end
$var wire 5 E Rd_out_ID [4:0] $end
$var wire 5 F Rd_Ex [4:0] $end
$var wire 32 G PC_Addr_out_ID [31:0] $end
$var wire 32 H PC_Addr_out_Ex [31:0] $end
$var wire 32 I PC_Addr_IF [31:0] $end
$var wire 32 J PC_Addr_ID [31:0] $end
$var wire 6 K OP_out_Ex [5:0] $end
$var wire 6 L OP_ID [5:0] $end
$var wire 1 M OF_Ex $end
$var wire 1 N MemWr_ID $end
$var wire 1 O MemWr_Ex $end
$var wire 1 P MemToReg_ID $end
$var wire 1 Q MemToReg_Ex $end
$var wire 2 R LoadByte_ID [1:0] $end
$var wire 2 S LoadByte_Ex [1:0] $end
$var wire 1 T Jump_ID $end
$var wire 1 U Jump_Ex $end
$var wire 1 V Jal_ID $end
$var wire 1 W Jal_Ex $end
$var wire 32 X J_Addr_out_Ex [31:0] $end
$var wire 32 Y J_Addr_ID [31:0] $end
$var wire 32 Z J_Addr_Ex [31:0] $end
$var wire 32 [ Instruction_IF [31:0] $end
$var wire 32 \ Instruction_ID [31:0] $end
$var wire 2 ] ExtOp_ID [1:0] $end
$var wire 2 ^ ExtOp_Ex [1:0] $end
$var wire 1 _ Branch_ID $end
$var wire 1 ` Branch_Ex $end
$var wire 32 a B_Addr_Ex [31:0] $end
$var wire 32 b ALU_ans_Ex [31:0] $end
$var wire 1 c ALUSrc_ID $end
$var wire 1 d ALUSrc_Ex $end
$var wire 5 e ALUCtr_ID [4:0] $end
$var wire 5 f ALUCtr_Ex [4:0] $end
$scope module Ex_Mem $end
$var wire 1 ) clk $end
$var wire 32 g busB_Ex [31:0] $end
$var wire 1 4 ZF_Ex $end
$var wire 1 6 WrByte_Ex $end
$var wire 1 7 Sign_Ex $end
$var wire 1 9 Rtype_L_Ex $end
$var wire 1 ; Rtype_J_Ex $end
$var wire 5 h Reg_Target_Ex [4:0] $end
$var wire 1 B RegWr_Ex $end
$var wire 6 i OP_Ex [5:0] $end
$var wire 1 M OF_Ex $end
$var wire 1 O MemWr_Ex $end
$var wire 1 Q MemToReg_Ex $end
$var wire 2 j LoadByte_Ex [1:0] $end
$var wire 1 W Jal_Ex $end
$var wire 1 ` Branch_Ex $end
$var wire 32 k ALU_ans_Ex [31:0] $end
$var reg 32 l ALU_ans_Mem [31:0] $end
$var reg 1 m Branch_Mem $end
$var reg 1 n Jal_Mem $end
$var reg 2 o LoadByte_Mem [1:0] $end
$var reg 1 p MemToReg_Mem $end
$var reg 1 q MemWr_Mem $end
$var reg 1 r OF_Mem $end
$var reg 6 s OP_Mem [5:0] $end
$var reg 1 t RegWr_Mem $end
$var reg 5 u Reg_Target_Mem [4:0] $end
$var reg 1 v Rtype_J_Mem $end
$var reg 1 w Rtype_L_Mem $end
$var reg 1 x Sign_Mem $end
$var reg 1 y WrByte_Mem $end
$var reg 1 z ZF_Mem $end
$var reg 32 { busB_Mem [31:0] $end
$upscope $end
$scope module ExecUnit $end
$var wire 2 | ALUSrcA_ByPassing [1:0] $end
$var wire 2 } ALUSrcB_ByPassing [1:0] $end
$var wire 32 ~ Ex_Mem_ByPassing [31:0] $end
$var wire 32 !" J_Addr_out_Ex [31:0] $end
$var wire 32 "" Mem_Wr_ByPassing [31:0] $end
$var wire 32 #" busB_out_Ex [31:0] $end
$var wire 5 $" shamt_Ex [4:0] $end
$var wire 32 %" imm_16_Ext [31:0] $end
$var wire 16 &" imm16_Ex [15:0] $end
$var wire 32 '" busB_Ex [31:0] $end
$var wire 32 (" busA_Ex [31:0] $end
$var wire 1 4 ZF_Ex $end
$var wire 1 6 WrByte_Ex $end
$var wire 1 7 Sign_Ex $end
$var wire 1 9 Rtype_L_Ex $end
$var wire 1 ; Rtype_J_Ex $end
$var wire 5 )" Rt_Ex [4:0] $end
$var wire 5 *" Reg_Target_Ex [4:0] $end
$var wire 1 B RegWr_Ex $end
$var wire 1 D RegDst_Ex $end
$var wire 5 +" Rd_Ex [4:0] $end
$var wire 32 ," PC_Addr_Ex [31:0] $end
$var wire 6 -" OP_Ex [5:0] $end
$var wire 1 M OF_Ex $end
$var wire 1 O MemWr_Ex $end
$var wire 1 Q MemToReg_Ex $end
$var wire 2 ." LoadByte_Ex [1:0] $end
$var wire 1 U Jump_Ex $end
$var wire 1 W Jal_Ex $end
$var wire 32 /" J_Addr_Ex [31:0] $end
$var wire 2 0" ExtOp_Ex [1:0] $end
$var wire 1 ` Branch_Ex $end
$var wire 32 1" B_Addr_Ex [31:0] $end
$var wire 32 2" ALU_input_B [31:0] $end
$var wire 32 3" ALU_input_A [31:0] $end
$var wire 32 4" ALU_ans_Ex [31:0] $end
$var wire 1 d ALUSrc_Ex $end
$var wire 5 5" ALUCtr_Ex [4:0] $end
$scope module ALU $end
$var wire 5 6" shamt [4:0] $end
$var wire 32 7" B [31:0] $end
$var wire 5 8" ALUCtr [4:0] $end
$var wire 32 9" A [31:0] $end
$var reg 1 M OverFlow $end
$var reg 1 7 Sign $end
$var reg 1 4 Zero $end
$var reg 32 :" result [31:0] $end
$var reg 33 ;" temp [32:0] $end
$var integer 32 <" t1 [31:0] $end
$var integer 32 =" t2 [31:0] $end
$upscope $end
$scope module ExtUnit_Ex $end
$var wire 32 >" out [31:0] $end
$var wire 16 ?" in [15:0] $end
$var wire 2 @" ExtOp [1:0] $end
$var reg 32 A" out_t [31:0] $end
$upscope $end
$scope module MUX_ALUSrc_A $end
$var wire 32 B" A [31:0] $end
$var wire 32 C" B [31:0] $end
$var wire 32 D" C [31:0] $end
$var wire 2 E" S [1:0] $end
$var wire 32 F" D [31:0] $end
$var reg 32 G" Y [31:0] $end
$upscope $end
$scope module MUX_ALUSrc_B $end
$var wire 32 H" A [31:0] $end
$var wire 32 I" B [31:0] $end
$var wire 32 J" C [31:0] $end
$var wire 2 K" S [1:0] $end
$var wire 32 L" D [31:0] $end
$var reg 32 M" Y [31:0] $end
$upscope $end
$upscope $end
$scope module IDUnit $end
$var wire 26 N" J_Target_ID [25:0] $end
$var wire 1 O" Jal_Wr $end
$var wire 6 P" OP_ID [5:0] $end
$var wire 6 Q" OP_out_ID [5:0] $end
$var wire 1 R" OverFlow_Wr $end
$var wire 32 S" PC_Addr_out_ID [31:0] $end
$var wire 5 T" Rd_ID [4:0] $end
$var wire 5 U" Rd_out_ID [4:0] $end
$var wire 1 V" RegWr_Wr $end
$var wire 5 W" Rs_ID [4:0] $end
$var wire 5 X" Rt_ID [4:0] $end
$var wire 5 Y" Rt_out_ID [4:0] $end
$var wire 5 Z" Rw_Wr [4:0] $end
$var wire 32 [" busW [31:0] $end
$var wire 1 ) clk $end
$var wire 6 \" func_ID [5:0] $end
$var wire 6 ]" func_out_ID [5:0] $end
$var wire 16 ^" imm16_ID [15:0] $end
$var wire 16 _" imm16_out_ID [15:0] $end
$var wire 5 `" shamt_ID [4:0] $end
$var wire 5 a" shamt_out_ID [4:0] $end
$var wire 32 b" busB_ID [31:0] $end
$var wire 32 c" busA_ID [31:0] $end
$var wire 1 5 WrByte_ID $end
$var wire 1 8 Rtype_L_ID $end
$var wire 1 : Rtype_J_ID $end
$var wire 1 < Rtype_ID $end
$var wire 1 A RegWr_ID $end
$var wire 1 C RegDst_ID $end
$var wire 32 d" PC_Addr_ID [31:0] $end
$var wire 1 N MemWr_ID $end
$var wire 1 P MemToReg_ID $end
$var wire 2 e" LoadByte_ID [1:0] $end
$var wire 1 T Jump_ID $end
$var wire 1 V Jal_ID $end
$var wire 32 f" J_Addr_ID [31:0] $end
$var wire 2 g" ExtOp_ID [1:0] $end
$var wire 1 _ Branch_ID $end
$var wire 1 c ALUSrc_ID $end
$var wire 5 h" ALUCtr_ID [4:0] $end
$scope module ControlUnit $end
$var wire 6 i" OP [5:0] $end
$var wire 6 j" func [5:0] $end
$var reg 5 k" ALUCtr [4:0] $end
$var reg 1 c ALUSrc $end
$var reg 1 _ Branch $end
$var reg 2 l" ExtOp [1:0] $end
$var reg 1 V Jal $end
$var reg 1 T Jump $end
$var reg 2 m" LoadByte [1:0] $end
$var reg 1 P MemToReg $end
$var reg 1 N MemWr $end
$var reg 1 C RegDst $end
$var reg 1 A RegWr $end
$var reg 1 < Rtype $end
$var reg 1 : Rtype_J $end
$var reg 1 8 Rtype_L $end
$var reg 1 5 WrByte $end
$upscope $end
$scope module Regfile $end
$var wire 1 O" Jal $end
$var wire 5 n" Ra [4:0] $end
$var wire 5 o" Rb [4:0] $end
$var wire 5 p" Rw [4:0] $end
$var wire 1 q" WrEn $end
$var wire 32 r" busA [31:0] $end
$var wire 32 s" busB [31:0] $end
$var wire 32 t" busW [31:0] $end
$var wire 1 ) clk $end
$upscope $end
$upscope $end
$scope module ID_EX $end
$var wire 5 u" ALUCtr_ID [4:0] $end
$var wire 1 c ALUSrc_ID $end
$var wire 1 _ Branch_ID $end
$var wire 2 v" ExtOp_ID [1:0] $end
$var wire 32 w" J_Addr_ID [31:0] $end
$var wire 1 V Jal_ID $end
$var wire 1 T Jump_ID $end
$var wire 2 x" LoadByte_ID [1:0] $end
$var wire 1 P MemToReg_ID $end
$var wire 1 N MemWr_ID $end
$var wire 6 y" OP_out_ID [5:0] $end
$var wire 32 z" PC_Addr_out_ID [31:0] $end
$var wire 5 {" Rd_ID [4:0] $end
$var wire 1 C RegDst_ID $end
$var wire 1 A RegWr_ID $end
$var wire 5 |" Rt_ID [4:0] $end
$var wire 1 < Rtype_ID $end
$var wire 1 : Rtype_J_ID $end
$var wire 1 8 Rtype_L_ID $end
$var wire 1 5 WrByte_ID $end
$var wire 32 }" busA_ID [31:0] $end
$var wire 32 ~" busB_ID [31:0] $end
$var wire 1 ) clk $end
$var wire 6 !# func_out_ID [5:0] $end
$var wire 16 "# imm16_ID [15:0] $end
$var wire 5 ## shamt_ID [4:0] $end
$var wire 1 $# stall $end
$var reg 5 %# ALUCtr_Ex [4:0] $end
$var reg 1 d ALUSrc_Ex $end
$var reg 1 ` Branch_Ex $end
$var reg 2 &# ExtOp_Ex [1:0] $end
$var reg 32 '# J_Addr_Ex [31:0] $end
$var reg 1 W Jal_Ex $end
$var reg 1 U Jump_Ex $end
$var reg 2 (# LoadByte_Ex [1:0] $end
$var reg 1 Q MemToReg_Ex $end
$var reg 1 O MemWr_Ex $end
$var reg 6 )# OP_out_Ex [5:0] $end
$var reg 32 *# PC_Addr_out_Ex [31:0] $end
$var reg 5 +# Rd_Ex [4:0] $end
$var reg 1 D RegDst_Ex $end
$var reg 1 B RegWr_Ex $end
$var reg 5 ,# Rt_Ex [4:0] $end
$var reg 1 = Rtype_Ex $end
$var reg 1 ; Rtype_J_Ex $end
$var reg 1 9 Rtype_L_Ex $end
$var reg 1 6 WrByte_Ex $end
$var reg 32 -# busA_Ex [31:0] $end
$var reg 32 .# busB_Ex [31:0] $end
$var reg 6 /# func_out_Ex [5:0] $end
$var reg 16 0# imm16_Ex [15:0] $end
$var reg 5 1# shamt_Ex [4:0] $end
$upscope $end
$scope module IF_ID $end
$var wire 1 ) clk $end
$var wire 1 2# stall $end
$var wire 32 3# PC_Addr_IF [31:0] $end
$var wire 32 4# Instruction_IF [31:0] $end
$var reg 32 5# Instruction_ID [31:0] $end
$var reg 32 6# PC_Addr_ID [31:0] $end
$upscope $end
$scope module IUnit $end
$var wire 1 7# PC_Src $end
$var wire 30 8# Target_PC_Addr [31:2] $end
$var wire 1 ) clk $end
$var wire 1 * rst $end
$var wire 30 9# PC_out [31:2] $end
$var wire 30 :# PC_Plus_4 [31:2] $end
$var wire 32 ;# PC_Addr [31:0] $end
$var wire 30 <# PCSrc_MUX_out [31:2] $end
$var wire 32 =# Instruction [31:0] $end
$scope module IM $end
$var wire 10 ># Addr [11:2] $end
$var wire 32 ?# Dout [31:0] $end
$upscope $end
$scope module MUX_PCSrc $end
$var wire 30 @# A [29:0] $end
$var wire 30 A# B [29:0] $end
$var wire 1 7# S $end
$var wire 30 B# Y [29:0] $end
$upscope $end
$scope module PC $end
$var wire 30 C# Next_I_Addr [31:2] $end
$var wire 1 ) clk $end
$var wire 1 * rst $end
$var reg 30 D# I_Addr [31:2] $end
$upscope $end
$upscope $end
$upscope $end
$upscope $end
$enddefinitions $end
#0
$dumpvars
b0 D#
b1 C#
b1 B#
b1 A#
bz @#
b100100000000010000000000000001 ?#
b0 >#
b100100000000010000000000000001 =#
b1 <#
b0 ;#
b1 :#
b0 9#
bz 8#
07#
bx00 6#
bx 5#
b100100000000010000000000000001 4#
b0 3#
02#
bx 1#
bx 0#
bz /#
bx .#
bx -#
bx ,#
bx +#
bx *#
bx )#
bx (#
bx00 '#
bx &#
bx %#
0$#
bx ##
bx "#
bz !#
bx ~"
bx }"
bx |"
bx {"
bx00 z"
bx y"
bx x"
bx00 w"
bx v"
bx u"
b0 t"
bx s"
bx r"
0q"
b0 p"
bx o"
bx n"
bx m"
bx l"
bx k"
bx j"
bx i"
bx h"
bx g"
bx00 f"
bx e"
bx00 d"
bx c"
bx b"
bx a"
bx `"
bx _"
bx ^"
bx ]"
bx \"
b0 ["
b0 Z"
bx Y"
bx X"
bx W"
0V"
bx U"
bx T"
bx00 S"
0R"
bx Q"
bx P"
0O"
bx N"
bx M"
bx L"
b0 K"
bz J"
bz I"
bz H"
bx G"
bx F"
b0x E"
bx D"
bz C"
bz B"
bx A"
bx @"
bx ?"
bx >"
bx ="
bx <"
bx ;"
bx :"
bx 9"
bx 8"
bx 7"
bx 6"
bx 5"
bx 4"
bx 3"
bx 2"
bx 1"
bx 0"
bx00 /"
bx ."
bx -"
bx ,"
bx +"
bx *"
bx )"
bx ("
bx '"
bx &"
bx %"
bx $"
bx #"
bz ""
bx00 !"
bz ~
bz }
bz |
bx {
0z
xy
xx
xw
xv
bx u
xt
bx s
0r
xq
xp
bx o
xn
xm
bx l
bx k
bx j
bx i
bx h
bx g
bx f
bx e
xd
xc
bx b
bx a
x`
x_
bx ^
bx ]
bx \
b100100000000010000000000000001 [
bx00 Z
bx00 Y
bx00 X
xW
xV
xU
xT
bx S
bx R
xQ
xP
xO
xN
0M
bx L
bx K
bx00 J
b0 I
bx H
bx00 G
bx F
bx E
xD
xC
xB
xA
bx @
bx ?
bx >
x=
x<
x;
x:
x9
x8
x7
x6
x5
04
bx 3
bx 2
bx 1
bx 0
bx /
bx .
bx -
bx ,
bx +
1*
1)
bx (
bx '
bz &
z%
bx $
bx #
bz "
z!
$end
#5000
0*
0)
#10000
b0 R
b0 e"
b0 m"
b0 x"
05
08
0:
0V
0<
b1 ]
b1 g"
b1 l"
b1 v"
0N
1A
0P
b1 e
b1 h"
b1 k"
b1 u"
1c
0C
0T
0_
b1000000000000000100 Y
b1000000000000000100 f"
b1000000000000000100 w"
b10000000000000001 N"
b1 -
b1 _"
b1 "#
b1 ^"
b0 +
b0 a"
b0 ##
b0 `"
b0 E
b0 U"
b0 {"
b0 T"
b1 >
b1 Y"
b1 |"
b0 0
b0 b"
b0 s"
b0 ~"
b1 X"
b1 o"
b0 2
b0 c"
b0 r"
b0 }"
b0 W"
b0 n"
b1001 L
b1001 Q"
b1001 y"
b1001 P"
b1001 i"
b1 ]"
b1 \"
b1 j"
b10001000100000000 [
b10001000100000000 4#
b10001000100000000 =#
b10001000100000000 ?#
b1 >#
b10 <#
b10 B#
b10 C#
bx00 H
bx00 ,"
bx00 *#
b0 G
b0 S"
b0 z"
b0 J
b0 d"
b0 6#
b100100000000010000000000000001 \
b100100000000010000000000000001 5#
b100 I
b100 3#
b100 ;#
b10 :#
b10 A#
b1 9#
b1 D#
1)
#15000
0)
#20000
b1 b
b1 k
b1 4"
b1 :"
b1 3"
b1 9"
b1 G"
b0 2"
b0 7"
b0 M"
1<
b0x ]
b0x g"
b0x l"
b0x v"
b1000 e
b1000 h"
b1000 k"
b1000 u"
0c
1C
b100 a
b100 1"
b10000010001100000100001 [
b10000010001100000100001 4#
b10000010001100000100001 =#
b10000010001100000100001 ?#
b10 >#
b11 <#
b11 B#
b11 C#
b1000100010000000000 Y
b1000100010000000000 f"
b1000100010000000000 w"
b10001000100000000 N"
b1000100000000 -
b1000100000000 _"
b1000100000000 "#
b1000100000000 ^"
b100 +
b100 a"
b100 ##
b100 `"
b10 E
b10 U"
b10 {"
b10 T"
b0 L
b0 Q"
b0 y"
b0 P"
b0 i"
b0 ]"
b0 \"
b0 j"
b1 %"
b1 >"
b1 A"
b1 D"
07
b1 @
b1 h
b1 *"
b1000 I
b1000 3#
b1000 ;#
b11 :#
b11 A#
b10 9#
b10 D#
b100 G
b100 S"
b100 z"
b100 J
b100 d"
b100 6#
b10001000100000000 \
b10001000100000000 5#
b1 ?
b1 )"
b1 ,#
b0 F
b0 +"
b0 +#
b1 .
b1 &"
b1 ?"
b1 0#
b1001 K
b1001 i
b1001 -"
b1001 )#
b1000000000000000100 X
b1000000000000000100 !"
b1000000000000000100 Z
b1000000000000000100 /"
b1000000000000000100 '#
b0 H
b0 ,"
b0 *#
b0 /
b0 g
b0 #"
b0 1
b0 '"
b0 L"
b0 .#
b0 3
b0 ("
b0 F"
b0 -#
b0 ,
b0 $"
b0 6"
b0 1#
b0 S
b0 j
b0 ."
b0 (#
06
09
0;
0W
0=
b1 ^
b1 0"
b1 @"
b1 &#
0O
0B
0Q
b1 f
b1 5"
b1 8"
b1 %#
b1 E"
1d
0D
0U
0`
1)
#25000
0)
#30000
b0 3"
b0 9"
b0 G"
b1 e
b1 h"
b1 k"
b1 u"
14
b0 b
b0 k
b0 4"
b0 :"
b10 @
b10 h
b10 *"
b1000001000110000010000100 Y
b1000001000110000010000100 f"
b1000001000110000010000100 w"
b10000010001100000100001 N"
b1100000100001 -
b1100000100001 _"
b1100000100001 "#
b1100000100001 ^"
b0 +
b0 a"
b0 ##
b0 `"
b11 E
b11 U"
b11 {"
b11 T"
b10 W"
b10 n"
b100001 ]"
b100001 \"
b100001 j"
b100010000010000010 [
b100010000010000010 4#
b100010000010000010 =#
b100010000010000010 ?#
b11 >#
b100 <#
b100 B#
b100 C#
b0 o
0y
0w
0v
0n
0q
0t
0p
0m
0x
b1 u
b1001 s
b0 {
b1 l
b10 F
b10 +"
b10 +#
b1000100000000 .
b1000100000000 &"
b1000100000000 ?"
b1000100000000 0#
b0 K
b0 i
b0 -"
b0 )#
b1000100010000000000 X
b1000100010000000000 !"
b1000100010000000000 Z
b1000100010000000000 /"
b1000100010000000000 '#
b1000 a
b1000 1"
b100 H
b100 ,"
b100 *#
b100 ,
b100 $"
b100 6"
b100 1#
1=
b0x ^
b0x 0"
b0x @"
b0x &#
1B
b1000 f
b1000 5"
b1000 8"
b1000 %#
b0 E"
0d
1D
b1000 G
b1000 S"
b1000 z"
b1000 J
b1000 d"
b1000 6#
b10000010001100000100001 \
b10000010001100000100001 5#
b1100 I
b1100 3#
b1100 ;#
b100 :#
b100 A#
b11 9#
b11 D#
1)
#35000
0)
#40000
b1001 e
b1001 h"
b1001 k"
b1001 u"
b101000100110010000000000000101 [
b101000100110010000000000000101 4#
b101000100110010000000000000101 =#
b101000100110010000000000000101 ?#
b100 >#
b101 <#
b101 B#
b101 C#
b10001000001000001000 Y
b10001000001000001000 f"
b10001000001000001000 w"
b100010000010000010 N"
b10000010000010 -
b10000010000010 _"
b10000010000010 "#
b10000010000010 ^"
b10 +
b10 a"
b10 ##
b10 `"
b100 E
b100 U"
b100 {"
b100 T"
b10 >
b10 Y"
b10 |"
b10 X"
b10 o"
b0 W"
b0 n"
b10 ]"
b10 \"
b10 j"
b11 @
b11 h
b11 *"
b10000 I
b10000 3#
b10000 ;#
b101 :#
b101 A#
b100 9#
b100 D#
b1100 G
b1100 S"
b1100 z"
b1100 J
b1100 d"
b1100 6#
b100010000010000010 \
b100010000010000010 5#
b11 F
b11 +"
b11 +#
b1100000100001 .
b1100000100001 &"
b1100000100001 ?"
b1100000100001 0#
b1000001000110000010000100 X
b1000001000110000010000100 !"
b1000001000110000010000100 Z
b1000001000110000010000100 /"
b1000001000110000010000100 '#
b1100 a
b1100 1"
b1000 H
b1000 ,"
b1000 *#
b0 ,
b0 $"
b0 6"
b0 1#
b1 f
b1 5"
b1 8"
b1 %#
1t
1z
b10 u
b0 s
b0 l
1)
#45000
0)
#50000
0<
b1 ]
b1 g"
b1 l"
b1 v"
b1100 e
b1100 h"
b1100 k"
b1100 u"
1c
0C
b100 @
b100 h
b100 *"
b10011001000000000000010100 Y
b10011001000000000000010100 f"
b10011001000000000000010100 w"
b100110010000000000000101 N"
b101 -
b101 _"
b101 "#
b101 ^"
b0 +
b0 a"
b0 ##
b0 `"
b0 E
b0 U"
b0 {"
b0 T"
b11001 >
b11001 Y"
b11001 |"
b11001 X"
b11001 o"
b100 W"
b100 n"
b1010 L
b1010 Q"
b1010 y"
b1010 P"
b1010 i"
b101 ]"
b101 \"
b101 j"
b111001000010000000000010000 [
b111001000010000000000010000 4#
b111001000010000000000010000 =#
b111001000010000000000010000 ?#
b101 >#
b110 <#
b110 B#
b110 C#
b11 u
b10 ?
b10 )"
b10 ,#
b100 F
b100 +"
b100 +#
b10000010000010 .
b10000010000010 &"
b10000010000010 ?"
b10000010000010 0#
b10001000001000001000 X
b10001000001000001000 !"
b10001000001000001000 Z
b10001000001000001000 /"
b10001000001000001000 '#
b10000 a
b10000 1"
b1100 H
b1100 ,"
b1100 *#
b10 ,
b10 $"
b10 6"
b10 1#
b1001 f
b1001 5"
b1001 8"
b1001 %#
b10000 G
b10000 S"
b10000 z"
b10000 J
b10000 d"
b10000 6#
b101000100110010000000000000101 \
b101000100110010000000000000101 5#
b10100 I
b10100 3#
b10100 ;#
b110 :#
b110 A#
b101 9#
b101 D#
1)
#55000
0)
#60000
b101 3"
b101 9"
b101 G"
b0 ]
b0 g"
b0 l"
b0 v"
0A
xP
b11111 e
b11111 h"
b11111 k"
b11111 u"
0c
xC
1_
b11001000010100000100011 [
b11001000010100000100011 4#
b11001000010100000100011 =#
b11001000010100000100011 ?#
b110 >#
b111 <#
b111 B#
b111 C#
b1100100001000000000001000000 Y
b1100100001000000000001000000 f"
b1100100001000000000001000000 w"
b11001000010000000000010000 N"
b10000 -
b10000 _"
b10000 "#
b10000 ^"
b1 >
b1 Y"
b1 |"
b1 X"
b1 o"
b11001 W"
b11001 n"
b1 L
b1 Q"
b1 y"
b1 P"
b1 i"
b10000 ]"
b10000 \"
b10000 j"
b101 %"
b101 >"
b101 A"
b101 D"
b11001 @
b11001 h
b11001 *"
b11000 I
b11000 3#
b11000 ;#
b111 :#
b111 A#
b110 9#
b110 D#
b10100 G
b10100 S"
b10100 z"
b10100 J
b10100 d"
b10100 6#
b111001000010000000000010000 \
b111001000010000000000010000 5#
b11001 ?
b11001 )"
b11001 ,#
b0 F
b0 +"
b0 +#
b101 .
b101 &"
b101 ?"
b101 0#
b1010 K
b1010 i
b1010 -"
b1010 )#
b10011001000000000000010100 X
b10011001000000000000010100 !"
b10011001000000000000010100 Z
b10011001000000000000010100 /"
b10011001000000000000010100 '#
b100100 a
b100100 1"
b10000 H
b10000 ,"
b10000 *#
b0 ,
b0 $"
b0 6"
b0 1#
0=
b1 ^
b1 0"
b1 @"
b1 &#
0B
b1100 f
b1100 5"
b1100 8"
b1100 %#
b1 E"
1d
0D
b100 u
1)
#65000
0)
#70000
14
b0 b
b0 k
b0 4"
b0 :"
b0 3"
b0 9"
b0 G"
1<
b0x ]
b0x g"
b0x l"
b0x v"
1A
0P
b11 e
b11 h"
b11 k"
b11 u"
1C
0_
b10000 %"
b10000 >"
b10000 A"
b10000 D"
b0x @
b0x h
b0x *"
b1100100001010000010001100 Y
b1100100001010000010001100 f"
b1100100001010000010001100 w"
b11001000010100000100011 N"
b10100000100011 -
b10100000100011 _"
b10100000100011 "#
b10100000100011 ^"
b101 E
b101 U"
b101 {"
b101 T"
b100 >
b100 Y"
b100 |"
b100 X"
b100 o"
b11 W"
b11 n"
b0 L
b0 Q"
b0 y"
b0 P"
b0 i"
b100011 ]"
b100011 \"
b100011 j"
b10101100000001010000000000010100 [
b10101100000001010000000000010100 4#
b10101100000001010000000000010100 =#
b10101100000001010000000000010100 ?#
b111 >#
b1000 <#
b1000 B#
b1000 C#
0t
b11001 u
b1010 s
b1 ?
b1 )"
b1 ,#
b10000 .
b10000 &"
b10000 ?"
b10000 0#
b1 K
b1 i
b1 -"
b1 )#
b1100100001000000000001000000 X
b1100100001000000000001000000 !"
b1100100001000000000001000000 Z
b1100100001000000000001000000 /"
b1100100001000000000001000000 '#
b1010100 a
b1010100 1"
b10100 H
b10100 ,"
b10100 *#
b0 ^
b0 0"
b0 @"
b0 &#
xB
xQ
b11111 f
b11111 5"
b11111 8"
b11111 %#
b0 E"
0d
xD
1`
b11000 G
b11000 S"
b11000 z"
b11000 J
b11000 d"
b11000 6#
b11001000010100000100011 \
b11001000010100000100011 5#
b11100 I
b11100 3#
b11100 ;#
b1000 :#
b1000 A#
b111 9#
b111 D#
1)
#75000
0)
#80000
0<
b1 ]
b1 g"
b1 l"
b1 v"
1N
0A
b1 e
b1 h"
b1 k"
b1 u"
1c
xC
b101000100011000000100111 [
b101000100011000000100111 4#
b101000100011000000100111 =#
b101000100011000000100111 ?#
b1000 >#
b1001 <#
b1001 B#
b1001 C#
b101000000000001010000 Y
b101000000000001010000 f"
b101000000000001010000 w"
b1010000000000010100 N"
b10100 -
b10100 _"
b10100 "#
b10100 ^"
b0 E
b0 U"
b0 {"
b0 T"
b101 >
b101 Y"
b101 |"
b101 X"
b101 o"
b0 W"
b0 n"
b101011 L
b101011 Q"
b101011 y"
b101011 P"
b101011 i"
b10100 ]"
b10100 \"
b10100 j"
b101 @
b101 h
b101 *"
b100000 I
b100000 3#
b100000 ;#
b1001 :#
b1001 A#
b1000 9#
b1000 D#
b11100 G
b11100 S"
b11100 z"
b11100 J
b11100 d"
b11100 6#
b10101100000001010000000000010100 \
b10101100000001010000000000010100 5#
b100 ?
b100 )"
b100 ,#
b101 F
b101 +"
b101 +#
b10100000100011 .
b10100000100011 &"
b10100000100011 ?"
b10100000100011 0#
b0 K
b0 i
b0 -"
b0 )#
b1100100001010000010001100 X
b1100100001010000010001100 !"
b1100100001010000010001100 Z
b1100100001010000010001100 /"
b1100100001010000010001100 '#
b1011000 a
b1011000 1"
b11000 H
b11000 ,"
b11000 *#
1=
b0x ^
b0x 0"
b0x @"
b0x &#
1B
0Q
b11 f
b11 5"
b11 8"
b11 %#
1D
0`
xt
xp
1m
b0x u
b1 s
1)
#85000
0)
